{
  "token": {
    "access_token": "05372624d4b5f299dab41b46b4dc0fcc63b1526c124a5b99c3a71e833656245a",
    "token_type": "bearer",
    "expires_in": 7200,
    "refresh_token": "10f0c21adfaf89c81b29e852a8ff26ae9719a9357acb035d9a8b9bf09414910d",
    "created_at": 1560805200,
    "user": {
      "id": 776,
      "name": "Jabari Durgan",
      "email": "Hardy.Sawayn@yahoo.com"
    }
  },
  "monthly_metrics": [
    {
      "files_info": [
        {
          "id": 1,
          "month": 12,
          "total": 79,
          "new": 2,
          "without_return": 3,
          "expired": 0
        },
        {
          "id": 2,
          "month": 11,
          "total": 48,
          "new": 9,
          "without_return": 8,
          "expired": 7
        },
        {
          "id": 3,
          "month": 10,
          "total": 485,
          "new": 3,
          "without_return": 7,
          "expired": 1
        },
        {
          "id": 4,
          "month": 9,
          "total": 339,
          "new": 10,
          "without_return": 8,
          "expired": 3
        },
        {
          "id": 5,
          "month": 8,
          "total": 272,
          "new": 6,
          "without_return": 10,
          "expired": 1
        },
        {
          "id": 6,
          "month": 7,
          "total": 468,
          "new": 7,
          "without_return": 6,
          "expired": 8
        }
      ],
      "meta": {
        "current_page": 1,
        "next_page": 2,
        "page_records": 6,
        "total_records": 6
      }
    },
    {
      "files_info": [
        {
          "id": 1,
          "month": 12,
          "total": 364,
          "new": 9,
          "without_return": 6,
          "expired": 1
        },
        {
          "id": 2,
          "month": 11,
          "total": 237,
          "new": 1,
          "without_return": 8,
          "expired": 9
        },
        {
          "id": 3,
          "month": 10,
          "total": 337,
          "new": 3,
          "without_return": 0,
          "expired": 3
        },
        {
          "id": 4,
          "month": 9,
          "total": 474,
          "new": 6,
          "without_return": 6,
          "expired": 2
        },
        {
          "id": 5,
          "month": 8,
          "total": 369,
          "new": 0,
          "without_return": 3,
          "expired": 7
        },
        {
          "id": 6,
          "month": 7,
          "total": 681,
          "new": 4,
          "without_return": 4,
          "expired": 7
        }
      ],
      "meta": {
        "current_page": 2,
        "next_page": 3,
        "page_records": 6,
        "total_records": 6
      }
    },
    {
      "files_info": [
        {
          "id": 1,
          "month": 12,
          "total": 732,
          "new": 2,
          "without_return": 6,
          "expired": 0
        },
        {
          "id": 2,
          "month": 11,
          "total": 26,
          "new": 2,
          "without_return": 0,
          "expired": 7
        },
        {
          "id": 3,
          "month": 10,
          "total": 522,
          "new": 0,
          "without_return": 4,
          "expired": 10
        },
        {
          "id": 4,
          "month": 9,
          "total": 784,
          "new": 2,
          "without_return": 0,
          "expired": 3
        },
        {
          "id": 5,
          "month": 8,
          "total": 767,
          "new": 2,
          "without_return": 8,
          "expired": 1
        },
        {
          "id": 6,
          "month": 7,
          "total": 348,
          "new": 5,
          "without_return": 7,
          "expired": 7
        }
      ],
      "meta": {
        "current_page": 3,
        "next_page": 4,
        "page_records": 6,
        "total_records": 6
      }
    },
    {
      "files_info": [
        {
          "id": 1,
          "month": 12,
          "total": 268,
          "new": 5,
          "without_return": 8,
          "expired": 6
        },
        {
          "id": 2,
          "month": 11,
          "total": 814,
          "new": 8,
          "without_return": 3,
          "expired": 8
        },
        {
          "id": 3,
          "month": 10,
          "total": 355,
          "new": 6,
          "without_return": 3,
          "expired": 0
        },
        {
          "id": 4,
          "month": 9,
          "total": 492,
          "new": 3,
          "without_return": 5,
          "expired": 1
        },
        {
          "id": 5,
          "month": 8,
          "total": 10,
          "new": 7,
          "without_return": 10,
          "expired": 7
        },
        {
          "id": 6,
          "month": 7,
          "total": 595,
          "new": 1,
          "without_return": 8,
          "expired": 3
        }
      ],
      "meta": {
        "current_page": 4,
        "next_page": 5,
        "page_records": 6,
        "total_records": 6
      }
    },
    {
      "files_info": [
        {
          "id": 1,
          "month": 12,
          "total": 166,
          "new": 10,
          "without_return": 3,
          "expired": 3
        },
        {
          "id": 2,
          "month": 11,
          "total": 811,
          "new": 9,
          "without_return": 3,
          "expired": 4
        },
        {
          "id": 3,
          "month": 10,
          "total": 841,
          "new": 0,
          "without_return": 9,
          "expired": 8
        },
        {
          "id": 4,
          "month": 9,
          "total": 355,
          "new": 5,
          "without_return": 7,
          "expired": 4
        },
        {
          "id": 5,
          "month": 8,
          "total": 700,
          "new": 6,
          "without_return": 4,
          "expired": 10
        },
        {
          "id": 6,
          "month": 7,
          "total": 20,
          "new": 1,
          "without_return": 0,
          "expired": 4
        }
      ],
      "meta": {
        "current_page": 5,
        "next_page": 6,
        "page_records": 6,
        "total_records": 6
      }
    },
    {
      "files_info": [
        {
          "id": 1,
          "month": 12,
          "total": 574,
          "new": 9,
          "without_return": 5,
          "expired": 0
        },
        {
          "id": 2,
          "month": 11,
          "total": 576,
          "new": 2,
          "without_return": 10,
          "expired": 9
        },
        {
          "id": 3,
          "month": 10,
          "total": 247,
          "new": 1,
          "without_return": 8,
          "expired": 10
        },
        {
          "id": 4,
          "month": 9,
          "total": 562,
          "new": 9,
          "without_return": 3,
          "expired": 2
        },
        {
          "id": 5,
          "month": 8,
          "total": 187,
          "new": 0,
          "without_return": 0,
          "expired": 6
        },
        {
          "id": 6,
          "month": 7,
          "total": 348,
          "new": 7,
          "without_return": 10,
          "expired": 1
        }
      ],
      "meta": {
        "current_page": 6,
        "next_page": 6,
        "page_records": 6,
        "total_records": 6
      }
    }
  ],
  "bank_files": {
    "type": "debit",
    "files": [
      {
        "id": 1,
        "status": "hard_bounce",
        "bank": "Banco do Brasil",
        "amount": 50,
        "max_date_to_send": "2019-07-26T07:51:24.911Z",
        "expires_in": "2019-07-01T23:56:40.303Z"
      },
      {
        "id": 2,
        "status": "hard_bounce",
        "bank": "Itaú",
        "amount": 38,
        "max_date_to_send": "2019-07-13T06:30:38.852Z",
        "expires_in": "2019-07-16T18:10:45.695Z"
      },
      {
        "id": 3,
        "status": "expired",
        "bank": "Bradesco",
        "amount": 66,
        "max_date_to_send": "2019-07-24T21:03:46.778Z",
        "expires_in": "2019-07-18T09:20:39.558Z"
      },
      {
        "id": 4,
        "status": "paid",
        "bank": "Santander",
        "amount": 40,
        "max_date_to_send": "2019-07-16T03:34:37.424Z",
        "expires_in": "2019-07-16T21:23:59.533Z"
      },
      {
        "id": 5,
        "status": "hard_bounce",
        "bank": "Bradesco",
        "amount": 85,
        "max_date_to_send": "2019-07-16T15:35:14.752Z",
        "expires_in": "2019-07-18T19:22:48.488Z"
      },
      {
        "id": 6,
        "status": "refunded",
        "bank": "Banco do Brasil",
        "amount": 70,
        "max_date_to_send": "2019-07-03T01:46:25.269Z",
        "expires_in": "2019-07-20T06:58:37.073Z"
      },
      {
        "id": 7,
        "status": "sent",
        "bank": "Caixa Econômica",
        "amount": 100,
        "max_date_to_send": "2019-07-29T03:14:15.244Z",
        "expires_in": "2019-07-18T20:43:29.915Z"
      },
      {
        "id": 8,
        "status": "sent",
        "bank": "Bradesco",
        "amount": 40,
        "max_date_to_send": "2019-07-14T03:03:25.521Z",
        "expires_in": "2019-07-03T05:39:26.927Z"
      },
      {
        "id": 9,
        "status": "hard_bounce",
        "bank": "Caixa Econômica",
        "amount": 90,
        "max_date_to_send": "2019-07-24T07:55:53.053Z",
        "expires_in": "2019-07-29T06:28:48.065Z"
      },
      {
        "id": 10,
        "status": "error",
        "bank": "Itaú",
        "amount": 58,
        "max_date_to_send": "2019-07-10T01:27:00.588Z",
        "expires_in": "2019-07-08T04:36:22.120Z"
      },
      {
        "id": 11,
        "status": "error",
        "bank": "Bradesco",
        "amount": 6,
        "max_date_to_send": "2019-07-31T09:49:21.521Z",
        "expires_in": "2019-07-19T21:09:16.925Z"
      },
      {
        "id": 12,
        "status": "paid",
        "bank": "Caixa Econômica",
        "amount": 23,
        "max_date_to_send": "2019-07-12T20:42:05.686Z",
        "expires_in": "2019-07-23T03:30:18.848Z"
      },
      {
        "id": 13,
        "status": "paid",
        "bank": "Santander",
        "amount": 3,
        "max_date_to_send": "2019-07-09T07:24:41.670Z",
        "expires_in": "2019-07-03T02:22:47.195Z"
      },
      {
        "id": 14,
        "status": "refunded",
        "bank": "Caixa Econômica",
        "amount": 55,
        "max_date_to_send": "2019-07-01T02:28:06.146Z",
        "expires_in": "2019-07-05T03:00:40.073Z"
      },
      {
        "id": 15,
        "status": "partial_refunded",
        "bank": "Itaú",
        "amount": 60,
        "max_date_to_send": "2019-07-11T12:20:11.957Z",
        "expires_in": "2019-07-05T07:52:31.496Z"
      },
      {
        "id": 16,
        "status": "refunded",
        "bank": "Caixa Econômica",
        "amount": 12,
        "max_date_to_send": "2019-07-27T05:55:27.134Z",
        "expires_in": "2019-07-10T18:09:09.410Z"
      },
      {
        "id": 17,
        "status": "hard_bounce",
        "bank": "Banco do Brasil",
        "amount": 37,
        "max_date_to_send": "2019-07-25T17:35:21.911Z",
        "expires_in": "2019-07-24T17:39:19.381Z"
      },
      {
        "id": 18,
        "status": "pending",
        "bank": "Caixa Econômica",
        "amount": 36,
        "max_date_to_send": "2019-07-27T13:21:36.921Z",
        "expires_in": "2019-07-18T03:58:05.924Z"
      },
      {
        "id": 19,
        "status": "expired",
        "bank": "Banco do Brasil",
        "amount": 36,
        "max_date_to_send": "2019-07-03T08:41:22.677Z",
        "expires_in": "2019-07-11T13:26:50.222Z"
      },
      {
        "id": 20,
        "status": "pending",
        "bank": "Banco do Brasil",
        "amount": 61,
        "max_date_to_send": "2019-07-08T23:42:53.856Z",
        "expires_in": "2019-07-23T18:24:34.018Z"
      },
      {
        "id": 21,
        "status": "soft_bounce",
        "bank": "Bradesco",
        "amount": 38,
        "max_date_to_send": "2019-07-25T09:22:54.948Z",
        "expires_in": "2019-07-07T07:11:53.757Z"
      },
      {
        "id": 22,
        "status": "processing",
        "bank": "Santander",
        "amount": 79,
        "max_date_to_send": "2019-07-21T21:08:09.461Z",
        "expires_in": "2019-07-21T23:32:41.721Z"
      },
      {
        "id": 23,
        "status": "refunded",
        "bank": "Bradesco",
        "amount": 97,
        "max_date_to_send": "2019-07-27T13:47:28.571Z",
        "expires_in": "2019-07-15T04:59:12.596Z"
      },
      {
        "id": 24,
        "status": "refunded",
        "bank": "Santander",
        "amount": 64,
        "max_date_to_send": "2019-07-12T20:24:28.925Z",
        "expires_in": "2019-07-30T19:15:39.726Z"
      },
      {
        "id": 25,
        "status": "refunded",
        "bank": "Banco do Brasil",
        "amount": 47,
        "max_date_to_send": "2019-07-14T01:25:12.056Z",
        "expires_in": "2019-07-03T10:41:14.832Z"
      },
      {
        "id": 26,
        "status": "hard_bounce",
        "bank": "Santander",
        "amount": 28,
        "max_date_to_send": "2019-07-22T11:13:28.756Z",
        "expires_in": "2019-07-18T13:10:19.265Z"
      },
      {
        "id": 27,
        "status": "expired",
        "bank": "Santander",
        "amount": 81,
        "max_date_to_send": "2019-07-30T12:06:54.925Z",
        "expires_in": "2019-07-03T13:07:53.382Z"
      },
      {
        "id": 28,
        "status": "sent",
        "bank": "Santander",
        "amount": 11,
        "max_date_to_send": "2019-07-05T09:07:31.627Z",
        "expires_in": "2019-07-21T14:23:21.508Z"
      },
      {
        "id": 29,
        "status": "hard_bounce",
        "bank": "Itaú",
        "amount": 70,
        "max_date_to_send": "2019-07-13T09:39:06.012Z",
        "expires_in": "2019-07-16T17:37:30.343Z"
      },
      {
        "id": 30,
        "status": "processing",
        "bank": "Bradesco",
        "amount": 90,
        "max_date_to_send": "2019-07-02T20:03:08.329Z",
        "expires_in": "2019-07-20T11:43:59.831Z"
      },
      {
        "id": 31,
        "status": "error",
        "bank": "Itaú",
        "amount": 74,
        "max_date_to_send": "2019-07-07T12:38:09.063Z",
        "expires_in": "2019-07-09T12:47:32.161Z"
      },
      {
        "id": 32,
        "status": "sent",
        "bank": "Itaú",
        "amount": 51,
        "max_date_to_send": "2019-07-11T08:26:30.256Z",
        "expires_in": "2019-07-03T17:31:06.367Z"
      },
      {
        "id": 33,
        "status": "pending",
        "bank": "Caixa Econômica",
        "amount": 31,
        "max_date_to_send": "2019-07-16T05:16:42.323Z",
        "expires_in": "2019-07-13T15:28:54.707Z"
      },
      {
        "id": 34,
        "status": "partial_refunded",
        "bank": "Bradesco",
        "amount": 50,
        "max_date_to_send": "2019-07-29T19:20:15.501Z",
        "expires_in": "2019-07-05T19:26:55.817Z"
      },
      {
        "id": 35,
        "status": "soft_bounce",
        "bank": "Itaú",
        "amount": 79,
        "max_date_to_send": "2019-07-31T06:14:59.697Z",
        "expires_in": "2019-07-04T17:13:39.282Z"
      },
      {
        "id": 36,
        "status": "refunded",
        "bank": "Itaú",
        "amount": 35,
        "max_date_to_send": "2019-07-09T12:33:09.581Z",
        "expires_in": "2019-07-14T08:45:03.225Z"
      },
      {
        "id": 37,
        "status": "sent",
        "bank": "Itaú",
        "amount": 15,
        "max_date_to_send": "2019-07-30T13:04:31.887Z",
        "expires_in": "2019-07-23T17:48:17.049Z"
      },
      {
        "id": 38,
        "status": "sent",
        "bank": "Itaú",
        "amount": 93,
        "max_date_to_send": "2019-07-08T21:08:44.199Z",
        "expires_in": "2019-07-04T19:39:13.162Z"
      },
      {
        "id": 39,
        "status": "sent",
        "bank": "Bradesco",
        "amount": 50,
        "max_date_to_send": "2019-07-01T18:30:44.053Z",
        "expires_in": "2019-07-31T04:31:58.828Z"
      },
      {
        "id": 40,
        "status": "sent",
        "bank": "Itaú",
        "amount": 40,
        "max_date_to_send": "2019-07-08T16:26:31.508Z",
        "expires_in": "2019-07-18T19:37:40.607Z"
      },
      {
        "id": 41,
        "status": "expired",
        "bank": "Bradesco",
        "amount": 80,
        "max_date_to_send": "2019-07-06T09:43:27.121Z",
        "expires_in": "2019-07-11T10:42:47.505Z"
      },
      {
        "id": 42,
        "status": "partial_refunded",
        "bank": "Itaú",
        "amount": 35,
        "max_date_to_send": "2019-07-30T23:26:41.043Z",
        "expires_in": "2019-07-01T16:50:37.393Z"
      },
      {
        "id": 43,
        "status": "pending",
        "bank": "Banco do Brasil",
        "amount": 25,
        "max_date_to_send": "2019-07-21T09:09:27.341Z",
        "expires_in": "2019-07-01T18:45:07.362Z"
      },
      {
        "id": 44,
        "status": "partial_refunded",
        "bank": "Santander",
        "amount": 53,
        "max_date_to_send": "2019-07-21T19:37:11.453Z",
        "expires_in": "2019-07-04T04:01:40.827Z"
      },
      {
        "id": 45,
        "status": "sent",
        "bank": "Banco do Brasil",
        "amount": 17,
        "max_date_to_send": "2019-07-16T20:32:32.030Z",
        "expires_in": "2019-07-20T17:31:04.481Z"
      },
      {
        "id": 46,
        "status": "soft_bounce",
        "bank": "Santander",
        "amount": 58,
        "max_date_to_send": "2019-07-04T22:21:00.446Z",
        "expires_in": "2019-07-01T10:01:56.355Z"
      },
      {
        "id": 47,
        "status": "paid",
        "bank": "Banco do Brasil",
        "amount": 3,
        "max_date_to_send": "2019-07-14T21:57:50.207Z",
        "expires_in": "2019-07-22T04:29:36.545Z"
      },
      {
        "id": 48,
        "status": "sent",
        "bank": "Banco do Brasil",
        "amount": 3,
        "max_date_to_send": "2019-07-09T11:57:29.356Z",
        "expires_in": "2019-07-14T14:39:27.488Z"
      },
      {
        "id": 49,
        "status": "soft_bounce",
        "bank": "Santander",
        "amount": 84,
        "max_date_to_send": "2019-07-05T08:11:54.880Z",
        "expires_in": "2019-07-21T06:51:21.084Z"
      },
      {
        "id": 50,
        "status": "paid",
        "bank": "Caixa Econômica",
        "amount": 0,
        "max_date_to_send": "2019-07-29T06:49:02.574Z",
        "expires_in": "2019-07-23T18:56:46.958Z"
      }
    ]
  },
  "generate_bank_file": {
    "url": "https://golden.org"
  },
  "import_bank_file": {
    "status": "success"
  },
  "payments": [
    {
      "id": "5a9b35a0-1ccb-44e4-be45-1ed39ff3aaa2",
      "status": "generated",
      "date": "2019-07-25T04:17:34.436Z",
      "donor": {
        "name": "Louisa Funk"
      },
      "method": {
        "type": "payment_slip",
        "card": {
          "brand": "visa"
        }
      },
      "value": "50106",
      "currency": "BRL"
    },
    {
      "id": "232d1b75-43e5-498f-8edb-133124833c98",
      "status": "error",
      "date": "2019-07-24T22:20:38.600Z",
      "donor": {
        "name": "Misael Kirlin"
      },
      "method": {
        "type": "phone_bill",
        "card": {
          "brand": "elo"
        }
      },
      "value": "11581",
      "currency": "BRL"
    },
    {
      "id": "291128ea-f1c9-4644-bad6-db41e22a5a03",
      "status": "hard_bounce",
      "date": "2019-07-25T08:25:25.430Z",
      "donor": {
        "name": "Archibald Keebler"
      },
      "method": {
        "type": "payment_slip",
        "card": {
          "brand": "master"
        }
      },
      "value": "96030",
      "currency": "BRL"
    },
    {
      "id": "63865794-8f2d-4e5c-8321-fc1d945cb029",
      "status": "error",
      "date": "2019-07-25T04:37:29.800Z",
      "donor": {
        "name": "Lonzo Berge"
      },
      "method": {
        "type": "debit",
        "card": {
          "brand": "visa"
        }
      },
      "value": "14771",
      "currency": "BRL"
    },
    {
      "id": "aae0a9a9-b7b8-4b26-b2d5-d5565e57bf9e",
      "status": "sent",
      "date": "2019-07-24T17:17:55.389Z",
      "donor": {
        "name": "Madelynn Breitenberg"
      },
      "method": {
        "type": "payment_slip",
        "card": {
          "brand": "visa"
        }
      },
      "value": "24904",
      "currency": "BRL"
    },
    {
      "id": "b61b19b4-d071-4be6-90c4-73a887798417",
      "status": "pending",
      "date": "2019-07-24T21:14:15.644Z",
      "donor": {
        "name": "Addison Rodriguez"
      },
      "method": {
        "type": "credit",
        "card": {
          "brand": "elo"
        }
      },
      "value": "90420",
      "currency": "BRL"
    },
    {
      "id": "1ad4d7b3-d51d-491f-9f01-8975534dce32",
      "status": "generated",
      "date": "2019-07-24T17:57:45.313Z",
      "donor": {
        "name": "Jodie Erdman"
      },
      "method": {
        "type": "credit",
        "card": {
          "brand": "visa"
        }
      },
      "value": "15770",
      "currency": "BRL"
    },
    {
      "id": "23bf75ed-a3c1-455f-badf-98c92a246995",
      "status": "paid",
      "date": "2019-07-25T08:33:36.342Z",
      "donor": {
        "name": "Jakob Adams"
      },
      "method": {
        "type": "credit",
        "card": {
          "brand": "elo"
        }
      },
      "value": "98496",
      "currency": "BRL"
    },
    {
      "id": "620c48db-3634-4c43-bb52-3c0975a40fd4",
      "status": "error",
      "date": "2019-07-25T02:30:54.340Z",
      "donor": {
        "name": "Sigmund Bashirian"
      },
      "method": {
        "type": "debit",
        "card": {
          "brand": "master"
        }
      },
      "value": "82364",
      "currency": "BRL"
    },
    {
      "id": "d24f3a86-e094-4af5-93c0-1e12dd3b2418",
      "status": "pending",
      "date": "2019-07-25T04:16:01.669Z",
      "donor": {
        "name": "Blaise Herman"
      },
      "method": {
        "type": "credit",
        "card": {
          "brand": "master"
        }
      },
      "value": "44472",
      "currency": "BRL"
    },
    {
      "id": "ad8d15fa-f93d-4b23-9588-b9fe22ef3733",
      "status": "generated",
      "date": "2019-07-25T01:09:20.360Z",
      "donor": {
        "name": "Amani Weimann"
      },
      "method": {
        "type": "credit",
        "card": {
          "brand": "elo"
        }
      },
      "value": "11632",
      "currency": "BRL"
    },
    {
      "id": "323aac73-62be-4ed5-8f90-01fd1a4d5fca",
      "status": "hard_bounce",
      "date": "2019-07-24T18:12:56.562Z",
      "donor": {
        "name": "Alexandrea Harvey"
      },
      "method": {
        "type": "payment_slip",
        "card": {
          "brand": "visa"
        }
      },
      "value": "29145",
      "currency": "BRL"
    },
    {
      "id": "c0fd297b-45a0-42a0-a4d8-b321caf2257c",
      "status": "generated",
      "date": "2019-07-25T00:58:17.709Z",
      "donor": {
        "name": "Shana Bode"
      },
      "method": {
        "type": "phone_bill",
        "card": {
          "brand": "visa"
        }
      },
      "value": "10625",
      "currency": "BRL"
    },
    {
      "id": "21582817-cf12-42d7-bc24-159dc16487a2",
      "status": "pending",
      "date": "2019-07-25T01:00:15.424Z",
      "donor": {
        "name": "Fatima Bayer"
      },
      "method": {
        "type": "phone_bill",
        "card": {
          "brand": "master"
        }
      },
      "value": "60143",
      "currency": "BRL"
    },
    {
      "id": "e9ad362e-13d4-4ac7-9b52-97507da4f2a5",
      "status": "processing",
      "date": "2019-07-24T23:26:39.452Z",
      "donor": {
        "name": "Dakota Keebler MD"
      },
      "method": {
        "type": "payment_slip",
        "card": {
          "brand": "elo"
        }
      },
      "value": "5591",
      "currency": "BRL"
    },
    {
      "id": "79346da3-70a1-4e27-839e-05d2d7c87d03",
      "status": "paid",
      "date": "2019-07-25T08:48:39.240Z",
      "donor": {
        "name": "Lempi Franecki"
      },
      "method": {
        "type": "debit",
        "card": {
          "brand": "master"
        }
      },
      "value": "88279",
      "currency": "BRL"
    },
    {
      "id": "5e2a4b70-d8fb-4aa5-a44f-8bcfd0ce37f9",
      "status": "hard_bounce",
      "date": "2019-07-24T21:24:14.425Z",
      "donor": {
        "name": "Ida Reichert DVM"
      },
      "method": {
        "type": "payment_slip",
        "card": {
          "brand": "master"
        }
      },
      "value": "81517",
      "currency": "BRL"
    },
    {
      "id": "fe8e7d8e-d736-43f5-93b4-bc0a28a65def",
      "status": "partial_refunded",
      "date": "2019-07-25T01:27:37.623Z",
      "donor": {
        "name": "Dedric Waters"
      },
      "method": {
        "type": "payment_slip",
        "card": {
          "brand": "elo"
        }
      },
      "value": "6689",
      "currency": "BRL"
    },
    {
      "id": "0a892e78-92a0-4cc5-8338-4cc1489691e3",
      "status": "pending",
      "date": "2019-07-25T13:11:55.691Z",
      "donor": {
        "name": "Leilani Watsica"
      },
      "method": {
        "type": "debit",
        "card": {
          "brand": "elo"
        }
      },
      "value": "24446",
      "currency": "BRL"
    },
    {
      "id": "9dfd83a8-679e-4922-a2cb-04062cebd9a7",
      "status": "sent",
      "date": "2019-07-24T21:42:50.075Z",
      "donor": {
        "name": "Miss Derrick Shanahan"
      },
      "method": {
        "type": "debit",
        "card": {
          "brand": "master"
        }
      },
      "value": "15770",
      "currency": "BRL"
    }
  ],
  "general_info": {
    "_endpoint": "/admin/general_info",
    "successful_payments_amount": 1141592,
    "hard_bounces_amount": 34425,
    "soft_bounces_amount": 5504,
    "refunds_amount": 12,
    "chargebacks_count": 1,
    "charges_count": 40000,
    "efectiveness_rate": 97.5
  },
  "total_donations": {
    "_endpoint": "/admin/total_donations",
    "unique_donations_count": 20719,
    "recurring_donations_count": 17000,
    "canceled_donations_count": 3400,
    "paused_donations_count": 2000,
    "total_donations_count": 50000,
    "donations_per_month": {
      "2019/07": {
        "unique_count": 300,
        "recurring_count": 100,
        "canceled_count": 100,
        "paused_count": 100
      },
      "2019/06": {
        "unique_count": 200,
        "recurring_count": 50,
        "canceled_count": 2,
        "paused_count": 1000
      }
    }
  },
  "cohort_data": {
    "_endpoint": "/admin/cohort_data",
    "donations_per_month": {
      "2019/07": {
        "donations_count": 400,
        "monthly_taxes": {
          "1": 100
        }
      },
      "2019/06": {
        "donations_count": 400,
        "monthly_taxes": {
          "1": 100,
          "2": 89.7
        }
      },
      "2019/05": {
        "donations_count": 400,
        "monthly_taxes": {
          "1": 100,
          "2": 92.6,
          "3": 80
        }
      }
    }
  }
}