{
  "token": {
    "access_token": "05372624d4b5f299dab41b46b4dc0fcc63b1526c124a5b99c3a71e833656245a",
    "token_type": "bearer",
    "expires_in": 7200,
    "refresh_token": "10f0c21adfaf89c81b29e852a8ff26ae9719a9357acb035d9a8b9bf09414910d",
    "created_at": 1560805200,
    "user": {
      "id": 495,
      "name": "Pearlie Doyle",
      "email": "Dagmar.Marquardt82@yahoo.com"
    }
  },
  "monthly_metrics": [
    {
      "files_info": [
        {
          "id": 1,
          "month": 12,
          "total": 200,
          "new": 1,
          "without_return": 0,
          "expired": 9
        },
        {
          "id": 2,
          "month": 11,
          "total": 352,
          "new": 7,
          "without_return": 6,
          "expired": 9
        },
        {
          "id": 3,
          "month": 10,
          "total": 369,
          "new": 0,
          "without_return": 1,
          "expired": 9
        },
        {
          "id": 4,
          "month": 9,
          "total": 146,
          "new": 5,
          "without_return": 6,
          "expired": 0
        },
        {
          "id": 5,
          "month": 8,
          "total": 278,
          "new": 9,
          "without_return": 8,
          "expired": 4
        },
        {
          "id": 6,
          "month": 7,
          "total": 752,
          "new": 10,
          "without_return": 1,
          "expired": 7
        }
      ],
      "meta": {
        "current_page": 1,
        "next_page": 2,
        "page_records": 6,
        "total_records": 6
      }
    },
    {
      "files_info": [
        {
          "id": 1,
          "month": 12,
          "total": 810,
          "new": 8,
          "without_return": 3,
          "expired": 8
        },
        {
          "id": 2,
          "month": 11,
          "total": 546,
          "new": 6,
          "without_return": 10,
          "expired": 8
        },
        {
          "id": 3,
          "month": 10,
          "total": 49,
          "new": 4,
          "without_return": 10,
          "expired": 10
        },
        {
          "id": 4,
          "month": 9,
          "total": 763,
          "new": 3,
          "without_return": 0,
          "expired": 1
        },
        {
          "id": 5,
          "month": 8,
          "total": 176,
          "new": 0,
          "without_return": 7,
          "expired": 8
        },
        {
          "id": 6,
          "month": 7,
          "total": 348,
          "new": 0,
          "without_return": 7,
          "expired": 7
        }
      ],
      "meta": {
        "current_page": 2,
        "next_page": 3,
        "page_records": 6,
        "total_records": 6
      }
    },
    {
      "files_info": [
        {
          "id": 1,
          "month": 12,
          "total": 455,
          "new": 8,
          "without_return": 1,
          "expired": 5
        },
        {
          "id": 2,
          "month": 11,
          "total": 885,
          "new": 4,
          "without_return": 7,
          "expired": 3
        },
        {
          "id": 3,
          "month": 10,
          "total": 358,
          "new": 8,
          "without_return": 5,
          "expired": 4
        },
        {
          "id": 4,
          "month": 9,
          "total": 459,
          "new": 1,
          "without_return": 6,
          "expired": 7
        },
        {
          "id": 5,
          "month": 8,
          "total": 325,
          "new": 0,
          "without_return": 6,
          "expired": 1
        },
        {
          "id": 6,
          "month": 7,
          "total": 492,
          "new": 6,
          "without_return": 4,
          "expired": 0
        }
      ],
      "meta": {
        "current_page": 3,
        "next_page": 4,
        "page_records": 6,
        "total_records": 6
      }
    },
    {
      "files_info": [
        {
          "id": 1,
          "month": 12,
          "total": 586,
          "new": 0,
          "without_return": 0,
          "expired": 4
        },
        {
          "id": 2,
          "month": 11,
          "total": 668,
          "new": 10,
          "without_return": 7,
          "expired": 1
        },
        {
          "id": 3,
          "month": 10,
          "total": 177,
          "new": 9,
          "without_return": 6,
          "expired": 5
        },
        {
          "id": 4,
          "month": 9,
          "total": 790,
          "new": 6,
          "without_return": 8,
          "expired": 9
        },
        {
          "id": 5,
          "month": 8,
          "total": 429,
          "new": 1,
          "without_return": 5,
          "expired": 6
        },
        {
          "id": 6,
          "month": 7,
          "total": 601,
          "new": 9,
          "without_return": 0,
          "expired": 2
        }
      ],
      "meta": {
        "current_page": 4,
        "next_page": 5,
        "page_records": 6,
        "total_records": 6
      }
    },
    {
      "files_info": [
        {
          "id": 1,
          "month": 12,
          "total": 739,
          "new": 10,
          "without_return": 0,
          "expired": 0
        },
        {
          "id": 2,
          "month": 11,
          "total": 816,
          "new": 9,
          "without_return": 2,
          "expired": 6
        },
        {
          "id": 3,
          "month": 10,
          "total": 166,
          "new": 0,
          "without_return": 2,
          "expired": 7
        },
        {
          "id": 4,
          "month": 9,
          "total": 634,
          "new": 7,
          "without_return": 7,
          "expired": 10
        },
        {
          "id": 5,
          "month": 8,
          "total": 36,
          "new": 0,
          "without_return": 10,
          "expired": 0
        },
        {
          "id": 6,
          "month": 7,
          "total": 687,
          "new": 8,
          "without_return": 5,
          "expired": 3
        }
      ],
      "meta": {
        "current_page": 5,
        "next_page": 6,
        "page_records": 6,
        "total_records": 6
      }
    },
    {
      "files_info": [
        {
          "id": 1,
          "month": 12,
          "total": 592,
          "new": 5,
          "without_return": 6,
          "expired": 6
        },
        {
          "id": 2,
          "month": 11,
          "total": 654,
          "new": 6,
          "without_return": 8,
          "expired": 4
        },
        {
          "id": 3,
          "month": 10,
          "total": 231,
          "new": 9,
          "without_return": 7,
          "expired": 1
        },
        {
          "id": 4,
          "month": 9,
          "total": 726,
          "new": 3,
          "without_return": 1,
          "expired": 10
        },
        {
          "id": 5,
          "month": 8,
          "total": 167,
          "new": 0,
          "without_return": 5,
          "expired": 4
        },
        {
          "id": 6,
          "month": 7,
          "total": 275,
          "new": 8,
          "without_return": 10,
          "expired": 9
        }
      ],
      "meta": {
        "current_page": 6,
        "next_page": 6,
        "page_records": 6,
        "total_records": 6
      }
    }
  ],
  "bank_files": {
    "type": "debit",
    "files": [
      {
        "id": 1,
        "status": "paid",
        "bank": "Bradesco",
        "amount": 30,
        "max_date_to_send": "2019-07-21T22:05:29.911Z",
        "expires_in": "2019-07-30T14:03:44.040Z"
      },
      {
        "id": 2,
        "status": "error",
        "bank": "Itaú",
        "amount": 83,
        "max_date_to_send": "2019-07-27T19:23:47.445Z",
        "expires_in": "2019-07-25T02:11:42.192Z"
      },
      {
        "id": 3,
        "status": "expired",
        "bank": "Bradesco",
        "amount": 27,
        "max_date_to_send": "2019-07-31T09:23:57.479Z",
        "expires_in": "2019-07-30T03:46:14.257Z"
      },
      {
        "id": 4,
        "status": "generated",
        "bank": "Itaú",
        "amount": 76,
        "max_date_to_send": "2019-07-01T18:58:34.283Z",
        "expires_in": "2019-07-20T06:00:50.961Z"
      },
      {
        "id": 5,
        "status": "partial_refunded",
        "bank": "Banco do Brasil",
        "amount": 53,
        "max_date_to_send": "2019-07-05T00:50:49.177Z",
        "expires_in": "2019-07-17T01:05:27.462Z"
      },
      {
        "id": 6,
        "status": "pending",
        "bank": "Itaú",
        "amount": 77,
        "max_date_to_send": "2019-07-19T23:17:04.936Z",
        "expires_in": "2019-07-01T08:06:41.014Z"
      },
      {
        "id": 7,
        "status": "sent",
        "bank": "Santander",
        "amount": 0,
        "max_date_to_send": "2019-07-25T07:29:23.920Z",
        "expires_in": "2019-07-18T05:24:24.629Z"
      },
      {
        "id": 8,
        "status": "refunded",
        "bank": "Bradesco",
        "amount": 49,
        "max_date_to_send": "2019-07-13T03:04:42.934Z",
        "expires_in": "2019-07-18T02:53:32.212Z"
      },
      {
        "id": 9,
        "status": "pending",
        "bank": "Banco do Brasil",
        "amount": 5,
        "max_date_to_send": "2019-07-19T05:46:37.821Z",
        "expires_in": "2019-07-23T06:44:32.274Z"
      },
      {
        "id": 10,
        "status": "generated",
        "bank": "Banco do Brasil",
        "amount": 74,
        "max_date_to_send": "2019-07-23T10:42:38.260Z",
        "expires_in": "2019-07-14T05:20:12.445Z"
      },
      {
        "id": 11,
        "status": "paid",
        "bank": "Bradesco",
        "amount": 72,
        "max_date_to_send": "2019-07-11T13:12:30.257Z",
        "expires_in": "2019-07-21T07:13:26.556Z"
      },
      {
        "id": 12,
        "status": "refunded",
        "bank": "Bradesco",
        "amount": 2,
        "max_date_to_send": "2019-07-09T21:19:45.828Z",
        "expires_in": "2019-07-22T19:10:03.306Z"
      },
      {
        "id": 13,
        "status": "paid",
        "bank": "Santander",
        "amount": 75,
        "max_date_to_send": "2019-07-28T04:27:25.865Z",
        "expires_in": "2019-07-31T11:01:45.376Z"
      },
      {
        "id": 14,
        "status": "error",
        "bank": "Banco do Brasil",
        "amount": 10,
        "max_date_to_send": "2019-07-14T13:05:44.940Z",
        "expires_in": "2019-07-23T09:09:37.366Z"
      },
      {
        "id": 15,
        "status": "pending",
        "bank": "Bradesco",
        "amount": 57,
        "max_date_to_send": "2019-07-03T05:37:21.717Z",
        "expires_in": "2019-07-27T07:49:59.151Z"
      },
      {
        "id": 16,
        "status": "processing",
        "bank": "Bradesco",
        "amount": 23,
        "max_date_to_send": "2019-07-07T07:37:02.857Z",
        "expires_in": "2019-07-20T17:14:52.610Z"
      },
      {
        "id": 17,
        "status": "generated",
        "bank": "Santander",
        "amount": 31,
        "max_date_to_send": "2019-07-11T23:46:14.909Z",
        "expires_in": "2019-07-11T17:08:32.055Z"
      },
      {
        "id": 18,
        "status": "sent",
        "bank": "Itaú",
        "amount": 61,
        "max_date_to_send": "2019-07-03T03:52:21.287Z",
        "expires_in": "2019-07-31T09:27:29.457Z"
      },
      {
        "id": 19,
        "status": "expired",
        "bank": "Banco do Brasil",
        "amount": 37,
        "max_date_to_send": "2019-07-07T19:36:19.923Z",
        "expires_in": "2019-07-05T06:35:40.681Z"
      },
      {
        "id": 20,
        "status": "expired",
        "bank": "Itaú",
        "amount": 39,
        "max_date_to_send": "2019-07-07T00:45:30.388Z",
        "expires_in": "2019-07-05T20:17:56.102Z"
      },
      {
        "id": 21,
        "status": "error",
        "bank": "Banco do Brasil",
        "amount": 55,
        "max_date_to_send": "2019-07-12T12:51:35.148Z",
        "expires_in": "2019-07-27T19:22:28.216Z"
      },
      {
        "id": 22,
        "status": "refunded",
        "bank": "Bradesco",
        "amount": 19,
        "max_date_to_send": "2019-07-19T20:47:47.602Z",
        "expires_in": "2019-07-24T00:26:12.431Z"
      },
      {
        "id": 23,
        "status": "hard_bounce",
        "bank": "Bradesco",
        "amount": 91,
        "max_date_to_send": "2019-07-25T20:57:30.049Z",
        "expires_in": "2019-07-13T07:25:16.283Z"
      },
      {
        "id": 24,
        "status": "processing",
        "bank": "Caixa Econômica",
        "amount": 79,
        "max_date_to_send": "2019-07-14T02:09:05.201Z",
        "expires_in": "2019-07-25T02:11:10.320Z"
      },
      {
        "id": 25,
        "status": "pending",
        "bank": "Itaú",
        "amount": 37,
        "max_date_to_send": "2019-07-22T23:23:42.069Z",
        "expires_in": "2019-07-09T11:23:09.833Z"
      },
      {
        "id": 26,
        "status": "refunded",
        "bank": "Banco do Brasil",
        "amount": 10,
        "max_date_to_send": "2019-07-19T04:30:43.654Z",
        "expires_in": "2019-07-10T10:24:37.173Z"
      },
      {
        "id": 27,
        "status": "processing",
        "bank": "Itaú",
        "amount": 36,
        "max_date_to_send": "2019-07-04T01:58:00.399Z",
        "expires_in": "2019-07-02T01:38:57.290Z"
      },
      {
        "id": 28,
        "status": "processing",
        "bank": "Itaú",
        "amount": 45,
        "max_date_to_send": "2019-07-02T01:01:04.410Z",
        "expires_in": "2019-07-26T05:20:45.361Z"
      },
      {
        "id": 29,
        "status": "generated",
        "bank": "Bradesco",
        "amount": 33,
        "max_date_to_send": "2019-07-03T16:09:59.818Z",
        "expires_in": "2019-07-22T06:10:53.567Z"
      },
      {
        "id": 30,
        "status": "pending",
        "bank": "Banco do Brasil",
        "amount": 9,
        "max_date_to_send": "2019-07-23T12:45:07.112Z",
        "expires_in": "2019-07-10T07:48:51.520Z"
      },
      {
        "id": 31,
        "status": "processing",
        "bank": "Itaú",
        "amount": 93,
        "max_date_to_send": "2019-07-24T17:13:25.579Z",
        "expires_in": "2019-07-27T08:47:29.242Z"
      },
      {
        "id": 32,
        "status": "error",
        "bank": "Banco do Brasil",
        "amount": 14,
        "max_date_to_send": "2019-07-23T04:10:11.965Z",
        "expires_in": "2019-07-22T09:04:14.603Z"
      },
      {
        "id": 33,
        "status": "error",
        "bank": "Caixa Econômica",
        "amount": 0,
        "max_date_to_send": "2019-07-08T06:04:46.467Z",
        "expires_in": "2019-07-29T06:20:08.946Z"
      },
      {
        "id": 34,
        "status": "generated",
        "bank": "Itaú",
        "amount": 98,
        "max_date_to_send": "2019-07-08T23:13:29.413Z",
        "expires_in": "2019-07-23T10:55:09.697Z"
      },
      {
        "id": 35,
        "status": "soft_bounce",
        "bank": "Itaú",
        "amount": 5,
        "max_date_to_send": "2019-07-23T08:15:17.772Z",
        "expires_in": "2019-07-05T00:14:05.082Z"
      },
      {
        "id": 36,
        "status": "expired",
        "bank": "Banco do Brasil",
        "amount": 87,
        "max_date_to_send": "2019-07-15T17:13:05.184Z",
        "expires_in": "2019-07-24T15:07:15.217Z"
      },
      {
        "id": 37,
        "status": "sent",
        "bank": "Caixa Econômica",
        "amount": 19,
        "max_date_to_send": "2019-07-13T02:53:45.258Z",
        "expires_in": "2019-07-08T05:47:34.567Z"
      },
      {
        "id": 38,
        "status": "pending",
        "bank": "Bradesco",
        "amount": 23,
        "max_date_to_send": "2019-07-14T09:59:01.528Z",
        "expires_in": "2019-07-04T06:31:38.404Z"
      },
      {
        "id": 39,
        "status": "sent",
        "bank": "Banco do Brasil",
        "amount": 77,
        "max_date_to_send": "2019-07-18T16:25:22.338Z",
        "expires_in": "2019-07-11T00:21:14.504Z"
      },
      {
        "id": 40,
        "status": "processing",
        "bank": "Itaú",
        "amount": 79,
        "max_date_to_send": "2019-07-04T04:34:01.885Z",
        "expires_in": "2019-07-29T22:10:31.315Z"
      },
      {
        "id": 41,
        "status": "partial_refunded",
        "bank": "Itaú",
        "amount": 83,
        "max_date_to_send": "2019-07-08T12:25:46.190Z",
        "expires_in": "2019-07-01T17:30:14.283Z"
      },
      {
        "id": 42,
        "status": "pending",
        "bank": "Caixa Econômica",
        "amount": 26,
        "max_date_to_send": "2019-07-06T14:28:38.166Z",
        "expires_in": "2019-07-16T05:54:52.534Z"
      },
      {
        "id": 43,
        "status": "paid",
        "bank": "Santander",
        "amount": 91,
        "max_date_to_send": "2019-07-17T12:43:50.142Z",
        "expires_in": "2019-07-08T14:44:01.562Z"
      },
      {
        "id": 44,
        "status": "processing",
        "bank": "Itaú",
        "amount": 65,
        "max_date_to_send": "2019-07-10T06:58:11.175Z",
        "expires_in": "2019-07-18T03:46:02.735Z"
      },
      {
        "id": 45,
        "status": "refunded",
        "bank": "Itaú",
        "amount": 37,
        "max_date_to_send": "2019-07-18T23:24:54.223Z",
        "expires_in": "2019-07-27T20:33:38.469Z"
      },
      {
        "id": 46,
        "status": "refunded",
        "bank": "Itaú",
        "amount": 53,
        "max_date_to_send": "2019-07-12T19:53:08.249Z",
        "expires_in": "2019-07-11T15:07:02.277Z"
      },
      {
        "id": 47,
        "status": "pending",
        "bank": "Santander",
        "amount": 65,
        "max_date_to_send": "2019-07-30T03:26:46.210Z",
        "expires_in": "2019-07-10T22:45:40.089Z"
      },
      {
        "id": 48,
        "status": "soft_bounce",
        "bank": "Santander",
        "amount": 56,
        "max_date_to_send": "2019-07-21T06:36:13.334Z",
        "expires_in": "2019-07-21T13:32:38.633Z"
      },
      {
        "id": 49,
        "status": "partial_refunded",
        "bank": "Caixa Econômica",
        "amount": 58,
        "max_date_to_send": "2019-07-13T15:33:29.892Z",
        "expires_in": "2019-07-07T11:09:36.179Z"
      },
      {
        "id": 50,
        "status": "sent",
        "bank": "Banco do Brasil",
        "amount": 14,
        "max_date_to_send": "2019-07-14T19:30:24.622Z",
        "expires_in": "2019-07-11T15:34:06.307Z"
      }
    ]
  },
  "generate_bank_file": {
    "url": "https://joanny.name"
  },
  "import_bank_file": {
    "status": "success"
  },
  "payments": [
    {
      "id": "94667d9d-4e71-4e2e-b577-d5d5890965df",
      "status": "paid",
      "date": "2019-08-02T16:58:57.641Z",
      "donor": {
        "name": "Pablo Senger"
      },
      "method": {
        "type": "debit",
        "card": {
          "brand": "master"
        }
      },
      "value": "20733",
      "currency": "BRL"
    },
    {
      "id": "c9d94454-dd74-4bdb-8e63-beeb992ca413",
      "status": "refunded",
      "date": "2019-08-02T03:32:11.899Z",
      "donor": {
        "name": "Eve Emard"
      },
      "method": {
        "type": "payment_slip",
        "card": {
          "brand": "elo"
        }
      },
      "value": "85320",
      "currency": "BRL"
    },
    {
      "id": "a3d93614-3d08-4846-b886-72443dd3bb4a",
      "status": "partial_refunded",
      "date": "2019-08-01T19:07:52.138Z",
      "donor": {
        "name": "Madilyn Murray"
      },
      "method": {
        "type": "credit",
        "card": {
          "brand": "visa"
        }
      },
      "value": "93017",
      "currency": "BRL"
    },
    {
      "id": "a81b211a-4a8d-49bd-9dd0-35bebf37f19a",
      "status": "paid",
      "date": "2019-08-02T12:17:37.734Z",
      "donor": {
        "name": "Fredy Larson"
      },
      "method": {
        "type": "debit",
        "card": {
          "brand": "master"
        }
      },
      "value": "84797",
      "currency": "BRL"
    },
    {
      "id": "5a81d745-f65d-437b-af18-f30a58e0a0ff",
      "status": "error",
      "date": "2019-08-02T16:18:36.214Z",
      "donor": {
        "name": "Abagail Gibson"
      },
      "method": {
        "type": "debit",
        "card": {
          "brand": "visa"
        }
      },
      "value": "54625",
      "currency": "BRL"
    },
    {
      "id": "7dd064ba-ed78-4537-b709-ea1932f16e1b",
      "status": "refunded",
      "date": "2019-08-02T13:10:08.961Z",
      "donor": {
        "name": "Kelsi Feest"
      },
      "method": {
        "type": "phone_bill",
        "card": {
          "brand": "visa"
        }
      },
      "value": "60297",
      "currency": "BRL"
    },
    {
      "id": "d0696242-782e-4e69-bbd6-3b8981dc85f8",
      "status": "paid",
      "date": "2019-08-02T13:08:44.865Z",
      "donor": {
        "name": "Jailyn Flatley"
      },
      "method": {
        "type": "credit",
        "card": {
          "brand": "elo"
        }
      },
      "value": "45174",
      "currency": "BRL"
    },
    {
      "id": "72bc428a-e859-46d1-8de3-bd9d8513b128",
      "status": "sent",
      "date": "2019-08-01T18:13:23.867Z",
      "donor": {
        "name": "Carroll Heathcote"
      },
      "method": {
        "type": "payment_slip",
        "card": {
          "brand": "visa"
        }
      },
      "value": "23702",
      "currency": "BRL"
    },
    {
      "id": "0e99a2c6-960f-4fc5-8a31-b9f7e714c168",
      "status": "partial_refunded",
      "date": "2019-08-02T09:56:29.535Z",
      "donor": {
        "name": "Sammie Marks"
      },
      "method": {
        "type": "credit",
        "card": {
          "brand": "visa"
        }
      },
      "value": "20467",
      "currency": "BRL"
    },
    {
      "id": "7244d116-dfc3-49fc-9ca3-3c6bdd9197a8",
      "status": "refunded",
      "date": "2019-08-02T00:12:45.687Z",
      "donor": {
        "name": "Leila Bechtelar"
      },
      "method": {
        "type": "payment_slip",
        "card": {
          "brand": "master"
        }
      },
      "value": "80658",
      "currency": "BRL"
    },
    {
      "id": "8db59ec4-34e2-4b8d-88f0-e69cacbf143e",
      "status": "partial_refunded",
      "date": "2019-08-01T20:31:06.806Z",
      "donor": {
        "name": "Tyrell Hahn"
      },
      "method": {
        "type": "credit",
        "card": {
          "brand": "elo"
        }
      },
      "value": "13383",
      "currency": "BRL"
    },
    {
      "id": "4951932d-3a15-4ca0-8932-a27106ac9256",
      "status": "partial_refunded",
      "date": "2019-08-02T03:12:14.344Z",
      "donor": {
        "name": "Helga Feil"
      },
      "method": {
        "type": "payment_slip",
        "card": {
          "brand": "visa"
        }
      },
      "value": "69764",
      "currency": "BRL"
    },
    {
      "id": "b27e9943-7990-4828-b83c-86bdb3b48e0a",
      "status": "generated",
      "date": "2019-08-02T10:49:49.451Z",
      "donor": {
        "name": "Andreanne Jaskolski"
      },
      "method": {
        "type": "credit",
        "card": {
          "brand": "visa"
        }
      },
      "value": "54706",
      "currency": "BRL"
    },
    {
      "id": "2cebc597-5c16-4c6a-b133-94d11ae0959b",
      "status": "pending",
      "date": "2019-08-02T08:51:12.848Z",
      "donor": {
        "name": "Litzy Gleason"
      },
      "method": {
        "type": "payment_slip",
        "card": {
          "brand": "master"
        }
      },
      "value": "97440",
      "currency": "BRL"
    },
    {
      "id": "dfc55ba3-2f19-4e7b-876e-8cf37c93f261",
      "status": "paid",
      "date": "2019-08-02T11:41:15.037Z",
      "donor": {
        "name": "Fabiola Goyette"
      },
      "method": {
        "type": "debit",
        "card": {
          "brand": "elo"
        }
      },
      "value": "58421",
      "currency": "BRL"
    },
    {
      "id": "0bff7db7-e993-494a-8861-7fb71699e51e",
      "status": "expired",
      "date": "2019-08-02T15:11:50.880Z",
      "donor": {
        "name": "Travis Pagac"
      },
      "method": {
        "type": "payment_slip",
        "card": {
          "brand": "elo"
        }
      },
      "value": "11655",
      "currency": "BRL"
    },
    {
      "id": "8086c079-f20a-4dec-a569-a58711f46184",
      "status": "soft_bounce",
      "date": "2019-08-02T04:27:39.065Z",
      "donor": {
        "name": "Margarete Kuhlman"
      },
      "method": {
        "type": "payment_slip",
        "card": {
          "brand": "visa"
        }
      },
      "value": "65643",
      "currency": "BRL"
    },
    {
      "id": "999cefae-1116-44ab-b8f1-41a23ae321f0",
      "status": "expired",
      "date": "2019-08-02T09:45:40.337Z",
      "donor": {
        "name": "Dannie Pfeffer"
      },
      "method": {
        "type": "credit",
        "card": {
          "brand": "visa"
        }
      },
      "value": "7799",
      "currency": "BRL"
    },
    {
      "id": "e5df34e1-457c-43ba-9f9e-5ae39c46ae68",
      "status": "refunded",
      "date": "2019-08-02T06:00:40.761Z",
      "donor": {
        "name": "Halie Prohaska"
      },
      "method": {
        "type": "phone_bill",
        "card": {
          "brand": "visa"
        }
      },
      "value": "15176",
      "currency": "BRL"
    },
    {
      "id": "1d310ce5-a03e-413f-8d6e-9f42cf9f7858",
      "status": "pending",
      "date": "2019-08-02T05:38:31.668Z",
      "donor": {
        "name": "Finn Heller"
      },
      "method": {
        "type": "payment_slip",
        "card": {
          "brand": "visa"
        }
      },
      "value": "94981",
      "currency": "BRL"
    }
  ],
  "general_info": {
    "successful_payments_amount": 72632,
    "hard_bounces_amount": 3572,
    "soft_bounces_amount": 595,
    "refunds_amount": 201,
    "total_amount": 77000,
    "chargebacks_count": 1,
    "charges_count": 2423,
    "effectiveness_rate": 97.5
  },
  "total_donations": {
    "unique_donations_count": 3483,
    "recurring_donations_count": 7439,
    "canceled_donations_count": 3894,
    "paused_donations_count": 4072,
    "total_donations_count": 18888,
    "donations_per_month": {
      "2018/07": {
        "unique_count": 107,
        "recurring_count": 60,
        "canceled_count": 58,
        "paused_count": 9786
      },
      "2018/08": {
        "unique_count": 583,
        "recurring_count": 42,
        "canceled_count": 44,
        "paused_count": 4875
      },
      "2018/09": {
        "unique_count": 362,
        "recurring_count": 64,
        "canceled_count": 53,
        "paused_count": 4919
      },
      "2018/10": {
        "unique_count": 629,
        "recurring_count": 38,
        "canceled_count": 4,
        "paused_count": 624
      },
      "2018/11": {
        "unique_count": 35,
        "recurring_count": 89,
        "canceled_count": 29,
        "paused_count": 4962
      },
      "2018/12": {
        "unique_count": 912,
        "recurring_count": 44,
        "canceled_count": 38,
        "paused_count": 1917
      },
      "2019/01": {
        "unique_count": 347,
        "recurring_count": 73,
        "canceled_count": 83,
        "paused_count": 5768
      },
      "2019/02": {
        "unique_count": 207,
        "recurring_count": 894,
        "canceled_count": 461,
        "paused_count": 637
      },
      "2019/03": {
        "unique_count": 983,
        "recurring_count": 78,
        "canceled_count": 21,
        "paused_count": 7079
      },
      "2019/04": {
        "unique_count": 832,
        "recurring_count": 37,
        "canceled_count": 14,
        "paused_count": 7716
      },
      "2019/05": {
        "unique_count": 587,
        "recurring_count": 55,
        "canceled_count": 83,
        "paused_count": 2644
      },
      "2019/06": {
        "unique_count": 746,
        "recurring_count": 62,
        "canceled_count": 64,
        "paused_count": 6208
      }
    }
  },
  "cohort_data": {
    "2018/08": [
      807,
      807,
      636,
      521,
      422,
      381,
      321,
      212,
      185,
      142,
      122,
      51,
      15
    ],
    "2018/09": [
      782,
      782,
      613,
      502,
      405,
      325,
      302,
      198,
      165,
      122,
      85,
      12
    ],
    "2018/10": [
      762,
      762,
      592,
      482,
      377,
      295,
      274,
      175,
      133,
      87,
      32
    ],
    "2018/11": [
      741,
      741,
      572,
      461,
      364,
      287,
      265,
      154,
      128,
      35
    ],
    "2018/12": [
      737,
      737,
      556,
      432,
      321,
      254,
      232,
      182,
      102
    ],
    "2019/01": [
      707,
      707,
      656,
      0,
      321,
      254,
      232,
      102
    ],
    "2019/02": [
      693,
      693,
      510,
      386,
      0,
      221,
      187
    ],
    "2019/03": [
      675,
      675,
      0,
      362,
      230,
      195
    ],
    "2019/04": [
      659,
      659,
      472,
      342,
      187
    ],
    "2019/05": [
      632,
      632,
      456,
      316
    ],
    "2019/06": [
      612,
      612,
      431
    ],
    "2019/07": [
      587,
      587
    ]
  }
}
