{
  "user": {
    "id": 44,
    "name": "Floyd Fahey",
    "email": "Nina_Lang@gmail.com"
  },
  "token": {
    "access_token": "05372624d4b5f299dab41b46b4dc0fcc63b1526c124a5b99c3a71e833656245a",
    "token_type": "bearer",
    "expires_in": 7200,
    "refresh_token": "10f0c21adfaf89c81b29e852a8ff26ae9719a9357acb035d9a8b9bf09414910d",
    "created_at": 1560805200,
    "user": {
      "id": 44,
      "name": "Floyd Fahey",
      "email": "Nina_Lang@gmail.com"
    }
  },
  "file_status_by_month": [
    {
      "files_info": [
        {
          "id": 1,
          "month": 12,
          "total": 157,
          "new": 5,
          "without_return": 4,
          "expired": 9
        },
        {
          "id": 2,
          "month": 11,
          "total": 410,
          "new": 3,
          "without_return": 5,
          "expired": 9
        },
        {
          "id": 3,
          "month": 10,
          "total": 593,
          "new": 1,
          "without_return": 5,
          "expired": 10
        },
        {
          "id": 4,
          "month": 9,
          "total": 391,
          "new": 8,
          "without_return": 8,
          "expired": 6
        },
        {
          "id": 5,
          "month": 8,
          "total": 619,
          "new": 3,
          "without_return": 4,
          "expired": 4
        },
        {
          "id": 6,
          "month": 7,
          "total": 850,
          "new": 9,
          "without_return": 9,
          "expired": 0
        }
      ],
      "meta": {
        "current_page": 1,
        "next_page": 2,
        "page_records": 6,
        "total_records": 6
      }
    },
    {
      "files_info": [
        {
          "id": 1,
          "month": 12,
          "total": 23,
          "new": 6,
          "without_return": 0,
          "expired": 4
        },
        {
          "id": 2,
          "month": 11,
          "total": 109,
          "new": 1,
          "without_return": 3,
          "expired": 2
        },
        {
          "id": 3,
          "month": 10,
          "total": 838,
          "new": 3,
          "without_return": 7,
          "expired": 4
        },
        {
          "id": 4,
          "month": 9,
          "total": 633,
          "new": 2,
          "without_return": 6,
          "expired": 6
        },
        {
          "id": 5,
          "month": 8,
          "total": 69,
          "new": 1,
          "without_return": 7,
          "expired": 8
        },
        {
          "id": 6,
          "month": 7,
          "total": 654,
          "new": 6,
          "without_return": 9,
          "expired": 8
        }
      ],
      "meta": {
        "current_page": 2,
        "next_page": 3,
        "page_records": 6,
        "total_records": 6
      }
    },
    {
      "files_info": [
        {
          "id": 1,
          "month": 12,
          "total": 818,
          "new": 8,
          "without_return": 9,
          "expired": 5
        },
        {
          "id": 2,
          "month": 11,
          "total": 766,
          "new": 5,
          "without_return": 1,
          "expired": 0
        },
        {
          "id": 3,
          "month": 10,
          "total": 69,
          "new": 10,
          "without_return": 9,
          "expired": 5
        },
        {
          "id": 4,
          "month": 9,
          "total": 599,
          "new": 8,
          "without_return": 5,
          "expired": 2
        },
        {
          "id": 5,
          "month": 8,
          "total": 714,
          "new": 10,
          "without_return": 4,
          "expired": 1
        },
        {
          "id": 6,
          "month": 7,
          "total": 20,
          "new": 4,
          "without_return": 2,
          "expired": 1
        }
      ],
      "meta": {
        "current_page": 3,
        "next_page": 4,
        "page_records": 6,
        "total_records": 6
      }
    },
    {
      "files_info": [
        {
          "id": 1,
          "month": 12,
          "total": 366,
          "new": 0,
          "without_return": 0,
          "expired": 2
        },
        {
          "id": 2,
          "month": 11,
          "total": 257,
          "new": 6,
          "without_return": 1,
          "expired": 0
        },
        {
          "id": 3,
          "month": 10,
          "total": 657,
          "new": 7,
          "without_return": 3,
          "expired": 5
        },
        {
          "id": 4,
          "month": 9,
          "total": 537,
          "new": 9,
          "without_return": 1,
          "expired": 4
        },
        {
          "id": 5,
          "month": 8,
          "total": 821,
          "new": 8,
          "without_return": 10,
          "expired": 2
        },
        {
          "id": 6,
          "month": 7,
          "total": 587,
          "new": 10,
          "without_return": 10,
          "expired": 2
        }
      ],
      "meta": {
        "current_page": 4,
        "next_page": 5,
        "page_records": 6,
        "total_records": 6
      }
    },
    {
      "files_info": [
        {
          "id": 1,
          "month": 12,
          "total": 624,
          "new": 7,
          "without_return": 3,
          "expired": 5
        },
        {
          "id": 2,
          "month": 11,
          "total": 453,
          "new": 7,
          "without_return": 0,
          "expired": 7
        },
        {
          "id": 3,
          "month": 10,
          "total": 899,
          "new": 6,
          "without_return": 3,
          "expired": 5
        },
        {
          "id": 4,
          "month": 9,
          "total": 577,
          "new": 10,
          "without_return": 8,
          "expired": 5
        },
        {
          "id": 5,
          "month": 8,
          "total": 611,
          "new": 3,
          "without_return": 7,
          "expired": 6
        },
        {
          "id": 6,
          "month": 7,
          "total": 502,
          "new": 4,
          "without_return": 2,
          "expired": 8
        }
      ],
      "meta": {
        "current_page": 5,
        "next_page": 6,
        "page_records": 6,
        "total_records": 6
      }
    },
    {
      "files_info": [
        {
          "id": 1,
          "month": 12,
          "total": 278,
          "new": 6,
          "without_return": 9,
          "expired": 3
        },
        {
          "id": 2,
          "month": 11,
          "total": 229,
          "new": 0,
          "without_return": 7,
          "expired": 2
        },
        {
          "id": 3,
          "month": 10,
          "total": 493,
          "new": 10,
          "without_return": 7,
          "expired": 5
        },
        {
          "id": 4,
          "month": 9,
          "total": 476,
          "new": 4,
          "without_return": 6,
          "expired": 7
        },
        {
          "id": 5,
          "month": 8,
          "total": 50,
          "new": 0,
          "without_return": 7,
          "expired": 9
        },
        {
          "id": 6,
          "month": 7,
          "total": 566,
          "new": 7,
          "without_return": 9,
          "expired": 6
        }
      ],
      "meta": {
        "current_page": 6,
        "next_page": 6,
        "page_records": 6,
        "total_records": 6
      }
    }
  ],
  "files_list": {
    "type": "debit",
    "files": [
      {
        "id": 1,
        "status": "partial_refunded",
        "bank": "Banco do Brasil",
        "amount": 97,
        "max_date_to_send": "2019-07-05T04:13:31.791Z",
        "expires_in": "2019-07-16T17:53:42.060Z"
      },
      {
        "id": 2,
        "status": "hard_bounce",
        "bank": "Caixa Econômica",
        "amount": 93,
        "max_date_to_send": "2019-07-19T10:20:58.489Z",
        "expires_in": "2019-07-27T21:32:41.282Z"
      },
      {
        "id": 3,
        "status": "hard_bounce",
        "bank": "Bradesco",
        "amount": 80,
        "max_date_to_send": "2019-07-17T18:58:39.525Z",
        "expires_in": "2019-07-08T08:43:13.811Z"
      },
      {
        "id": 4,
        "status": "expired",
        "bank": "Bradesco",
        "amount": 88,
        "max_date_to_send": "2019-07-24T23:18:03.025Z",
        "expires_in": "2019-07-05T15:46:54.153Z"
      },
      {
        "id": 5,
        "status": "error",
        "bank": "Banco do Brasil",
        "amount": 1,
        "max_date_to_send": "2019-07-23T14:30:02.866Z",
        "expires_in": "2019-07-31T19:19:58.285Z"
      },
      {
        "id": 6,
        "status": "expired",
        "bank": "Bradesco",
        "amount": 5,
        "max_date_to_send": "2019-07-15T12:31:18.490Z",
        "expires_in": "2019-07-31T17:52:51.038Z"
      },
      {
        "id": 7,
        "status": "refunded",
        "bank": "Itaú",
        "amount": 52,
        "max_date_to_send": "2019-07-15T02:29:15.399Z",
        "expires_in": "2019-07-27T16:27:42.153Z"
      },
      {
        "id": 8,
        "status": "refunded",
        "bank": "Bradesco",
        "amount": 89,
        "max_date_to_send": "2019-07-24T02:18:11.306Z",
        "expires_in": "2019-07-31T22:18:34.159Z"
      },
      {
        "id": 9,
        "status": "partial_refunded",
        "bank": "Caixa Econômica",
        "amount": 14,
        "max_date_to_send": "2019-07-30T09:11:59.553Z",
        "expires_in": "2019-07-11T20:23:17.163Z"
      },
      {
        "id": 10,
        "status": "sent",
        "bank": "Banco do Brasil",
        "amount": 29,
        "max_date_to_send": "2019-07-17T15:00:05.161Z",
        "expires_in": "2019-07-07T16:54:11.298Z"
      },
      {
        "id": 11,
        "status": "generated",
        "bank": "Bradesco",
        "amount": 81,
        "max_date_to_send": "2019-07-26T09:29:12.098Z",
        "expires_in": "2019-07-21T13:52:50.432Z"
      },
      {
        "id": 12,
        "status": "error",
        "bank": "Caixa Econômica",
        "amount": 39,
        "max_date_to_send": "2019-07-13T09:51:16.474Z",
        "expires_in": "2019-07-15T02:15:48.106Z"
      },
      {
        "id": 13,
        "status": "soft_bounce",
        "bank": "Banco do Brasil",
        "amount": 73,
        "max_date_to_send": "2019-07-15T21:58:21.682Z",
        "expires_in": "2019-07-13T14:38:51.014Z"
      },
      {
        "id": 14,
        "status": "pending",
        "bank": "Caixa Econômica",
        "amount": 76,
        "max_date_to_send": "2019-07-16T19:27:45.977Z",
        "expires_in": "2019-07-08T19:58:17.273Z"
      },
      {
        "id": 15,
        "status": "paid",
        "bank": "Itaú",
        "amount": 85,
        "max_date_to_send": "2019-07-30T22:51:43.148Z",
        "expires_in": "2019-07-07T16:51:58.337Z"
      },
      {
        "id": 16,
        "status": "expired",
        "bank": "Santander",
        "amount": 15,
        "max_date_to_send": "2019-07-05T20:57:30.218Z",
        "expires_in": "2019-07-18T18:30:18.721Z"
      },
      {
        "id": 17,
        "status": "processing",
        "bank": "Bradesco",
        "amount": 61,
        "max_date_to_send": "2019-07-16T06:04:57.257Z",
        "expires_in": "2019-07-28T20:49:36.575Z"
      },
      {
        "id": 18,
        "status": "pending",
        "bank": "Santander",
        "amount": 71,
        "max_date_to_send": "2019-07-13T12:25:01.535Z",
        "expires_in": "2019-07-01T20:22:19.624Z"
      },
      {
        "id": 19,
        "status": "processing",
        "bank": "Santander",
        "amount": 86,
        "max_date_to_send": "2019-07-16T14:51:56.379Z",
        "expires_in": "2019-07-17T02:43:15.025Z"
      },
      {
        "id": 20,
        "status": "paid",
        "bank": "Itaú",
        "amount": 61,
        "max_date_to_send": "2019-07-06T17:59:05.333Z",
        "expires_in": "2019-07-06T01:41:54.817Z"
      },
      {
        "id": 21,
        "status": "expired",
        "bank": "Bradesco",
        "amount": 22,
        "max_date_to_send": "2019-07-05T01:09:33.514Z",
        "expires_in": "2019-07-18T06:05:36.443Z"
      },
      {
        "id": 22,
        "status": "paid",
        "bank": "Banco do Brasil",
        "amount": 87,
        "max_date_to_send": "2019-07-04T17:15:12.369Z",
        "expires_in": "2019-07-16T16:00:12.726Z"
      },
      {
        "id": 23,
        "status": "partial_refunded",
        "bank": "Caixa Econômica",
        "amount": 32,
        "max_date_to_send": "2019-07-03T00:30:53.548Z",
        "expires_in": "2019-07-25T03:45:56.677Z"
      },
      {
        "id": 24,
        "status": "soft_bounce",
        "bank": "Caixa Econômica",
        "amount": 13,
        "max_date_to_send": "2019-07-12T20:00:53.295Z",
        "expires_in": "2019-07-06T14:22:42.993Z"
      },
      {
        "id": 25,
        "status": "paid",
        "bank": "Santander",
        "amount": 92,
        "max_date_to_send": "2019-07-03T11:22:56.685Z",
        "expires_in": "2019-07-06T12:43:05.734Z"
      },
      {
        "id": 26,
        "status": "hard_bounce",
        "bank": "Santander",
        "amount": 48,
        "max_date_to_send": "2019-07-31T10:27:28.588Z",
        "expires_in": "2019-07-30T23:46:40.475Z"
      },
      {
        "id": 27,
        "status": "hard_bounce",
        "bank": "Banco do Brasil",
        "amount": 90,
        "max_date_to_send": "2019-07-16T12:04:29.086Z",
        "expires_in": "2019-07-29T03:07:41.060Z"
      },
      {
        "id": 28,
        "status": "pending",
        "bank": "Caixa Econômica",
        "amount": 64,
        "max_date_to_send": "2019-07-25T20:28:04.164Z",
        "expires_in": "2019-07-10T22:17:54.883Z"
      },
      {
        "id": 29,
        "status": "processing",
        "bank": "Banco do Brasil",
        "amount": 96,
        "max_date_to_send": "2019-07-29T07:29:23.528Z",
        "expires_in": "2019-07-11T19:28:18.045Z"
      },
      {
        "id": 30,
        "status": "sent",
        "bank": "Bradesco",
        "amount": 98,
        "max_date_to_send": "2019-07-29T10:01:26.937Z",
        "expires_in": "2019-07-30T07:34:11.871Z"
      },
      {
        "id": 31,
        "status": "error",
        "bank": "Santander",
        "amount": 9,
        "max_date_to_send": "2019-07-05T15:08:14.491Z",
        "expires_in": "2019-07-27T21:48:11.559Z"
      },
      {
        "id": 32,
        "status": "paid",
        "bank": "Santander",
        "amount": 90,
        "max_date_to_send": "2019-07-08T04:10:02.908Z",
        "expires_in": "2019-07-07T17:30:29.420Z"
      },
      {
        "id": 33,
        "status": "expired",
        "bank": "Banco do Brasil",
        "amount": 94,
        "max_date_to_send": "2019-07-26T04:28:18.869Z",
        "expires_in": "2019-07-15T23:00:16.582Z"
      },
      {
        "id": 34,
        "status": "refunded",
        "bank": "Bradesco",
        "amount": 44,
        "max_date_to_send": "2019-07-21T09:14:04.996Z",
        "expires_in": "2019-07-21T18:52:13.393Z"
      },
      {
        "id": 35,
        "status": "sent",
        "bank": "Banco do Brasil",
        "amount": 60,
        "max_date_to_send": "2019-07-05T19:29:59.421Z",
        "expires_in": "2019-07-16T00:16:31.130Z"
      },
      {
        "id": 36,
        "status": "processing",
        "bank": "Itaú",
        "amount": 3,
        "max_date_to_send": "2019-07-26T15:25:11.590Z",
        "expires_in": "2019-07-15T23:34:45.591Z"
      },
      {
        "id": 37,
        "status": "pending",
        "bank": "Banco do Brasil",
        "amount": 88,
        "max_date_to_send": "2019-07-13T03:46:54.514Z",
        "expires_in": "2019-07-12T23:23:14.774Z"
      },
      {
        "id": 38,
        "status": "refunded",
        "bank": "Caixa Econômica",
        "amount": 42,
        "max_date_to_send": "2019-07-09T15:44:01.822Z",
        "expires_in": "2019-07-11T07:57:41.777Z"
      },
      {
        "id": 39,
        "status": "partial_refunded",
        "bank": "Itaú",
        "amount": 88,
        "max_date_to_send": "2019-07-19T09:23:10.425Z",
        "expires_in": "2019-07-26T16:48:37.067Z"
      },
      {
        "id": 40,
        "status": "expired",
        "bank": "Banco do Brasil",
        "amount": 70,
        "max_date_to_send": "2019-07-09T17:34:17.641Z",
        "expires_in": "2019-07-02T19:54:16.121Z"
      },
      {
        "id": 41,
        "status": "sent",
        "bank": "Bradesco",
        "amount": 69,
        "max_date_to_send": "2019-07-02T05:50:47.665Z",
        "expires_in": "2019-07-16T16:49:53.315Z"
      },
      {
        "id": 42,
        "status": "expired",
        "bank": "Banco do Brasil",
        "amount": 77,
        "max_date_to_send": "2019-07-26T19:55:34.785Z",
        "expires_in": "2019-07-02T06:47:31.214Z"
      },
      {
        "id": 43,
        "status": "pending",
        "bank": "Banco do Brasil",
        "amount": 45,
        "max_date_to_send": "2019-07-25T11:59:05.414Z",
        "expires_in": "2019-07-07T18:08:06.801Z"
      },
      {
        "id": 44,
        "status": "paid",
        "bank": "Itaú",
        "amount": 31,
        "max_date_to_send": "2019-07-11T05:00:27.421Z",
        "expires_in": "2019-07-10T09:25:35.437Z"
      },
      {
        "id": 45,
        "status": "generated",
        "bank": "Bradesco",
        "amount": 28,
        "max_date_to_send": "2019-07-03T01:49:17.854Z",
        "expires_in": "2019-07-01T06:00:43.003Z"
      },
      {
        "id": 46,
        "status": "hard_bounce",
        "bank": "Itaú",
        "amount": 20,
        "max_date_to_send": "2019-07-09T22:45:12.178Z",
        "expires_in": "2019-07-16T05:32:20.551Z"
      },
      {
        "id": 47,
        "status": "pending",
        "bank": "Santander",
        "amount": 25,
        "max_date_to_send": "2019-07-17T10:10:30.015Z",
        "expires_in": "2019-07-23T03:02:14.331Z"
      },
      {
        "id": 48,
        "status": "hard_bounce",
        "bank": "Banco do Brasil",
        "amount": 43,
        "max_date_to_send": "2019-07-24T20:15:25.490Z",
        "expires_in": "2019-07-03T02:55:10.437Z"
      },
      {
        "id": 49,
        "status": "expired",
        "bank": "Itaú",
        "amount": 28,
        "max_date_to_send": "2019-07-26T09:20:12.649Z",
        "expires_in": "2019-07-13T23:29:40.712Z"
      },
      {
        "id": 50,
        "status": "partial_refunded",
        "bank": "Banco do Brasil",
        "amount": 95,
        "max_date_to_send": "2019-07-08T22:23:02.881Z",
        "expires_in": "2019-07-30T13:05:55.334Z"
      }
    ]
  },
  "generate_bank_file": {
    "url": "http://bernhard.name"
  },
  "import_bank_file": {
    "status": "success"
  },
  "payments": [
    {
      "id": "f62c3573-c9cc-4eed-9cc8-d48cd54c130c",
      "status": "partial_refunded",
      "date": "2019-07-05T09:41:06.342Z",
      "donor": {
        "name": "Ivah Lemke"
      },
      "method": {
        "type": "credit",
        "card": {
          "brand": "visa"
        }
      },
      "value": "4902",
      "currency": "BRL"
    },
    {
      "id": "76771929-43d7-4850-a47c-14df04c9a5f4",
      "status": "hard_bounce",
      "date": "2019-07-04T23:20:03.729Z",
      "donor": {
        "name": "Spencer Ward"
      },
      "method": {
        "type": "payment_slip",
        "card": {
          "brand": "master"
        }
      },
      "value": "68506",
      "currency": "BRL"
    },
    {
      "id": "834eec7c-36c1-4f74-931f-3194389ae807",
      "status": "processing",
      "date": "2019-07-05T17:54:47.624Z",
      "donor": {
        "name": "Lonnie Mitchell"
      },
      "method": {
        "type": "payment_slip",
        "card": {
          "brand": "visa"
        }
      },
      "value": "15243",
      "currency": "BRL"
    },
    {
      "id": "33365a9c-7e2b-45f3-9f1e-07d64937db9b",
      "status": "refunded",
      "date": "2019-07-05T10:06:39.545Z",
      "donor": {
        "name": "Ashton Rosenbaum"
      },
      "method": {
        "type": "phone_bill",
        "card": {
          "brand": "elo"
        }
      },
      "value": "30142",
      "currency": "BRL"
    },
    {
      "id": "1c81884a-1a2b-4d8b-a4c1-85b8999bf14e",
      "status": "error",
      "date": "2019-07-05T15:39:26.153Z",
      "donor": {
        "name": "Juliet Ullrich"
      },
      "method": {
        "type": "debit",
        "card": {
          "brand": "master"
        }
      },
      "value": "35976",
      "currency": "BRL"
    },
    {
      "id": "b589b4a5-7d08-4fc8-aeb5-3b0c81a8c55c",
      "status": "hard_bounce",
      "date": "2019-07-05T10:05:31.317Z",
      "donor": {
        "name": "Karlie Dickens"
      },
      "method": {
        "type": "credit",
        "card": {
          "brand": "visa"
        }
      },
      "value": "75276",
      "currency": "BRL"
    },
    {
      "id": "e381eaab-88b6-460f-8890-f4926d5d55b9",
      "status": "soft_bounce",
      "date": "2019-07-05T02:54:10.135Z",
      "donor": {
        "name": "Horacio Rowe"
      },
      "method": {
        "type": "credit",
        "card": {
          "brand": "visa"
        }
      },
      "value": "50275",
      "currency": "BRL"
    },
    {
      "id": "91c13e89-05aa-4b5a-b0f3-09a8d4371038",
      "status": "soft_bounce",
      "date": "2019-07-05T17:17:26.525Z",
      "donor": {
        "name": "Mrs. Tito Purdy"
      },
      "method": {
        "type": "phone_bill",
        "card": {
          "brand": "visa"
        }
      },
      "value": "47144",
      "currency": "BRL"
    },
    {
      "id": "d7a99b68-d6a3-4ec8-a784-e4b3cb2a6b2d",
      "status": "generated",
      "date": "2019-07-05T12:24:59.614Z",
      "donor": {
        "name": "Furman Heathcote"
      },
      "method": {
        "type": "payment_slip",
        "card": {
          "brand": "master"
        }
      },
      "value": "65403",
      "currency": "BRL"
    },
    {
      "id": "72e62d47-6566-4e69-9c1a-82f087d80fe1",
      "status": "hard_bounce",
      "date": "2019-07-04T20:29:25.336Z",
      "donor": {
        "name": "Tara Labadie"
      },
      "method": {
        "type": "credit",
        "card": {
          "brand": "visa"
        }
      },
      "value": "77579",
      "currency": "BRL"
    },
    {
      "id": "374dd584-8ec1-4220-aa9b-8fb35503dd92",
      "status": "soft_bounce",
      "date": "2019-07-05T02:07:40.680Z",
      "donor": {
        "name": "Salma Smith IV"
      },
      "method": {
        "type": "payment_slip",
        "card": {
          "brand": "master"
        }
      },
      "value": "64412",
      "currency": "BRL"
    },
    {
      "id": "8432c55d-1f88-408f-aa11-cdf512773ac4",
      "status": "soft_bounce",
      "date": "2019-07-05T03:30:38.063Z",
      "donor": {
        "name": "Mercedes Rath Sr."
      },
      "method": {
        "type": "debit",
        "card": {
          "brand": "master"
        }
      },
      "value": "57338",
      "currency": "BRL"
    },
    {
      "id": "5b39f40e-b80e-44b6-aa88-d898b38053a6",
      "status": "processing",
      "date": "2019-07-05T12:14:56.760Z",
      "donor": {
        "name": "Antonina Thompson"
      },
      "method": {
        "type": "credit",
        "card": {
          "brand": "visa"
        }
      },
      "value": "21269",
      "currency": "BRL"
    },
    {
      "id": "8d95d804-728e-496e-9282-dd68276f3b10",
      "status": "sent",
      "date": "2019-07-05T05:29:25.744Z",
      "donor": {
        "name": "Miss Charles Welch"
      },
      "method": {
        "type": "phone_bill",
        "card": {
          "brand": "elo"
        }
      },
      "value": "59844",
      "currency": "BRL"
    },
    {
      "id": "e9e2610c-641c-4ad1-8193-5c2838bee7b6",
      "status": "sent",
      "date": "2019-07-05T08:02:22.707Z",
      "donor": {
        "name": "Savannah Bogan"
      },
      "method": {
        "type": "phone_bill",
        "card": {
          "brand": "master"
        }
      },
      "value": "98815",
      "currency": "BRL"
    },
    {
      "id": "049c3a1f-2fdf-4561-aa50-2bcacc3de8a3",
      "status": "processing",
      "date": "2019-07-05T11:29:36.279Z",
      "donor": {
        "name": "Al Monahan"
      },
      "method": {
        "type": "payment_slip",
        "card": {
          "brand": "visa"
        }
      },
      "value": "40175",
      "currency": "BRL"
    },
    {
      "id": "708e3134-bb0e-4717-b629-6e191e44946c",
      "status": "generated",
      "date": "2019-07-05T11:47:34.926Z",
      "donor": {
        "name": "Jakayla Watsica"
      },
      "method": {
        "type": "payment_slip",
        "card": {
          "brand": "elo"
        }
      },
      "value": "70163",
      "currency": "BRL"
    },
    {
      "id": "0c1e41aa-5245-4447-b2e6-aaa861a6420c",
      "status": "generated",
      "date": "2019-07-05T03:00:48.946Z",
      "donor": {
        "name": "Amir Gleichner"
      },
      "method": {
        "type": "credit",
        "card": {
          "brand": "visa"
        }
      },
      "value": "53491",
      "currency": "BRL"
    },
    {
      "id": "b857cb94-3699-4520-85e5-14c39288dc78",
      "status": "processing",
      "date": "2019-07-05T04:04:25.655Z",
      "donor": {
        "name": "Weston Volkman"
      },
      "method": {
        "type": "credit",
        "card": {
          "brand": "elo"
        }
      },
      "value": "23880",
      "currency": "BRL"
    },
    {
      "id": "0008a899-59b6-4693-bb66-c58ea4839de0",
      "status": "error",
      "date": "2019-07-05T01:48:41.121Z",
      "donor": {
        "name": "Ms. Bertrand Pfeffer"
      },
      "method": {
        "type": "phone_bill",
        "card": {
          "brand": "master"
        }
      },
      "value": "16091",
      "currency": "BRL"
    }
  ]
}