{
  "user": {
    "id": 257,
    "name": "Rogelio Brakus",
    "email": "Daisha_Bergstrom12@hotmail.com"
  },
  "token": {
    "access_token": "05372624d4b5f299dab41b46b4dc0fcc63b1526c124a5b99c3a71e833656245a",
    "token_type": "bearer",
    "expires_in": 7200,
    "refresh_token": "10f0c21adfaf89c81b29e852a8ff26ae9719a9357acb035d9a8b9bf09414910d",
    "created_at": 1560805200,
    "user": {
      "id": 257,
      "name": "Rogelio Brakus",
      "email": "Daisha_Bergstrom12@hotmail.com"
    }
  },
  "file_status_by_month": [
    {
      "files_info": [
        {
          "id": 1,
          "month": 12,
          "total": 180,
          "new": 2,
          "without_return": 9,
          "expired": 1
        },
        {
          "id": 2,
          "month": 11,
          "total": 162,
          "new": 8,
          "without_return": 7,
          "expired": 3
        },
        {
          "id": 3,
          "month": 10,
          "total": 235,
          "new": 0,
          "without_return": 6,
          "expired": 9
        },
        {
          "id": 4,
          "month": 9,
          "total": 818,
          "new": 6,
          "without_return": 2,
          "expired": 10
        },
        {
          "id": 5,
          "month": 8,
          "total": 855,
          "new": 3,
          "without_return": 1,
          "expired": 10
        },
        {
          "id": 6,
          "month": 7,
          "total": 386,
          "new": 3,
          "without_return": 3,
          "expired": 1
        }
      ],
      "meta": {
        "current_page": 1,
        "next_page": 2,
        "page_records": 6,
        "total_records": 6
      }
    },
    {
      "files_info": [
        {
          "id": 1,
          "month": 12,
          "total": 900,
          "new": 6,
          "without_return": 1,
          "expired": 6
        },
        {
          "id": 2,
          "month": 11,
          "total": 302,
          "new": 1,
          "without_return": 4,
          "expired": 8
        },
        {
          "id": 3,
          "month": 10,
          "total": 706,
          "new": 4,
          "without_return": 0,
          "expired": 5
        },
        {
          "id": 4,
          "month": 9,
          "total": 386,
          "new": 6,
          "without_return": 6,
          "expired": 7
        },
        {
          "id": 5,
          "month": 8,
          "total": 460,
          "new": 9,
          "without_return": 8,
          "expired": 3
        },
        {
          "id": 6,
          "month": 7,
          "total": 508,
          "new": 3,
          "without_return": 10,
          "expired": 6
        }
      ],
      "meta": {
        "current_page": 2,
        "next_page": 3,
        "page_records": 6,
        "total_records": 6
      }
    },
    {
      "files_info": [
        {
          "id": 1,
          "month": 12,
          "total": 170,
          "new": 0,
          "without_return": 6,
          "expired": 5
        },
        {
          "id": 2,
          "month": 11,
          "total": 595,
          "new": 1,
          "without_return": 5,
          "expired": 5
        },
        {
          "id": 3,
          "month": 10,
          "total": 45,
          "new": 10,
          "without_return": 7,
          "expired": 1
        },
        {
          "id": 4,
          "month": 9,
          "total": 760,
          "new": 7,
          "without_return": 2,
          "expired": 2
        },
        {
          "id": 5,
          "month": 8,
          "total": 130,
          "new": 8,
          "without_return": 10,
          "expired": 4
        },
        {
          "id": 6,
          "month": 7,
          "total": 359,
          "new": 10,
          "without_return": 1,
          "expired": 10
        }
      ],
      "meta": {
        "current_page": 3,
        "next_page": 4,
        "page_records": 6,
        "total_records": 6
      }
    },
    {
      "files_info": [
        {
          "id": 1,
          "month": 12,
          "total": 308,
          "new": 9,
          "without_return": 1,
          "expired": 9
        },
        {
          "id": 2,
          "month": 11,
          "total": 777,
          "new": 4,
          "without_return": 9,
          "expired": 8
        },
        {
          "id": 3,
          "month": 10,
          "total": 536,
          "new": 2,
          "without_return": 0,
          "expired": 4
        },
        {
          "id": 4,
          "month": 9,
          "total": 625,
          "new": 8,
          "without_return": 10,
          "expired": 7
        },
        {
          "id": 5,
          "month": 8,
          "total": 210,
          "new": 7,
          "without_return": 6,
          "expired": 9
        },
        {
          "id": 6,
          "month": 7,
          "total": 657,
          "new": 4,
          "without_return": 8,
          "expired": 0
        }
      ],
      "meta": {
        "current_page": 4,
        "next_page": 5,
        "page_records": 6,
        "total_records": 6
      }
    },
    {
      "files_info": [
        {
          "id": 1,
          "month": 12,
          "total": 23,
          "new": 1,
          "without_return": 3,
          "expired": 9
        },
        {
          "id": 2,
          "month": 11,
          "total": 490,
          "new": 3,
          "without_return": 9,
          "expired": 10
        },
        {
          "id": 3,
          "month": 10,
          "total": 476,
          "new": 4,
          "without_return": 1,
          "expired": 0
        },
        {
          "id": 4,
          "month": 9,
          "total": 633,
          "new": 5,
          "without_return": 2,
          "expired": 0
        },
        {
          "id": 5,
          "month": 8,
          "total": 17,
          "new": 4,
          "without_return": 6,
          "expired": 0
        },
        {
          "id": 6,
          "month": 7,
          "total": 164,
          "new": 10,
          "without_return": 1,
          "expired": 6
        }
      ],
      "meta": {
        "current_page": 5,
        "next_page": 6,
        "page_records": 6,
        "total_records": 6
      }
    },
    {
      "files_info": [
        {
          "id": 1,
          "month": 12,
          "total": 222,
          "new": 5,
          "without_return": 8,
          "expired": 4
        },
        {
          "id": 2,
          "month": 11,
          "total": 138,
          "new": 6,
          "without_return": 0,
          "expired": 3
        },
        {
          "id": 3,
          "month": 10,
          "total": 0,
          "new": 0,
          "without_return": 3,
          "expired": 7
        },
        {
          "id": 4,
          "month": 9,
          "total": 852,
          "new": 6,
          "without_return": 9,
          "expired": 5
        },
        {
          "id": 5,
          "month": 8,
          "total": 701,
          "new": 6,
          "without_return": 10,
          "expired": 3
        },
        {
          "id": 6,
          "month": 7,
          "total": 475,
          "new": 5,
          "without_return": 9,
          "expired": 3
        }
      ],
      "meta": {
        "current_page": 6,
        "next_page": 6,
        "page_records": 6,
        "total_records": 6
      }
    }
  ],
  "files_list": {
    "type": "debit",
    "files": [
      {
        "id": 1,
        "status": "sent",
        "bank": "Banco do Brasil",
        "amount": 55,
        "max_date_to_send": "2019-07-23T05:12:28.942Z",
        "expires_in": "2019-07-28T05:32:50.777Z"
      },
      {
        "id": 2,
        "status": "paid",
        "bank": "Banco do Brasil",
        "amount": 0,
        "max_date_to_send": "2019-07-23T02:05:17.816Z",
        "expires_in": "2019-07-31T21:39:02.751Z"
      },
      {
        "id": 3,
        "status": "pending",
        "bank": "Santander",
        "amount": 55,
        "max_date_to_send": "2019-07-15T22:01:31.904Z",
        "expires_in": "2019-07-23T04:39:28.550Z"
      },
      {
        "id": 4,
        "status": "partial_refunded",
        "bank": "Banco do Brasil",
        "amount": 22,
        "max_date_to_send": "2019-07-02T03:48:22.932Z",
        "expires_in": "2019-07-13T12:15:51.139Z"
      },
      {
        "id": 5,
        "status": "soft_bounce",
        "bank": "Banco do Brasil",
        "amount": 85,
        "max_date_to_send": "2019-07-16T18:26:29.589Z",
        "expires_in": "2019-07-06T14:11:13.817Z"
      },
      {
        "id": 6,
        "status": "hard_bounce",
        "bank": "Santander",
        "amount": 88,
        "max_date_to_send": "2019-07-27T03:57:31.135Z",
        "expires_in": "2019-07-19T23:22:58.288Z"
      },
      {
        "id": 7,
        "status": "partial_refunded",
        "bank": "Itaú",
        "amount": 46,
        "max_date_to_send": "2019-07-01T07:37:36.798Z",
        "expires_in": "2019-07-07T13:37:50.813Z"
      },
      {
        "id": 8,
        "status": "soft_bounce",
        "bank": "Caixa Econômica",
        "amount": 82,
        "max_date_to_send": "2019-07-12T07:42:20.004Z",
        "expires_in": "2019-07-14T13:18:54.534Z"
      },
      {
        "id": 9,
        "status": "partial_refunded",
        "bank": "Santander",
        "amount": 15,
        "max_date_to_send": "2019-07-24T01:27:08.536Z",
        "expires_in": "2019-07-10T15:51:13.104Z"
      },
      {
        "id": 10,
        "status": "processing",
        "bank": "Itaú",
        "amount": 35,
        "max_date_to_send": "2019-07-28T17:50:41.138Z",
        "expires_in": "2019-07-29T01:03:09.468Z"
      },
      {
        "id": 11,
        "status": "pending",
        "bank": "Banco do Brasil",
        "amount": 87,
        "max_date_to_send": "2019-07-02T06:44:53.005Z",
        "expires_in": "2019-07-01T14:51:23.965Z"
      },
      {
        "id": 12,
        "status": "sent",
        "bank": "Itaú",
        "amount": 64,
        "max_date_to_send": "2019-07-15T05:19:45.621Z",
        "expires_in": "2019-07-26T17:43:40.010Z"
      },
      {
        "id": 13,
        "status": "sent",
        "bank": "Bradesco",
        "amount": 7,
        "max_date_to_send": "2019-07-31T21:53:49.163Z",
        "expires_in": "2019-07-20T21:32:11.033Z"
      },
      {
        "id": 14,
        "status": "error",
        "bank": "Itaú",
        "amount": 98,
        "max_date_to_send": "2019-07-31T10:00:49.358Z",
        "expires_in": "2019-07-16T17:11:51.600Z"
      },
      {
        "id": 15,
        "status": "generated",
        "bank": "Banco do Brasil",
        "amount": 82,
        "max_date_to_send": "2019-07-02T23:44:40.666Z",
        "expires_in": "2019-07-07T10:35:40.896Z"
      },
      {
        "id": 16,
        "status": "error",
        "bank": "Santander",
        "amount": 77,
        "max_date_to_send": "2019-07-22T03:10:21.982Z",
        "expires_in": "2019-07-19T03:26:40.743Z"
      },
      {
        "id": 17,
        "status": "hard_bounce",
        "bank": "Santander",
        "amount": 9,
        "max_date_to_send": "2019-07-19T14:08:52.285Z",
        "expires_in": "2019-07-31T14:31:44.882Z"
      },
      {
        "id": 18,
        "status": "paid",
        "bank": "Itaú",
        "amount": 91,
        "max_date_to_send": "2019-07-03T16:37:13.812Z",
        "expires_in": "2019-07-01T20:46:51.375Z"
      },
      {
        "id": 19,
        "status": "processing",
        "bank": "Banco do Brasil",
        "amount": 68,
        "max_date_to_send": "2019-07-09T06:18:43.210Z",
        "expires_in": "2019-07-16T23:42:04.978Z"
      },
      {
        "id": 20,
        "status": "error",
        "bank": "Bradesco",
        "amount": 36,
        "max_date_to_send": "2019-07-23T14:26:47.875Z",
        "expires_in": "2019-07-26T12:13:35.717Z"
      },
      {
        "id": 21,
        "status": "processing",
        "bank": "Banco do Brasil",
        "amount": 12,
        "max_date_to_send": "2019-07-19T07:24:46.244Z",
        "expires_in": "2019-07-31T06:25:38.422Z"
      },
      {
        "id": 22,
        "status": "pending",
        "bank": "Itaú",
        "amount": 23,
        "max_date_to_send": "2019-07-21T21:20:30.451Z",
        "expires_in": "2019-07-14T04:07:55.839Z"
      },
      {
        "id": 23,
        "status": "generated",
        "bank": "Bradesco",
        "amount": 95,
        "max_date_to_send": "2019-07-01T22:56:19.916Z",
        "expires_in": "2019-07-26T11:48:56.875Z"
      },
      {
        "id": 24,
        "status": "paid",
        "bank": "Banco do Brasil",
        "amount": 40,
        "max_date_to_send": "2019-07-11T22:15:14.242Z",
        "expires_in": "2019-07-07T17:20:21.420Z"
      },
      {
        "id": 25,
        "status": "generated",
        "bank": "Santander",
        "amount": 12,
        "max_date_to_send": "2019-07-22T15:58:43.625Z",
        "expires_in": "2019-07-23T11:04:06.543Z"
      },
      {
        "id": 26,
        "status": "error",
        "bank": "Banco do Brasil",
        "amount": 26,
        "max_date_to_send": "2019-07-14T11:52:59.763Z",
        "expires_in": "2019-07-12T00:53:19.915Z"
      },
      {
        "id": 27,
        "status": "pending",
        "bank": "Bradesco",
        "amount": 81,
        "max_date_to_send": "2019-07-23T23:46:41.804Z",
        "expires_in": "2019-07-02T16:42:03.066Z"
      },
      {
        "id": 28,
        "status": "sent",
        "bank": "Santander",
        "amount": 75,
        "max_date_to_send": "2019-07-31T05:04:19.823Z",
        "expires_in": "2019-07-09T16:28:21.368Z"
      },
      {
        "id": 29,
        "status": "expired",
        "bank": "Itaú",
        "amount": 63,
        "max_date_to_send": "2019-07-18T23:36:41.299Z",
        "expires_in": "2019-07-31T13:36:16.418Z"
      },
      {
        "id": 30,
        "status": "hard_bounce",
        "bank": "Banco do Brasil",
        "amount": 31,
        "max_date_to_send": "2019-07-16T12:16:09.996Z",
        "expires_in": "2019-07-20T12:49:27.916Z"
      },
      {
        "id": 31,
        "status": "hard_bounce",
        "bank": "Itaú",
        "amount": 23,
        "max_date_to_send": "2019-07-05T22:51:40.100Z",
        "expires_in": "2019-07-21T18:53:04.130Z"
      },
      {
        "id": 32,
        "status": "refunded",
        "bank": "Santander",
        "amount": 76,
        "max_date_to_send": "2019-07-26T01:12:03.108Z",
        "expires_in": "2019-07-07T17:51:11.042Z"
      },
      {
        "id": 33,
        "status": "error",
        "bank": "Itaú",
        "amount": 24,
        "max_date_to_send": "2019-07-21T12:07:14.366Z",
        "expires_in": "2019-07-02T11:49:21.670Z"
      },
      {
        "id": 34,
        "status": "generated",
        "bank": "Itaú",
        "amount": 76,
        "max_date_to_send": "2019-07-17T15:24:39.995Z",
        "expires_in": "2019-07-13T04:22:13.839Z"
      },
      {
        "id": 35,
        "status": "soft_bounce",
        "bank": "Santander",
        "amount": 26,
        "max_date_to_send": "2019-07-26T02:27:09.926Z",
        "expires_in": "2019-07-25T04:24:35.457Z"
      },
      {
        "id": 36,
        "status": "processing",
        "bank": "Caixa Econômica",
        "amount": 42,
        "max_date_to_send": "2019-07-26T16:44:43.746Z",
        "expires_in": "2019-07-23T14:15:04.570Z"
      },
      {
        "id": 37,
        "status": "partial_refunded",
        "bank": "Santander",
        "amount": 43,
        "max_date_to_send": "2019-07-19T07:16:15.677Z",
        "expires_in": "2019-07-07T20:37:48.526Z"
      },
      {
        "id": 38,
        "status": "expired",
        "bank": "Caixa Econômica",
        "amount": 29,
        "max_date_to_send": "2019-07-26T01:27:34.243Z",
        "expires_in": "2019-07-07T07:33:46.729Z"
      },
      {
        "id": 39,
        "status": "sent",
        "bank": "Itaú",
        "amount": 59,
        "max_date_to_send": "2019-07-17T23:15:02.678Z",
        "expires_in": "2019-07-06T07:23:56.226Z"
      },
      {
        "id": 40,
        "status": "paid",
        "bank": "Santander",
        "amount": 38,
        "max_date_to_send": "2019-07-21T20:21:04.533Z",
        "expires_in": "2019-07-06T05:39:19.380Z"
      },
      {
        "id": 41,
        "status": "sent",
        "bank": "Bradesco",
        "amount": 57,
        "max_date_to_send": "2019-07-26T00:53:51.397Z",
        "expires_in": "2019-07-30T14:29:24.011Z"
      },
      {
        "id": 42,
        "status": "hard_bounce",
        "bank": "Caixa Econômica",
        "amount": 34,
        "max_date_to_send": "2019-07-15T17:12:36.452Z",
        "expires_in": "2019-07-11T03:09:43.517Z"
      },
      {
        "id": 43,
        "status": "processing",
        "bank": "Caixa Econômica",
        "amount": 0,
        "max_date_to_send": "2019-07-05T03:57:16.519Z",
        "expires_in": "2019-07-05T20:23:39.733Z"
      },
      {
        "id": 44,
        "status": "refunded",
        "bank": "Banco do Brasil",
        "amount": 67,
        "max_date_to_send": "2019-07-22T04:17:31.912Z",
        "expires_in": "2019-07-13T10:12:01.730Z"
      },
      {
        "id": 45,
        "status": "hard_bounce",
        "bank": "Caixa Econômica",
        "amount": 34,
        "max_date_to_send": "2019-07-12T13:01:28.029Z",
        "expires_in": "2019-07-01T00:05:49.662Z"
      },
      {
        "id": 46,
        "status": "refunded",
        "bank": "Bradesco",
        "amount": 34,
        "max_date_to_send": "2019-07-03T00:38:43.073Z",
        "expires_in": "2019-07-03T04:34:32.622Z"
      },
      {
        "id": 47,
        "status": "sent",
        "bank": "Caixa Econômica",
        "amount": 35,
        "max_date_to_send": "2019-07-16T12:00:52.954Z",
        "expires_in": "2019-07-18T15:20:08.234Z"
      },
      {
        "id": 48,
        "status": "pending",
        "bank": "Caixa Econômica",
        "amount": 46,
        "max_date_to_send": "2019-07-03T05:58:37.444Z",
        "expires_in": "2019-07-21T12:22:20.536Z"
      },
      {
        "id": 49,
        "status": "hard_bounce",
        "bank": "Itaú",
        "amount": 25,
        "max_date_to_send": "2019-07-06T13:49:21.054Z",
        "expires_in": "2019-07-28T09:37:50.913Z"
      },
      {
        "id": 50,
        "status": "expired",
        "bank": "Banco do Brasil",
        "amount": 95,
        "max_date_to_send": "2019-07-28T17:36:28.312Z",
        "expires_in": "2019-07-27T18:00:17.783Z"
      }
    ]
  },
  "generate_bank_file": {
    "url": "http://peggie.net"
  },
  "import_bank_file": {
    "status": "success"
  },
  "payments": [
    {
      "id": "8f5311ba-ece4-410f-a452-f90f0941d52c",
      "status": "generated",
      "date": "2019-07-03T23:25:42.379Z",
      "donor": {
        "name": "Lane Jakubowski"
      },
      "method": {
        "type": "credit",
        "card": {
          "brand": "master"
        }
      },
      "value": "24359",
      "currency": "BRL"
    },
    {
      "id": "8dda57d4-f321-4ef7-bb1c-2c397389cd28",
      "status": "error",
      "date": "2019-07-03T20:59:22.408Z",
      "donor": {
        "name": "Dedric Ryan"
      },
      "method": {
        "type": "debit",
        "card": {
          "brand": "master"
        }
      },
      "value": "82285",
      "currency": "BRL"
    },
    {
      "id": "2bbfc83f-09b2-4475-a322-097350b219cb",
      "status": "partial_refunded",
      "date": "2019-07-03T23:36:04.823Z",
      "donor": {
        "name": "Landen Prosacco V"
      },
      "method": {
        "type": "payment_slip",
        "card": {
          "brand": "elo"
        }
      },
      "value": "29453",
      "currency": "BRL"
    },
    {
      "id": "880a231a-3c07-4613-9544-8e5e2eb6559b",
      "status": "paid",
      "date": "2019-07-04T15:07:06.907Z",
      "donor": {
        "name": "Waino Swaniawski"
      },
      "method": {
        "type": "payment_slip",
        "card": {
          "brand": "elo"
        }
      },
      "value": "26649",
      "currency": "BRL"
    },
    {
      "id": "c3cff54e-1b0f-418f-b4ac-c84180d21bdf",
      "status": "pending",
      "date": "2019-07-04T03:46:45.056Z",
      "donor": {
        "name": "Demetrius Herzog"
      },
      "method": {
        "type": "debit",
        "card": {
          "brand": "master"
        }
      },
      "value": "58990",
      "currency": "BRL"
    },
    {
      "id": "222316b4-fd75-4aaf-b0ff-abd1f553565b",
      "status": "partial_refunded",
      "date": "2019-07-03T17:45:38.076Z",
      "donor": {
        "name": "Monica Green"
      },
      "method": {
        "type": "payment_slip",
        "card": {
          "brand": "elo"
        }
      },
      "value": "78963",
      "currency": "BRL"
    },
    {
      "id": "398d3f4b-7b96-4120-8075-1ac798942abc",
      "status": "sent",
      "date": "2019-07-04T04:44:25.040Z",
      "donor": {
        "name": "Lilyan McLaughlin"
      },
      "method": {
        "type": "debit",
        "card": {
          "brand": "master"
        }
      },
      "value": "66054",
      "currency": "BRL"
    },
    {
      "id": "512b42f4-b1db-496b-9142-bf964941ee66",
      "status": "expired",
      "date": "2019-07-04T02:11:48.226Z",
      "donor": {
        "name": "Ilene O'Conner"
      },
      "method": {
        "type": "phone_bill",
        "card": {
          "brand": "visa"
        }
      },
      "value": "48385",
      "currency": "BRL"
    },
    {
      "id": "76aada1b-2939-4d58-8270-01a651a9020c",
      "status": "soft_bounce",
      "date": "2019-07-04T06:28:52.156Z",
      "donor": {
        "name": "Darwin Gleichner"
      },
      "method": {
        "type": "debit",
        "card": {
          "brand": "visa"
        }
      },
      "value": "99757",
      "currency": "BRL"
    },
    {
      "id": "8dc7bdfb-eeb9-42ef-9c82-98482f5cde33",
      "status": "generated",
      "date": "2019-07-04T09:42:09.846Z",
      "donor": {
        "name": "Elton O'Connell"
      },
      "method": {
        "type": "credit",
        "card": {
          "brand": "visa"
        }
      },
      "value": "68290",
      "currency": "BRL"
    },
    {
      "id": "bf737720-5a32-47b8-92ee-0b019846f0e8",
      "status": "refunded",
      "date": "2019-07-03T22:31:17.176Z",
      "donor": {
        "name": "Madyson Hamill"
      },
      "method": {
        "type": "debit",
        "card": {
          "brand": "visa"
        }
      },
      "value": "59646",
      "currency": "BRL"
    },
    {
      "id": "4b2d4c00-9884-45a8-b391-4cf65fc91fec",
      "status": "expired",
      "date": "2019-07-04T04:57:53.178Z",
      "donor": {
        "name": "Lue Dicki"
      },
      "method": {
        "type": "phone_bill",
        "card": {
          "brand": "visa"
        }
      },
      "value": "54113",
      "currency": "BRL"
    },
    {
      "id": "a2d802bc-38b7-42e8-bd68-d1e6f20def50",
      "status": "generated",
      "date": "2019-07-04T03:36:26.577Z",
      "donor": {
        "name": "Jesse Brekke"
      },
      "method": {
        "type": "credit",
        "card": {
          "brand": "visa"
        }
      },
      "value": "82771",
      "currency": "BRL"
    },
    {
      "id": "9f398881-5351-4843-adfe-5c3173dadbcc",
      "status": "processing",
      "date": "2019-07-04T04:14:53.008Z",
      "donor": {
        "name": "Pedro Stiedemann"
      },
      "method": {
        "type": "credit",
        "card": {
          "brand": "visa"
        }
      },
      "value": "13686",
      "currency": "BRL"
    },
    {
      "id": "4f6957db-96ba-4ecc-8957-f601a1835e79",
      "status": "soft_bounce",
      "date": "2019-07-04T05:43:35.847Z",
      "donor": {
        "name": "Beryl Jacobs"
      },
      "method": {
        "type": "credit",
        "card": {
          "brand": "visa"
        }
      },
      "value": "81763",
      "currency": "BRL"
    },
    {
      "id": "b688d9ad-5ce4-4561-97b3-4512ced6368d",
      "status": "processing",
      "date": "2019-07-04T13:36:24.944Z",
      "donor": {
        "name": "Miss Albin Labadie"
      },
      "method": {
        "type": "credit",
        "card": {
          "brand": "elo"
        }
      },
      "value": "92754",
      "currency": "BRL"
    },
    {
      "id": "cb14ae98-9856-4ab7-bb8e-dd0ca5fe3847",
      "status": "pending",
      "date": "2019-07-04T05:41:10.790Z",
      "donor": {
        "name": "Zoie Hilpert"
      },
      "method": {
        "type": "debit",
        "card": {
          "brand": "master"
        }
      },
      "value": "29254",
      "currency": "BRL"
    },
    {
      "id": "ae4f8d12-c8b5-4ad0-b7fc-50fb61dc8bd1",
      "status": "expired",
      "date": "2019-07-04T04:11:35.998Z",
      "donor": {
        "name": "Marian Collins"
      },
      "method": {
        "type": "debit",
        "card": {
          "brand": "master"
        }
      },
      "value": "22100",
      "currency": "BRL"
    },
    {
      "id": "8186db79-5179-4d46-aeb3-fd147cd4ddd7",
      "status": "generated",
      "date": "2019-07-04T00:37:04.205Z",
      "donor": {
        "name": "River O'Reilly"
      },
      "method": {
        "type": "credit",
        "card": {
          "brand": "master"
        }
      },
      "value": "26988",
      "currency": "BRL"
    },
    {
      "id": "3af3b1d6-1435-4c4f-93fa-0f3c4ee19b9e",
      "status": "partial_refunded",
      "date": "2019-07-03T22:30:50.212Z",
      "donor": {
        "name": "Lonny Nolan"
      },
      "method": {
        "type": "credit",
        "card": {
          "brand": "elo"
        }
      },
      "value": "89804",
      "currency": "BRL"
    }
  ]
}