{
  "token": {
    "access_token": "05372624d4b5f299dab41b46b4dc0fcc63b1526c124a5b99c3a71e833656245a",
    "token_type": "bearer",
    "expires_in": 7200,
    "refresh_token": "10f0c21adfaf89c81b29e852a8ff26ae9719a9357acb035d9a8b9bf09414910d",
    "created_at": 1560805200,
    "user": {
      "id": 500,
      "name": "Cyril Turcotte V",
      "email": "Ignacio_Hoeger@yahoo.com"
    }
  },
  "monthly_metrics": [
    {
      "files_info": [
        {
          "id": 1,
          "month": 12,
          "total": 862,
          "new": 3,
          "without_return": 4,
          "expired": 7
        },
        {
          "id": 2,
          "month": 11,
          "total": 577,
          "new": 7,
          "without_return": 6,
          "expired": 10
        },
        {
          "id": 3,
          "month": 10,
          "total": 242,
          "new": 6,
          "without_return": 6,
          "expired": 10
        },
        {
          "id": 4,
          "month": 9,
          "total": 383,
          "new": 3,
          "without_return": 10,
          "expired": 4
        },
        {
          "id": 5,
          "month": 8,
          "total": 424,
          "new": 7,
          "without_return": 3,
          "expired": 6
        },
        {
          "id": 6,
          "month": 7,
          "total": 205,
          "new": 8,
          "without_return": 4,
          "expired": 5
        }
      ],
      "meta": {
        "current_page": 1,
        "next_page": 2,
        "page_records": 6,
        "total_records": 6
      }
    },
    {
      "files_info": [
        {
          "id": 1,
          "month": 12,
          "total": 102,
          "new": 8,
          "without_return": 6,
          "expired": 0
        },
        {
          "id": 2,
          "month": 11,
          "total": 86,
          "new": 4,
          "without_return": 9,
          "expired": 8
        },
        {
          "id": 3,
          "month": 10,
          "total": 135,
          "new": 3,
          "without_return": 4,
          "expired": 1
        },
        {
          "id": 4,
          "month": 9,
          "total": 520,
          "new": 6,
          "without_return": 4,
          "expired": 5
        },
        {
          "id": 5,
          "month": 8,
          "total": 886,
          "new": 6,
          "without_return": 2,
          "expired": 8
        },
        {
          "id": 6,
          "month": 7,
          "total": 310,
          "new": 0,
          "without_return": 5,
          "expired": 7
        }
      ],
      "meta": {
        "current_page": 2,
        "next_page": 3,
        "page_records": 6,
        "total_records": 6
      }
    },
    {
      "files_info": [
        {
          "id": 1,
          "month": 12,
          "total": 260,
          "new": 0,
          "without_return": 6,
          "expired": 4
        },
        {
          "id": 2,
          "month": 11,
          "total": 301,
          "new": 1,
          "without_return": 0,
          "expired": 4
        },
        {
          "id": 3,
          "month": 10,
          "total": 529,
          "new": 10,
          "without_return": 0,
          "expired": 1
        },
        {
          "id": 4,
          "month": 9,
          "total": 19,
          "new": 9,
          "without_return": 4,
          "expired": 2
        },
        {
          "id": 5,
          "month": 8,
          "total": 446,
          "new": 6,
          "without_return": 6,
          "expired": 9
        },
        {
          "id": 6,
          "month": 7,
          "total": 367,
          "new": 10,
          "without_return": 7,
          "expired": 8
        }
      ],
      "meta": {
        "current_page": 3,
        "next_page": 4,
        "page_records": 6,
        "total_records": 6
      }
    },
    {
      "files_info": [
        {
          "id": 1,
          "month": 12,
          "total": 622,
          "new": 6,
          "without_return": 7,
          "expired": 8
        },
        {
          "id": 2,
          "month": 11,
          "total": 60,
          "new": 9,
          "without_return": 6,
          "expired": 1
        },
        {
          "id": 3,
          "month": 10,
          "total": 49,
          "new": 10,
          "without_return": 7,
          "expired": 3
        },
        {
          "id": 4,
          "month": 9,
          "total": 591,
          "new": 10,
          "without_return": 2,
          "expired": 0
        },
        {
          "id": 5,
          "month": 8,
          "total": 555,
          "new": 3,
          "without_return": 5,
          "expired": 8
        },
        {
          "id": 6,
          "month": 7,
          "total": 861,
          "new": 2,
          "without_return": 8,
          "expired": 7
        }
      ],
      "meta": {
        "current_page": 4,
        "next_page": 5,
        "page_records": 6,
        "total_records": 6
      }
    },
    {
      "files_info": [
        {
          "id": 1,
          "month": 12,
          "total": 31,
          "new": 9,
          "without_return": 5,
          "expired": 5
        },
        {
          "id": 2,
          "month": 11,
          "total": 54,
          "new": 0,
          "without_return": 6,
          "expired": 1
        },
        {
          "id": 3,
          "month": 10,
          "total": 285,
          "new": 10,
          "without_return": 5,
          "expired": 6
        },
        {
          "id": 4,
          "month": 9,
          "total": 254,
          "new": 2,
          "without_return": 5,
          "expired": 1
        },
        {
          "id": 5,
          "month": 8,
          "total": 269,
          "new": 7,
          "without_return": 7,
          "expired": 0
        },
        {
          "id": 6,
          "month": 7,
          "total": 365,
          "new": 5,
          "without_return": 10,
          "expired": 2
        }
      ],
      "meta": {
        "current_page": 5,
        "next_page": 6,
        "page_records": 6,
        "total_records": 6
      }
    },
    {
      "files_info": [
        {
          "id": 1,
          "month": 12,
          "total": 678,
          "new": 5,
          "without_return": 7,
          "expired": 10
        },
        {
          "id": 2,
          "month": 11,
          "total": 393,
          "new": 10,
          "without_return": 7,
          "expired": 6
        },
        {
          "id": 3,
          "month": 10,
          "total": 110,
          "new": 10,
          "without_return": 5,
          "expired": 6
        },
        {
          "id": 4,
          "month": 9,
          "total": 285,
          "new": 3,
          "without_return": 2,
          "expired": 1
        },
        {
          "id": 5,
          "month": 8,
          "total": 353,
          "new": 7,
          "without_return": 4,
          "expired": 4
        },
        {
          "id": 6,
          "month": 7,
          "total": 539,
          "new": 7,
          "without_return": 9,
          "expired": 1
        }
      ],
      "meta": {
        "current_page": 6,
        "next_page": 6,
        "page_records": 6,
        "total_records": 6
      }
    }
  ],
  "bank_files": {
    "type": "debit",
    "files": [
      {
        "id": 1,
        "status": "pending",
        "bank": "Banco do Brasil",
        "amount": 29,
        "max_date_to_send": "2019-07-04T14:47:45.439Z",
        "expires_in": "2019-07-01T02:26:59.838Z"
      },
      {
        "id": 2,
        "status": "soft_bounce",
        "bank": "Bradesco",
        "amount": 61,
        "max_date_to_send": "2019-07-27T15:28:49.411Z",
        "expires_in": "2019-07-31T03:08:51.334Z"
      },
      {
        "id": 3,
        "status": "sent",
        "bank": "Banco do Brasil",
        "amount": 82,
        "max_date_to_send": "2019-07-28T08:58:48.115Z",
        "expires_in": "2019-07-20T07:40:59.517Z"
      },
      {
        "id": 4,
        "status": "refunded",
        "bank": "Santander",
        "amount": 83,
        "max_date_to_send": "2019-07-19T16:11:47.910Z",
        "expires_in": "2019-07-16T02:58:51.627Z"
      },
      {
        "id": 5,
        "status": "hard_bounce",
        "bank": "Santander",
        "amount": 67,
        "max_date_to_send": "2019-07-24T03:12:52.764Z",
        "expires_in": "2019-07-20T21:17:57.958Z"
      },
      {
        "id": 6,
        "status": "pending",
        "bank": "Caixa Econômica",
        "amount": 16,
        "max_date_to_send": "2019-07-29T17:05:58.447Z",
        "expires_in": "2019-07-07T19:00:18.915Z"
      },
      {
        "id": 7,
        "status": "processing",
        "bank": "Caixa Econômica",
        "amount": 4,
        "max_date_to_send": "2019-07-04T07:00:52.537Z",
        "expires_in": "2019-07-11T06:35:33.426Z"
      },
      {
        "id": 8,
        "status": "hard_bounce",
        "bank": "Caixa Econômica",
        "amount": 30,
        "max_date_to_send": "2019-07-27T19:22:46.821Z",
        "expires_in": "2019-07-04T02:01:47.667Z"
      },
      {
        "id": 9,
        "status": "partial_refunded",
        "bank": "Caixa Econômica",
        "amount": 88,
        "max_date_to_send": "2019-07-23T01:42:15.945Z",
        "expires_in": "2019-07-07T15:14:37.401Z"
      },
      {
        "id": 10,
        "status": "hard_bounce",
        "bank": "Itaú",
        "amount": 3,
        "max_date_to_send": "2019-07-07T10:39:40.297Z",
        "expires_in": "2019-07-26T22:10:09.995Z"
      },
      {
        "id": 11,
        "status": "hard_bounce",
        "bank": "Bradesco",
        "amount": 92,
        "max_date_to_send": "2019-07-29T11:12:58.036Z",
        "expires_in": "2019-07-09T16:20:45.302Z"
      },
      {
        "id": 12,
        "status": "sent",
        "bank": "Santander",
        "amount": 81,
        "max_date_to_send": "2019-07-22T02:18:43.872Z",
        "expires_in": "2019-07-09T08:26:36.888Z"
      },
      {
        "id": 13,
        "status": "partial_refunded",
        "bank": "Banco do Brasil",
        "amount": 50,
        "max_date_to_send": "2019-07-11T05:48:12.429Z",
        "expires_in": "2019-07-07T23:36:31.422Z"
      },
      {
        "id": 14,
        "status": "paid",
        "bank": "Banco do Brasil",
        "amount": 75,
        "max_date_to_send": "2019-07-26T11:37:25.881Z",
        "expires_in": "2019-07-05T21:18:24.997Z"
      },
      {
        "id": 15,
        "status": "processing",
        "bank": "Banco do Brasil",
        "amount": 31,
        "max_date_to_send": "2019-07-04T05:25:51.128Z",
        "expires_in": "2019-07-02T10:10:51.974Z"
      },
      {
        "id": 16,
        "status": "sent",
        "bank": "Itaú",
        "amount": 41,
        "max_date_to_send": "2019-07-07T14:11:59.621Z",
        "expires_in": "2019-07-28T10:03:02.669Z"
      },
      {
        "id": 17,
        "status": "error",
        "bank": "Bradesco",
        "amount": 77,
        "max_date_to_send": "2019-07-25T07:05:00.262Z",
        "expires_in": "2019-07-25T12:27:04.159Z"
      },
      {
        "id": 18,
        "status": "error",
        "bank": "Banco do Brasil",
        "amount": 85,
        "max_date_to_send": "2019-07-03T04:15:30.382Z",
        "expires_in": "2019-07-29T15:21:19.051Z"
      },
      {
        "id": 19,
        "status": "error",
        "bank": "Santander",
        "amount": 35,
        "max_date_to_send": "2019-07-03T21:32:54.321Z",
        "expires_in": "2019-07-16T16:07:50.080Z"
      },
      {
        "id": 20,
        "status": "paid",
        "bank": "Santander",
        "amount": 13,
        "max_date_to_send": "2019-07-27T20:50:38.939Z",
        "expires_in": "2019-07-20T21:32:49.903Z"
      },
      {
        "id": 21,
        "status": "processing",
        "bank": "Banco do Brasil",
        "amount": 0,
        "max_date_to_send": "2019-07-05T03:50:07.586Z",
        "expires_in": "2019-07-30T22:17:06.385Z"
      },
      {
        "id": 22,
        "status": "paid",
        "bank": "Santander",
        "amount": 80,
        "max_date_to_send": "2019-07-11T07:42:39.933Z",
        "expires_in": "2019-07-14T12:20:51.619Z"
      },
      {
        "id": 23,
        "status": "refunded",
        "bank": "Caixa Econômica",
        "amount": 59,
        "max_date_to_send": "2019-07-13T13:29:53.481Z",
        "expires_in": "2019-07-07T08:31:49.676Z"
      },
      {
        "id": 24,
        "status": "processing",
        "bank": "Santander",
        "amount": 14,
        "max_date_to_send": "2019-07-24T00:18:29.322Z",
        "expires_in": "2019-07-24T10:02:27.269Z"
      },
      {
        "id": 25,
        "status": "generated",
        "bank": "Banco do Brasil",
        "amount": 62,
        "max_date_to_send": "2019-07-01T16:07:09.276Z",
        "expires_in": "2019-07-29T14:00:08.476Z"
      },
      {
        "id": 26,
        "status": "sent",
        "bank": "Itaú",
        "amount": 51,
        "max_date_to_send": "2019-07-11T11:09:56.920Z",
        "expires_in": "2019-07-22T17:10:25.315Z"
      },
      {
        "id": 27,
        "status": "partial_refunded",
        "bank": "Bradesco",
        "amount": 79,
        "max_date_to_send": "2019-07-29T00:40:45.799Z",
        "expires_in": "2019-07-31T06:11:52.826Z"
      },
      {
        "id": 28,
        "status": "error",
        "bank": "Santander",
        "amount": 57,
        "max_date_to_send": "2019-07-28T02:48:35.325Z",
        "expires_in": "2019-07-12T07:37:14.909Z"
      },
      {
        "id": 29,
        "status": "soft_bounce",
        "bank": "Santander",
        "amount": 89,
        "max_date_to_send": "2019-07-21T05:26:40.663Z",
        "expires_in": "2019-07-21T06:11:57.451Z"
      },
      {
        "id": 30,
        "status": "soft_bounce",
        "bank": "Itaú",
        "amount": 39,
        "max_date_to_send": "2019-07-21T16:47:30.468Z",
        "expires_in": "2019-07-16T01:13:22.424Z"
      },
      {
        "id": 31,
        "status": "sent",
        "bank": "Itaú",
        "amount": 45,
        "max_date_to_send": "2019-07-27T11:25:05.591Z",
        "expires_in": "2019-07-08T05:54:10.727Z"
      },
      {
        "id": 32,
        "status": "partial_refunded",
        "bank": "Itaú",
        "amount": 7,
        "max_date_to_send": "2019-07-04T02:27:12.511Z",
        "expires_in": "2019-07-22T18:35:12.045Z"
      },
      {
        "id": 33,
        "status": "expired",
        "bank": "Caixa Econômica",
        "amount": 6,
        "max_date_to_send": "2019-07-27T20:13:04.725Z",
        "expires_in": "2019-07-03T18:46:37.819Z"
      },
      {
        "id": 34,
        "status": "partial_refunded",
        "bank": "Caixa Econômica",
        "amount": 75,
        "max_date_to_send": "2019-07-23T06:49:11.404Z",
        "expires_in": "2019-07-11T23:39:04.929Z"
      },
      {
        "id": 35,
        "status": "pending",
        "bank": "Bradesco",
        "amount": 14,
        "max_date_to_send": "2019-07-29T14:08:29.518Z",
        "expires_in": "2019-07-01T14:53:08.960Z"
      },
      {
        "id": 36,
        "status": "processing",
        "bank": "Santander",
        "amount": 4,
        "max_date_to_send": "2019-07-23T10:35:42.226Z",
        "expires_in": "2019-07-25T23:20:24.481Z"
      },
      {
        "id": 37,
        "status": "pending",
        "bank": "Santander",
        "amount": 65,
        "max_date_to_send": "2019-07-30T11:04:56.120Z",
        "expires_in": "2019-07-18T20:59:54.902Z"
      },
      {
        "id": 38,
        "status": "soft_bounce",
        "bank": "Caixa Econômica",
        "amount": 62,
        "max_date_to_send": "2019-07-29T23:51:57.641Z",
        "expires_in": "2019-07-19T19:06:55.969Z"
      },
      {
        "id": 39,
        "status": "expired",
        "bank": "Itaú",
        "amount": 73,
        "max_date_to_send": "2019-07-14T14:51:58.767Z",
        "expires_in": "2019-07-17T16:07:45.573Z"
      },
      {
        "id": 40,
        "status": "error",
        "bank": "Santander",
        "amount": 84,
        "max_date_to_send": "2019-07-31T19:11:09.578Z",
        "expires_in": "2019-07-24T09:34:12.181Z"
      },
      {
        "id": 41,
        "status": "hard_bounce",
        "bank": "Caixa Econômica",
        "amount": 0,
        "max_date_to_send": "2019-07-28T10:49:04.280Z",
        "expires_in": "2019-07-20T13:55:30.780Z"
      },
      {
        "id": 42,
        "status": "refunded",
        "bank": "Itaú",
        "amount": 47,
        "max_date_to_send": "2019-07-19T05:14:25.013Z",
        "expires_in": "2019-07-06T16:59:33.486Z"
      },
      {
        "id": 43,
        "status": "hard_bounce",
        "bank": "Bradesco",
        "amount": 61,
        "max_date_to_send": "2019-07-19T12:29:59.674Z",
        "expires_in": "2019-07-13T21:12:53.257Z"
      },
      {
        "id": 44,
        "status": "processing",
        "bank": "Banco do Brasil",
        "amount": 93,
        "max_date_to_send": "2019-07-14T14:54:29.544Z",
        "expires_in": "2019-07-06T22:10:38.047Z"
      },
      {
        "id": 45,
        "status": "generated",
        "bank": "Santander",
        "amount": 97,
        "max_date_to_send": "2019-07-21T02:57:03.824Z",
        "expires_in": "2019-07-18T21:40:29.677Z"
      },
      {
        "id": 46,
        "status": "refunded",
        "bank": "Caixa Econômica",
        "amount": 24,
        "max_date_to_send": "2019-07-23T09:00:23.339Z",
        "expires_in": "2019-07-16T02:52:51.908Z"
      },
      {
        "id": 47,
        "status": "processing",
        "bank": "Itaú",
        "amount": 15,
        "max_date_to_send": "2019-07-06T03:58:56.651Z",
        "expires_in": "2019-07-01T16:31:57.180Z"
      },
      {
        "id": 48,
        "status": "hard_bounce",
        "bank": "Banco do Brasil",
        "amount": 15,
        "max_date_to_send": "2019-07-03T00:53:06.417Z",
        "expires_in": "2019-07-20T19:26:26.230Z"
      },
      {
        "id": 49,
        "status": "generated",
        "bank": "Caixa Econômica",
        "amount": 92,
        "max_date_to_send": "2019-07-12T07:04:48.443Z",
        "expires_in": "2019-07-20T12:25:09.904Z"
      },
      {
        "id": 50,
        "status": "hard_bounce",
        "bank": "Caixa Econômica",
        "amount": 17,
        "max_date_to_send": "2019-07-25T01:02:21.350Z",
        "expires_in": "2019-07-31T06:06:16.027Z"
      }
    ]
  },
  "generate_bank_file": {
    "url": "http://victor.net"
  },
  "import_bank_file": {
    "status": "success"
  },
  "payments": [
    {
      "id": "b38f5244-38fd-4e6f-b9b3-88d94045f215",
      "status": "hard_bounce",
      "date": "2019-07-25T10:14:58.315Z",
      "donor": {
        "name": "Camille Blanda"
      },
      "method": {
        "type": "payment_slip",
        "card": {
          "brand": "visa"
        }
      },
      "value": "27993",
      "currency": "BRL"
    },
    {
      "id": "88af08fb-fe85-479e-9578-494ad26ee08f",
      "status": "pending",
      "date": "2019-07-25T08:54:24.778Z",
      "donor": {
        "name": "Kody Bednar"
      },
      "method": {
        "type": "credit",
        "card": {
          "brand": "elo"
        }
      },
      "value": "9481",
      "currency": "BRL"
    },
    {
      "id": "33a1e4be-be8f-41ec-849b-e1aedec2f49e",
      "status": "sent",
      "date": "2019-07-25T17:21:27.950Z",
      "donor": {
        "name": "Hailee Lueilwitz"
      },
      "method": {
        "type": "phone_bill",
        "card": {
          "brand": "master"
        }
      },
      "value": "10168",
      "currency": "BRL"
    },
    {
      "id": "594e2c9c-e161-4c02-9963-6a40db7eba26",
      "status": "error",
      "date": "2019-07-24T18:05:14.776Z",
      "donor": {
        "name": "Robbie Kuvalis"
      },
      "method": {
        "type": "credit",
        "card": {
          "brand": "visa"
        }
      },
      "value": "57728",
      "currency": "BRL"
    },
    {
      "id": "ae06edfb-685a-4583-8814-7e0a1c2b9b16",
      "status": "generated",
      "date": "2019-07-25T06:05:03.934Z",
      "donor": {
        "name": "Magnus McLaughlin"
      },
      "method": {
        "type": "credit",
        "card": {
          "brand": "elo"
        }
      },
      "value": "82215",
      "currency": "BRL"
    },
    {
      "id": "dcc2d48a-bfb1-46a0-bcdf-37c2178af2a9",
      "status": "partial_refunded",
      "date": "2019-07-24T20:31:05.270Z",
      "donor": {
        "name": "Orlo Schuster"
      },
      "method": {
        "type": "debit",
        "card": {
          "brand": "visa"
        }
      },
      "value": "73768",
      "currency": "BRL"
    },
    {
      "id": "9936d563-b83d-4ba0-a7d1-0cece845b1fe",
      "status": "refunded",
      "date": "2019-07-25T05:18:31.375Z",
      "donor": {
        "name": "Ramiro Lueilwitz"
      },
      "method": {
        "type": "phone_bill",
        "card": {
          "brand": "visa"
        }
      },
      "value": "51496",
      "currency": "BRL"
    },
    {
      "id": "9f2def88-a707-40ff-9278-a4d8277460a1",
      "status": "pending",
      "date": "2019-07-25T14:57:49.979Z",
      "donor": {
        "name": "Frederique Mayert DDS"
      },
      "method": {
        "type": "phone_bill",
        "card": {
          "brand": "master"
        }
      },
      "value": "34992",
      "currency": "BRL"
    },
    {
      "id": "22a649a5-4bdb-4159-8744-5293c369a306",
      "status": "sent",
      "date": "2019-07-25T08:44:17.987Z",
      "donor": {
        "name": "Stewart Steuber"
      },
      "method": {
        "type": "phone_bill",
        "card": {
          "brand": "master"
        }
      },
      "value": "69098",
      "currency": "BRL"
    },
    {
      "id": "f3219b69-eefe-4791-aebc-55f6666d1452",
      "status": "expired",
      "date": "2019-07-25T05:12:47.764Z",
      "donor": {
        "name": "Mariela Wisoky"
      },
      "method": {
        "type": "phone_bill",
        "card": {
          "brand": "master"
        }
      },
      "value": "40378",
      "currency": "BRL"
    },
    {
      "id": "27abe9a4-0366-4170-add0-3cfbffae885d",
      "status": "paid",
      "date": "2019-07-25T09:51:29.012Z",
      "donor": {
        "name": "Marcellus Cole IV"
      },
      "method": {
        "type": "payment_slip",
        "card": {
          "brand": "elo"
        }
      },
      "value": "7691",
      "currency": "BRL"
    },
    {
      "id": "b728671c-8e0c-497e-a659-174fbe7dd8a4",
      "status": "soft_bounce",
      "date": "2019-07-25T12:53:00.003Z",
      "donor": {
        "name": "Griffin Simonis"
      },
      "method": {
        "type": "phone_bill",
        "card": {
          "brand": "master"
        }
      },
      "value": "84060",
      "currency": "BRL"
    },
    {
      "id": "3da968b8-0cef-4834-90ab-32e0822f938a",
      "status": "partial_refunded",
      "date": "2019-07-25T07:52:30.277Z",
      "donor": {
        "name": "Julien Roob"
      },
      "method": {
        "type": "phone_bill",
        "card": {
          "brand": "elo"
        }
      },
      "value": "15586",
      "currency": "BRL"
    },
    {
      "id": "2d33ffa0-ed51-4015-8ca5-c58f7945f7f7",
      "status": "error",
      "date": "2019-07-25T06:50:14.562Z",
      "donor": {
        "name": "Armando Kirlin"
      },
      "method": {
        "type": "phone_bill",
        "card": {
          "brand": "master"
        }
      },
      "value": "83170",
      "currency": "BRL"
    },
    {
      "id": "1bf0d08e-db01-4b5b-b698-7732f82f9aef",
      "status": "generated",
      "date": "2019-07-25T07:09:20.000Z",
      "donor": {
        "name": "Jimmie Romaguera"
      },
      "method": {
        "type": "payment_slip",
        "card": {
          "brand": "elo"
        }
      },
      "value": "59274",
      "currency": "BRL"
    },
    {
      "id": "61157fce-583d-4a6f-b03e-971c0a20b0e6",
      "status": "processing",
      "date": "2019-07-25T08:08:43.115Z",
      "donor": {
        "name": "Ressie Gutkowski"
      },
      "method": {
        "type": "payment_slip",
        "card": {
          "brand": "visa"
        }
      },
      "value": "52218",
      "currency": "BRL"
    },
    {
      "id": "3671db59-1a73-491a-a7e1-163ecac4fe59",
      "status": "sent",
      "date": "2019-07-25T06:28:10.106Z",
      "donor": {
        "name": "Miss Allen Hand"
      },
      "method": {
        "type": "phone_bill",
        "card": {
          "brand": "master"
        }
      },
      "value": "21568",
      "currency": "BRL"
    },
    {
      "id": "c3e48b94-2e39-4184-b9ab-353a9d3d196e",
      "status": "expired",
      "date": "2019-07-25T04:02:37.198Z",
      "donor": {
        "name": "Dortha Keeling"
      },
      "method": {
        "type": "credit",
        "card": {
          "brand": "elo"
        }
      },
      "value": "28368",
      "currency": "BRL"
    },
    {
      "id": "7c25dc21-9709-4dd6-84e1-2255e50fa4a9",
      "status": "expired",
      "date": "2019-07-25T14:13:47.946Z",
      "donor": {
        "name": "Kathlyn Cummerata"
      },
      "method": {
        "type": "credit",
        "card": {
          "brand": "visa"
        }
      },
      "value": "57007",
      "currency": "BRL"
    },
    {
      "id": "112c2c42-fc07-417e-a427-43859d0fe8d8",
      "status": "paid",
      "date": "2019-07-25T10:51:28.072Z",
      "donor": {
        "name": "Ms. Cicero Schimmel"
      },
      "method": {
        "type": "payment_slip",
        "card": {
          "brand": "master"
        }
      },
      "value": "10278",
      "currency": "BRL"
    }
  ],
  "general_info": {
    "successful_payments_amount": 7043,
    "hard_bounces_amount": 63,
    "soft_bounces_amount": 52,
    "refunds_amount": 95,
    "total_amount": 7253,
    "chargebacks_count": 1,
    "charges_count": 6554,
    "efectiveness_rate": 97.5
  },
  "total_donations": {
    "_endpoint": "/admin/total_donations",
    "unique_donations_count": 20719,
    "recurring_donations_count": 17000,
    "canceled_donations_count": 3400,
    "paused_donations_count": 2000,
    "total_donations_count": 50000,
    "donations_per_month": {
      "2019/07": {
        "unique_count": 300,
        "recurring_count": 100,
        "canceled_count": 100,
        "paused_count": 100
      },
      "2019/06": {
        "unique_count": 200,
        "recurring_count": 50,
        "canceled_count": 2,
        "paused_count": 1000
      }
    }
  },
  "cohort_data": {
    "donations_per_month": {
      "2019/07": {
        "donations_count": 400,
        "monthly_taxes": {
          "1": 100
        }
      },
      "2019/06": {
        "donations_count": 400,
        "monthly_taxes": {
          "1": 100,
          "2": 89.7
        }
      },
      "2019/05": {
        "donations_count": 400,
        "monthly_taxes": {
          "1": 100,
          "2": 92.6,
          "3": 80
        }
      }
    }
  }
}