{
  "token": {
    "access_token": "05372624d4b5f299dab41b46b4dc0fcc63b1526c124a5b99c3a71e833656245a",
    "token_type": "bearer",
    "expires_in": 7200,
    "refresh_token": "10f0c21adfaf89c81b29e852a8ff26ae9719a9357acb035d9a8b9bf09414910d",
    "created_at": 1560805200,
    "user": {
      "id": 66,
      "name": "Roel Bashirian",
      "email": "Raquel58@gmail.com"
    }
  },
  "monthly_metrics": [
    {
      "files_info": [
        {
          "id": 1,
          "month": 12,
          "total": 467,
          "new": 3,
          "without_return": 6,
          "expired": 0
        },
        {
          "id": 2,
          "month": 11,
          "total": 16,
          "new": 5,
          "without_return": 1,
          "expired": 8
        },
        {
          "id": 3,
          "month": 10,
          "total": 326,
          "new": 6,
          "without_return": 10,
          "expired": 7
        },
        {
          "id": 4,
          "month": 9,
          "total": 639,
          "new": 9,
          "without_return": 1,
          "expired": 0
        },
        {
          "id": 5,
          "month": 8,
          "total": 33,
          "new": 6,
          "without_return": 6,
          "expired": 0
        },
        {
          "id": 6,
          "month": 7,
          "total": 779,
          "new": 3,
          "without_return": 3,
          "expired": 7
        }
      ],
      "meta": {
        "current_page": 1,
        "next_page": 2,
        "page_records": 6,
        "total_records": 6
      }
    },
    {
      "files_info": [
        {
          "id": 1,
          "month": 12,
          "total": 695,
          "new": 3,
          "without_return": 3,
          "expired": 7
        },
        {
          "id": 2,
          "month": 11,
          "total": 806,
          "new": 2,
          "without_return": 8,
          "expired": 2
        },
        {
          "id": 3,
          "month": 10,
          "total": 861,
          "new": 9,
          "without_return": 6,
          "expired": 4
        },
        {
          "id": 4,
          "month": 9,
          "total": 789,
          "new": 9,
          "without_return": 7,
          "expired": 7
        },
        {
          "id": 5,
          "month": 8,
          "total": 267,
          "new": 9,
          "without_return": 3,
          "expired": 7
        },
        {
          "id": 6,
          "month": 7,
          "total": 700,
          "new": 5,
          "without_return": 1,
          "expired": 3
        }
      ],
      "meta": {
        "current_page": 2,
        "next_page": 3,
        "page_records": 6,
        "total_records": 6
      }
    },
    {
      "files_info": [
        {
          "id": 1,
          "month": 12,
          "total": 892,
          "new": 10,
          "without_return": 5,
          "expired": 5
        },
        {
          "id": 2,
          "month": 11,
          "total": 257,
          "new": 5,
          "without_return": 6,
          "expired": 0
        },
        {
          "id": 3,
          "month": 10,
          "total": 31,
          "new": 8,
          "without_return": 6,
          "expired": 5
        },
        {
          "id": 4,
          "month": 9,
          "total": 27,
          "new": 10,
          "without_return": 9,
          "expired": 5
        },
        {
          "id": 5,
          "month": 8,
          "total": 109,
          "new": 10,
          "without_return": 7,
          "expired": 6
        },
        {
          "id": 6,
          "month": 7,
          "total": 891,
          "new": 6,
          "without_return": 0,
          "expired": 5
        }
      ],
      "meta": {
        "current_page": 3,
        "next_page": 4,
        "page_records": 6,
        "total_records": 6
      }
    },
    {
      "files_info": [
        {
          "id": 1,
          "month": 12,
          "total": 851,
          "new": 4,
          "without_return": 9,
          "expired": 4
        },
        {
          "id": 2,
          "month": 11,
          "total": 784,
          "new": 3,
          "without_return": 1,
          "expired": 8
        },
        {
          "id": 3,
          "month": 10,
          "total": 428,
          "new": 0,
          "without_return": 9,
          "expired": 8
        },
        {
          "id": 4,
          "month": 9,
          "total": 833,
          "new": 1,
          "without_return": 10,
          "expired": 7
        },
        {
          "id": 5,
          "month": 8,
          "total": 61,
          "new": 3,
          "without_return": 9,
          "expired": 8
        },
        {
          "id": 6,
          "month": 7,
          "total": 651,
          "new": 6,
          "without_return": 5,
          "expired": 8
        }
      ],
      "meta": {
        "current_page": 4,
        "next_page": 5,
        "page_records": 6,
        "total_records": 6
      }
    },
    {
      "files_info": [
        {
          "id": 1,
          "month": 12,
          "total": 168,
          "new": 1,
          "without_return": 3,
          "expired": 8
        },
        {
          "id": 2,
          "month": 11,
          "total": 17,
          "new": 2,
          "without_return": 9,
          "expired": 4
        },
        {
          "id": 3,
          "month": 10,
          "total": 570,
          "new": 6,
          "without_return": 7,
          "expired": 2
        },
        {
          "id": 4,
          "month": 9,
          "total": 648,
          "new": 6,
          "without_return": 3,
          "expired": 10
        },
        {
          "id": 5,
          "month": 8,
          "total": 248,
          "new": 10,
          "without_return": 3,
          "expired": 3
        },
        {
          "id": 6,
          "month": 7,
          "total": 123,
          "new": 9,
          "without_return": 9,
          "expired": 5
        }
      ],
      "meta": {
        "current_page": 5,
        "next_page": 6,
        "page_records": 6,
        "total_records": 6
      }
    },
    {
      "files_info": [
        {
          "id": 1,
          "month": 12,
          "total": 377,
          "new": 6,
          "without_return": 3,
          "expired": 4
        },
        {
          "id": 2,
          "month": 11,
          "total": 517,
          "new": 10,
          "without_return": 7,
          "expired": 5
        },
        {
          "id": 3,
          "month": 10,
          "total": 145,
          "new": 9,
          "without_return": 6,
          "expired": 10
        },
        {
          "id": 4,
          "month": 9,
          "total": 358,
          "new": 6,
          "without_return": 7,
          "expired": 4
        },
        {
          "id": 5,
          "month": 8,
          "total": 892,
          "new": 8,
          "without_return": 10,
          "expired": 10
        },
        {
          "id": 6,
          "month": 7,
          "total": 774,
          "new": 10,
          "without_return": 7,
          "expired": 4
        }
      ],
      "meta": {
        "current_page": 6,
        "next_page": 6,
        "page_records": 6,
        "total_records": 6
      }
    }
  ],
  "bank_files": {
    "type": "debit",
    "files": [
      {
        "id": 1,
        "status": "pending",
        "bank": "Itaú",
        "amount": 53,
        "max_date_to_send": "2019-07-31T17:38:35.147Z",
        "expires_in": "2019-07-10T03:19:37.203Z"
      },
      {
        "id": 2,
        "status": "sent",
        "bank": "Santander",
        "amount": 73,
        "max_date_to_send": "2019-07-13T18:40:08.299Z",
        "expires_in": "2019-07-06T17:14:33.825Z"
      },
      {
        "id": 3,
        "status": "generated",
        "bank": "Itaú",
        "amount": 53,
        "max_date_to_send": "2019-07-23T20:41:08.136Z",
        "expires_in": "2019-07-25T20:21:05.132Z"
      },
      {
        "id": 4,
        "status": "refunded",
        "bank": "Itaú",
        "amount": 6,
        "max_date_to_send": "2019-07-17T03:37:24.931Z",
        "expires_in": "2019-07-09T19:05:12.323Z"
      },
      {
        "id": 5,
        "status": "refunded",
        "bank": "Itaú",
        "amount": 37,
        "max_date_to_send": "2019-07-07T11:47:39.667Z",
        "expires_in": "2019-07-22T05:17:58.444Z"
      },
      {
        "id": 6,
        "status": "paid",
        "bank": "Caixa Econômica",
        "amount": 12,
        "max_date_to_send": "2019-07-08T16:51:03.370Z",
        "expires_in": "2019-07-07T18:10:32.288Z"
      },
      {
        "id": 7,
        "status": "paid",
        "bank": "Caixa Econômica",
        "amount": 100,
        "max_date_to_send": "2019-07-04T04:39:24.315Z",
        "expires_in": "2019-07-06T06:56:14.353Z"
      },
      {
        "id": 8,
        "status": "processing",
        "bank": "Caixa Econômica",
        "amount": 95,
        "max_date_to_send": "2019-07-31T06:41:31.250Z",
        "expires_in": "2019-07-25T15:35:59.005Z"
      },
      {
        "id": 9,
        "status": "soft_bounce",
        "bank": "Bradesco",
        "amount": 39,
        "max_date_to_send": "2019-07-30T18:01:23.200Z",
        "expires_in": "2019-07-27T05:25:06.144Z"
      },
      {
        "id": 10,
        "status": "paid",
        "bank": "Banco do Brasil",
        "amount": 1,
        "max_date_to_send": "2019-07-13T09:36:44.399Z",
        "expires_in": "2019-07-26T11:09:48.329Z"
      },
      {
        "id": 11,
        "status": "expired",
        "bank": "Bradesco",
        "amount": 93,
        "max_date_to_send": "2019-07-01T05:32:30.941Z",
        "expires_in": "2019-07-17T07:45:17.302Z"
      },
      {
        "id": 12,
        "status": "partial_refunded",
        "bank": "Bradesco",
        "amount": 32,
        "max_date_to_send": "2019-07-05T05:19:26.990Z",
        "expires_in": "2019-07-13T19:59:48.739Z"
      },
      {
        "id": 13,
        "status": "expired",
        "bank": "Caixa Econômica",
        "amount": 88,
        "max_date_to_send": "2019-07-31T06:39:53.337Z",
        "expires_in": "2019-07-15T07:56:15.840Z"
      },
      {
        "id": 14,
        "status": "refunded",
        "bank": "Itaú",
        "amount": 89,
        "max_date_to_send": "2019-07-07T16:29:51.434Z",
        "expires_in": "2019-07-18T21:54:01.594Z"
      },
      {
        "id": 15,
        "status": "refunded",
        "bank": "Caixa Econômica",
        "amount": 19,
        "max_date_to_send": "2019-07-09T05:58:45.856Z",
        "expires_in": "2019-07-09T07:53:22.503Z"
      },
      {
        "id": 16,
        "status": "generated",
        "bank": "Itaú",
        "amount": 6,
        "max_date_to_send": "2019-07-20T22:00:25.453Z",
        "expires_in": "2019-07-13T11:27:48.899Z"
      },
      {
        "id": 17,
        "status": "paid",
        "bank": "Itaú",
        "amount": 97,
        "max_date_to_send": "2019-07-22T10:37:38.920Z",
        "expires_in": "2019-07-28T12:10:35.244Z"
      },
      {
        "id": 18,
        "status": "expired",
        "bank": "Banco do Brasil",
        "amount": 53,
        "max_date_to_send": "2019-07-08T20:17:20.565Z",
        "expires_in": "2019-07-18T08:44:19.146Z"
      },
      {
        "id": 19,
        "status": "processing",
        "bank": "Santander",
        "amount": 53,
        "max_date_to_send": "2019-07-11T10:52:54.635Z",
        "expires_in": "2019-07-24T13:46:59.646Z"
      },
      {
        "id": 20,
        "status": "sent",
        "bank": "Banco do Brasil",
        "amount": 73,
        "max_date_to_send": "2019-07-09T16:58:07.628Z",
        "expires_in": "2019-07-24T19:57:07.510Z"
      },
      {
        "id": 21,
        "status": "partial_refunded",
        "bank": "Banco do Brasil",
        "amount": 38,
        "max_date_to_send": "2019-07-12T17:06:04.099Z",
        "expires_in": "2019-07-05T15:18:46.090Z"
      },
      {
        "id": 22,
        "status": "sent",
        "bank": "Itaú",
        "amount": 36,
        "max_date_to_send": "2019-07-20T12:19:27.500Z",
        "expires_in": "2019-07-30T02:00:50.591Z"
      },
      {
        "id": 23,
        "status": "sent",
        "bank": "Santander",
        "amount": 47,
        "max_date_to_send": "2019-07-12T23:39:06.190Z",
        "expires_in": "2019-07-14T03:52:21.452Z"
      },
      {
        "id": 24,
        "status": "paid",
        "bank": "Banco do Brasil",
        "amount": 89,
        "max_date_to_send": "2019-07-26T00:10:04.878Z",
        "expires_in": "2019-07-23T09:01:19.461Z"
      },
      {
        "id": 25,
        "status": "soft_bounce",
        "bank": "Caixa Econômica",
        "amount": 58,
        "max_date_to_send": "2019-07-19T14:16:48.902Z",
        "expires_in": "2019-07-19T13:45:26.018Z"
      },
      {
        "id": 26,
        "status": "refunded",
        "bank": "Itaú",
        "amount": 16,
        "max_date_to_send": "2019-07-30T17:32:57.661Z",
        "expires_in": "2019-07-04T21:15:16.497Z"
      },
      {
        "id": 27,
        "status": "error",
        "bank": "Bradesco",
        "amount": 33,
        "max_date_to_send": "2019-07-20T08:47:30.053Z",
        "expires_in": "2019-07-16T05:27:56.237Z"
      },
      {
        "id": 28,
        "status": "generated",
        "bank": "Santander",
        "amount": 15,
        "max_date_to_send": "2019-07-29T07:12:53.054Z",
        "expires_in": "2019-07-01T16:14:15.549Z"
      },
      {
        "id": 29,
        "status": "partial_refunded",
        "bank": "Banco do Brasil",
        "amount": 46,
        "max_date_to_send": "2019-07-14T04:32:44.578Z",
        "expires_in": "2019-07-23T20:51:53.973Z"
      },
      {
        "id": 30,
        "status": "sent",
        "bank": "Itaú",
        "amount": 15,
        "max_date_to_send": "2019-07-18T20:32:35.484Z",
        "expires_in": "2019-07-29T13:53:28.899Z"
      },
      {
        "id": 31,
        "status": "sent",
        "bank": "Itaú",
        "amount": 7,
        "max_date_to_send": "2019-07-21T21:01:45.811Z",
        "expires_in": "2019-07-19T14:29:52.512Z"
      },
      {
        "id": 32,
        "status": "refunded",
        "bank": "Caixa Econômica",
        "amount": 76,
        "max_date_to_send": "2019-07-04T18:05:57.954Z",
        "expires_in": "2019-07-28T00:45:45.404Z"
      },
      {
        "id": 33,
        "status": "pending",
        "bank": "Santander",
        "amount": 17,
        "max_date_to_send": "2019-07-11T18:57:30.952Z",
        "expires_in": "2019-07-28T16:11:00.980Z"
      },
      {
        "id": 34,
        "status": "processing",
        "bank": "Banco do Brasil",
        "amount": 17,
        "max_date_to_send": "2019-07-31T15:45:00.989Z",
        "expires_in": "2019-07-15T15:53:57.027Z"
      },
      {
        "id": 35,
        "status": "hard_bounce",
        "bank": "Santander",
        "amount": 69,
        "max_date_to_send": "2019-07-05T10:24:40.643Z",
        "expires_in": "2019-07-21T07:13:25.097Z"
      },
      {
        "id": 36,
        "status": "paid",
        "bank": "Caixa Econômica",
        "amount": 82,
        "max_date_to_send": "2019-07-18T14:07:58.758Z",
        "expires_in": "2019-07-27T22:28:13.904Z"
      },
      {
        "id": 37,
        "status": "expired",
        "bank": "Banco do Brasil",
        "amount": 13,
        "max_date_to_send": "2019-07-21T11:17:46.232Z",
        "expires_in": "2019-07-11T18:20:44.072Z"
      },
      {
        "id": 38,
        "status": "paid",
        "bank": "Bradesco",
        "amount": 9,
        "max_date_to_send": "2019-07-05T16:56:46.369Z",
        "expires_in": "2019-07-21T13:36:18.222Z"
      },
      {
        "id": 39,
        "status": "hard_bounce",
        "bank": "Bradesco",
        "amount": 56,
        "max_date_to_send": "2019-07-19T06:50:28.801Z",
        "expires_in": "2019-07-26T06:35:58.625Z"
      },
      {
        "id": 40,
        "status": "error",
        "bank": "Santander",
        "amount": 6,
        "max_date_to_send": "2019-07-16T02:51:16.705Z",
        "expires_in": "2019-07-17T09:13:52.814Z"
      },
      {
        "id": 41,
        "status": "partial_refunded",
        "bank": "Itaú",
        "amount": 73,
        "max_date_to_send": "2019-07-10T04:47:55.535Z",
        "expires_in": "2019-07-12T21:43:01.961Z"
      },
      {
        "id": 42,
        "status": "paid",
        "bank": "Santander",
        "amount": 25,
        "max_date_to_send": "2019-07-27T15:45:59.643Z",
        "expires_in": "2019-07-27T16:38:52.017Z"
      },
      {
        "id": 43,
        "status": "error",
        "bank": "Banco do Brasil",
        "amount": 15,
        "max_date_to_send": "2019-07-03T13:23:21.746Z",
        "expires_in": "2019-07-31T22:51:55.688Z"
      },
      {
        "id": 44,
        "status": "refunded",
        "bank": "Banco do Brasil",
        "amount": 88,
        "max_date_to_send": "2019-07-28T16:40:26.675Z",
        "expires_in": "2019-07-05T16:54:22.480Z"
      },
      {
        "id": 45,
        "status": "processing",
        "bank": "Itaú",
        "amount": 91,
        "max_date_to_send": "2019-07-20T03:26:55.846Z",
        "expires_in": "2019-07-08T01:06:57.321Z"
      },
      {
        "id": 46,
        "status": "sent",
        "bank": "Bradesco",
        "amount": 14,
        "max_date_to_send": "2019-07-09T07:43:12.524Z",
        "expires_in": "2019-07-09T21:04:35.606Z"
      },
      {
        "id": 47,
        "status": "hard_bounce",
        "bank": "Itaú",
        "amount": 34,
        "max_date_to_send": "2019-07-16T20:07:15.218Z",
        "expires_in": "2019-07-02T18:52:38.842Z"
      },
      {
        "id": 48,
        "status": "refunded",
        "bank": "Banco do Brasil",
        "amount": 70,
        "max_date_to_send": "2019-07-05T19:36:55.921Z",
        "expires_in": "2019-07-08T23:20:12.525Z"
      },
      {
        "id": 49,
        "status": "hard_bounce",
        "bank": "Bradesco",
        "amount": 41,
        "max_date_to_send": "2019-07-23T21:30:57.202Z",
        "expires_in": "2019-07-14T05:28:18.467Z"
      },
      {
        "id": 50,
        "status": "generated",
        "bank": "Caixa Econômica",
        "amount": 84,
        "max_date_to_send": "2019-07-19T07:47:33.597Z",
        "expires_in": "2019-07-15T05:00:54.983Z"
      }
    ]
  },
  "generate_bank_file": {
    "url": "https://emmitt.biz"
  },
  "import_bank_file": {
    "status": "success"
  },
  "payments": [
    {
      "id": "256c033d-8abc-4ea5-85cf-70cc1220ede3",
      "status": "processing",
      "date": "2019-07-22T22:44:36.858Z",
      "donor": {
        "name": "Keanu Barrows"
      },
      "method": {
        "type": "payment_slip",
        "card": {
          "brand": "visa"
        }
      },
      "value": "4726",
      "currency": "BRL"
    },
    {
      "id": "66d31ce3-a6f0-436e-a35e-101d2f1919f8",
      "status": "hard_bounce",
      "date": "2019-07-23T02:38:13.121Z",
      "donor": {
        "name": "Stella Purdy I"
      },
      "method": {
        "type": "payment_slip",
        "card": {
          "brand": "visa"
        }
      },
      "value": "59432",
      "currency": "BRL"
    },
    {
      "id": "a861efec-d130-41de-b781-413cef3d3c4e",
      "status": "refunded",
      "date": "2019-07-23T01:05:46.162Z",
      "donor": {
        "name": "Alanna Rempel"
      },
      "method": {
        "type": "payment_slip",
        "card": {
          "brand": "elo"
        }
      },
      "value": "78003",
      "currency": "BRL"
    },
    {
      "id": "1c697202-e6c3-4f14-930b-39ee312103ef",
      "status": "sent",
      "date": "2019-07-23T01:28:58.153Z",
      "donor": {
        "name": "Miss Vernie Gibson"
      },
      "method": {
        "type": "phone_bill",
        "card": {
          "brand": "elo"
        }
      },
      "value": "25622",
      "currency": "BRL"
    },
    {
      "id": "a5bc7b6f-f2ff-440c-a01e-6b3e9a75ae74",
      "status": "hard_bounce",
      "date": "2019-07-23T20:22:15.201Z",
      "donor": {
        "name": "Amaya Lesch"
      },
      "method": {
        "type": "payment_slip",
        "card": {
          "brand": "elo"
        }
      },
      "value": "9618",
      "currency": "BRL"
    },
    {
      "id": "2750a0b5-bc50-4a30-9268-06f09543d59f",
      "status": "expired",
      "date": "2019-07-23T20:49:00.886Z",
      "donor": {
        "name": "Mr. Judy Crona"
      },
      "method": {
        "type": "debit",
        "card": {
          "brand": "elo"
        }
      },
      "value": "30324",
      "currency": "BRL"
    },
    {
      "id": "92049baa-e757-4aff-8f50-8a40288f0982",
      "status": "pending",
      "date": "2019-07-23T04:06:18.735Z",
      "donor": {
        "name": "Kayla Howe"
      },
      "method": {
        "type": "credit",
        "card": {
          "brand": "master"
        }
      },
      "value": "54144",
      "currency": "BRL"
    },
    {
      "id": "175b880e-8462-4ac7-a056-8c8f37f2aefd",
      "status": "expired",
      "date": "2019-07-23T20:42:31.107Z",
      "donor": {
        "name": "Mrs. Leonardo Hauck"
      },
      "method": {
        "type": "credit",
        "card": {
          "brand": "master"
        }
      },
      "value": "24525",
      "currency": "BRL"
    },
    {
      "id": "eafc2c83-c152-4f93-860a-4fdf81fc6863",
      "status": "sent",
      "date": "2019-07-23T04:39:30.962Z",
      "donor": {
        "name": "Amara Bailey"
      },
      "method": {
        "type": "debit",
        "card": {
          "brand": "master"
        }
      },
      "value": "30008",
      "currency": "BRL"
    },
    {
      "id": "34b843ba-168a-4b84-acb3-58d01cbbe2a4",
      "status": "expired",
      "date": "2019-07-23T00:25:50.966Z",
      "donor": {
        "name": "Karlie Runolfsson"
      },
      "method": {
        "type": "debit",
        "card": {
          "brand": "visa"
        }
      },
      "value": "33058",
      "currency": "BRL"
    },
    {
      "id": "7357ff11-e066-4759-89da-41e386b87f64",
      "status": "pending",
      "date": "2019-07-23T05:06:36.182Z",
      "donor": {
        "name": "Sydni Leffler"
      },
      "method": {
        "type": "phone_bill",
        "card": {
          "brand": "elo"
        }
      },
      "value": "94888",
      "currency": "BRL"
    },
    {
      "id": "9281f18e-8e1f-418d-90ac-a2b56cbb9fdb",
      "status": "refunded",
      "date": "2019-07-23T12:08:19.095Z",
      "donor": {
        "name": "Carol Huels"
      },
      "method": {
        "type": "debit",
        "card": {
          "brand": "elo"
        }
      },
      "value": "4507",
      "currency": "BRL"
    },
    {
      "id": "30ad7697-9dd6-4093-b631-572a396f40e5",
      "status": "paid",
      "date": "2019-07-23T02:03:50.347Z",
      "donor": {
        "name": "Avery Murray"
      },
      "method": {
        "type": "phone_bill",
        "card": {
          "brand": "master"
        }
      },
      "value": "6819",
      "currency": "BRL"
    },
    {
      "id": "6e3cd422-ffa6-401a-a93f-79554f039cfb",
      "status": "generated",
      "date": "2019-07-23T14:20:48.233Z",
      "donor": {
        "name": "Mohammad Swaniawski"
      },
      "method": {
        "type": "phone_bill",
        "card": {
          "brand": "elo"
        }
      },
      "value": "86538",
      "currency": "BRL"
    },
    {
      "id": "5ec67233-67ba-49a5-ad36-5f7518d3d94f",
      "status": "pending",
      "date": "2019-07-23T12:21:27.950Z",
      "donor": {
        "name": "Elbert Torp"
      },
      "method": {
        "type": "payment_slip",
        "card": {
          "brand": "master"
        }
      },
      "value": "21346",
      "currency": "BRL"
    },
    {
      "id": "f0abe09e-2149-44d2-9bec-4b0324be331c",
      "status": "sent",
      "date": "2019-07-23T14:06:48.211Z",
      "donor": {
        "name": "Dr. Ariane Stark"
      },
      "method": {
        "type": "payment_slip",
        "card": {
          "brand": "visa"
        }
      },
      "value": "55465",
      "currency": "BRL"
    },
    {
      "id": "ffbe9ecc-287c-484e-b68c-7806b2e4bd64",
      "status": "error",
      "date": "2019-07-23T06:53:28.437Z",
      "donor": {
        "name": "Loma Auer"
      },
      "method": {
        "type": "debit",
        "card": {
          "brand": "visa"
        }
      },
      "value": "97689",
      "currency": "BRL"
    },
    {
      "id": "b21d60fb-6112-43af-a12b-7ff35c228910",
      "status": "generated",
      "date": "2019-07-23T13:50:35.260Z",
      "donor": {
        "name": "Alessandra Dibbert"
      },
      "method": {
        "type": "payment_slip",
        "card": {
          "brand": "master"
        }
      },
      "value": "76906",
      "currency": "BRL"
    },
    {
      "id": "5d149972-219c-4e74-8cd9-351971ae1577",
      "status": "processing",
      "date": "2019-07-23T07:19:23.808Z",
      "donor": {
        "name": "Sammy Schneider"
      },
      "method": {
        "type": "payment_slip",
        "card": {
          "brand": "elo"
        }
      },
      "value": "82851",
      "currency": "BRL"
    },
    {
      "id": "6ac40078-74ad-4484-8801-bb5c8e064029",
      "status": "hard_bounce",
      "date": "2019-07-23T14:32:40.633Z",
      "donor": {
        "name": "Muriel Barrows"
      },
      "method": {
        "type": "debit",
        "card": {
          "brand": "visa"
        }
      },
      "value": "80590",
      "currency": "BRL"
    }
  ],
  "general_info": {
    "_endpoint": "/admin/general_info",
    "successful_payments_count": 1141592,
    "hard_bounces_count": 34425,
    "soft_bounces_count": 5504,
    "refunds_count": 12,
    "chargebacks_count": 0,
    "charges_count": 40000,
    "efectiveness_rate": 97.5
  },
  "total_donations": {
    "_endpoint": "/admin/total_donations",
    "unique_donations_count": 20719,
    "recurring_donations_count": 17000,
    "canceled_donations_count": 3400,
    "paused_donations_count": 2000,
    "total_donations_count": 50000,
    "donations_per_month": {
      "2019/07": {
        "unique_count": 300,
        "recurring_count": 100,
        "canceled_count": 100,
        "paused_count": 100
      },
      "2019/06": {
        "unique_count": 200,
        "recurring_count": 50,
        "canceled_count": 2,
        "paused_count": 1000
      }
    }
  },
  "cohort_data": {
    "_endpoint": "/admin/cohort_data",
    "donations_per_month": {
      "2019/07": {
        "donations_count": 400,
        "monthly_taxes": {
          "1": 100
        }
      },
      "2019/06": {
        "donations_count": 400,
        "monthly_taxes": {
          "1": 100,
          "2": 89.7
        }
      },
      "2019/05": {
        "donations_count": 400,
        "monthly_taxes": {
          "1": 100,
          "2": 92.6,
          "3": 80
        }
      }
    }
  }
}