{
  "token": {
    "access_token": "05372624d4b5f299dab41b46b4dc0fcc63b1526c124a5b99c3a71e833656245a",
    "token_type": "bearer",
    "expires_in": 7200,
    "refresh_token": "10f0c21adfaf89c81b29e852a8ff26ae9719a9357acb035d9a8b9bf09414910d",
    "created_at": 1560805200,
    "user": {
      "id": 78,
      "name": "Mrs. Danyka Kemmer",
      "email": "Rosie.Cruickshank52@gmail.com"
    }
  },
  "monthly_metrics": [
    {
      "files_info": [
        {
          "id": 1,
          "month": 12,
          "total": 473,
          "new": 2,
          "without_return": 5,
          "expired": 0
        },
        {
          "id": 2,
          "month": 11,
          "total": 877,
          "new": 5,
          "without_return": 8,
          "expired": 2
        },
        {
          "id": 3,
          "month": 10,
          "total": 396,
          "new": 6,
          "without_return": 10,
          "expired": 4
        },
        {
          "id": 4,
          "month": 9,
          "total": 162,
          "new": 3,
          "without_return": 2,
          "expired": 4
        },
        {
          "id": 5,
          "month": 8,
          "total": 354,
          "new": 9,
          "without_return": 10,
          "expired": 7
        },
        {
          "id": 6,
          "month": 7,
          "total": 448,
          "new": 9,
          "without_return": 0,
          "expired": 1
        }
      ],
      "meta": {
        "current_page": 1,
        "next_page": 2,
        "page_records": 6,
        "total_records": 6
      }
    },
    {
      "files_info": [
        {
          "id": 1,
          "month": 12,
          "total": 76,
          "new": 4,
          "without_return": 4,
          "expired": 1
        },
        {
          "id": 2,
          "month": 11,
          "total": 35,
          "new": 6,
          "without_return": 1,
          "expired": 6
        },
        {
          "id": 3,
          "month": 10,
          "total": 447,
          "new": 1,
          "without_return": 10,
          "expired": 4
        },
        {
          "id": 4,
          "month": 9,
          "total": 675,
          "new": 8,
          "without_return": 8,
          "expired": 10
        },
        {
          "id": 5,
          "month": 8,
          "total": 340,
          "new": 5,
          "without_return": 1,
          "expired": 10
        },
        {
          "id": 6,
          "month": 7,
          "total": 426,
          "new": 3,
          "without_return": 0,
          "expired": 7
        }
      ],
      "meta": {
        "current_page": 2,
        "next_page": 3,
        "page_records": 6,
        "total_records": 6
      }
    },
    {
      "files_info": [
        {
          "id": 1,
          "month": 12,
          "total": 548,
          "new": 3,
          "without_return": 0,
          "expired": 7
        },
        {
          "id": 2,
          "month": 11,
          "total": 76,
          "new": 10,
          "without_return": 1,
          "expired": 2
        },
        {
          "id": 3,
          "month": 10,
          "total": 867,
          "new": 2,
          "without_return": 7,
          "expired": 9
        },
        {
          "id": 4,
          "month": 9,
          "total": 259,
          "new": 2,
          "without_return": 1,
          "expired": 5
        },
        {
          "id": 5,
          "month": 8,
          "total": 333,
          "new": 5,
          "without_return": 2,
          "expired": 6
        },
        {
          "id": 6,
          "month": 7,
          "total": 552,
          "new": 10,
          "without_return": 5,
          "expired": 3
        }
      ],
      "meta": {
        "current_page": 3,
        "next_page": 4,
        "page_records": 6,
        "total_records": 6
      }
    },
    {
      "files_info": [
        {
          "id": 1,
          "month": 12,
          "total": 95,
          "new": 10,
          "without_return": 8,
          "expired": 3
        },
        {
          "id": 2,
          "month": 11,
          "total": 769,
          "new": 8,
          "without_return": 4,
          "expired": 1
        },
        {
          "id": 3,
          "month": 10,
          "total": 745,
          "new": 3,
          "without_return": 8,
          "expired": 10
        },
        {
          "id": 4,
          "month": 9,
          "total": 625,
          "new": 2,
          "without_return": 9,
          "expired": 3
        },
        {
          "id": 5,
          "month": 8,
          "total": 552,
          "new": 10,
          "without_return": 6,
          "expired": 4
        },
        {
          "id": 6,
          "month": 7,
          "total": 873,
          "new": 7,
          "without_return": 6,
          "expired": 7
        }
      ],
      "meta": {
        "current_page": 4,
        "next_page": 5,
        "page_records": 6,
        "total_records": 6
      }
    },
    {
      "files_info": [
        {
          "id": 1,
          "month": 12,
          "total": 72,
          "new": 8,
          "without_return": 1,
          "expired": 0
        },
        {
          "id": 2,
          "month": 11,
          "total": 217,
          "new": 5,
          "without_return": 3,
          "expired": 10
        },
        {
          "id": 3,
          "month": 10,
          "total": 318,
          "new": 6,
          "without_return": 0,
          "expired": 6
        },
        {
          "id": 4,
          "month": 9,
          "total": 525,
          "new": 7,
          "without_return": 9,
          "expired": 0
        },
        {
          "id": 5,
          "month": 8,
          "total": 180,
          "new": 3,
          "without_return": 6,
          "expired": 10
        },
        {
          "id": 6,
          "month": 7,
          "total": 45,
          "new": 5,
          "without_return": 3,
          "expired": 5
        }
      ],
      "meta": {
        "current_page": 5,
        "next_page": 6,
        "page_records": 6,
        "total_records": 6
      }
    },
    {
      "files_info": [
        {
          "id": 1,
          "month": 12,
          "total": 776,
          "new": 5,
          "without_return": 5,
          "expired": 6
        },
        {
          "id": 2,
          "month": 11,
          "total": 889,
          "new": 4,
          "without_return": 6,
          "expired": 1
        },
        {
          "id": 3,
          "month": 10,
          "total": 682,
          "new": 6,
          "without_return": 5,
          "expired": 10
        },
        {
          "id": 4,
          "month": 9,
          "total": 263,
          "new": 10,
          "without_return": 6,
          "expired": 2
        },
        {
          "id": 5,
          "month": 8,
          "total": 495,
          "new": 3,
          "without_return": 4,
          "expired": 7
        },
        {
          "id": 6,
          "month": 7,
          "total": 225,
          "new": 2,
          "without_return": 3,
          "expired": 3
        }
      ],
      "meta": {
        "current_page": 6,
        "next_page": 6,
        "page_records": 6,
        "total_records": 6
      }
    }
  ],
  "bank_files": {
    "type": "debit",
    "files": [
      {
        "id": 1,
        "status": "sent",
        "bank": "Caixa Econômica",
        "amount": 55,
        "max_date_to_send": "2019-07-31T19:25:13.935Z",
        "expires_in": "2019-07-25T16:59:19.760Z"
      },
      {
        "id": 2,
        "status": "pending",
        "bank": "Banco do Brasil",
        "amount": 38,
        "max_date_to_send": "2019-07-01T05:01:23.810Z",
        "expires_in": "2019-07-30T08:10:26.959Z"
      },
      {
        "id": 3,
        "status": "sent",
        "bank": "Bradesco",
        "amount": 15,
        "max_date_to_send": "2019-07-29T12:14:54.933Z",
        "expires_in": "2019-07-05T03:59:12.560Z"
      },
      {
        "id": 4,
        "status": "soft_bounce",
        "bank": "Banco do Brasil",
        "amount": 84,
        "max_date_to_send": "2019-07-15T16:14:58.862Z",
        "expires_in": "2019-07-23T09:59:40.439Z"
      },
      {
        "id": 5,
        "status": "pending",
        "bank": "Banco do Brasil",
        "amount": 28,
        "max_date_to_send": "2019-07-19T06:59:18.300Z",
        "expires_in": "2019-07-05T21:30:26.802Z"
      },
      {
        "id": 6,
        "status": "hard_bounce",
        "bank": "Caixa Econômica",
        "amount": 11,
        "max_date_to_send": "2019-07-09T18:32:24.369Z",
        "expires_in": "2019-07-06T02:55:08.802Z"
      },
      {
        "id": 7,
        "status": "pending",
        "bank": "Caixa Econômica",
        "amount": 1,
        "max_date_to_send": "2019-07-06T08:12:18.498Z",
        "expires_in": "2019-07-08T00:21:52.210Z"
      },
      {
        "id": 8,
        "status": "error",
        "bank": "Caixa Econômica",
        "amount": 62,
        "max_date_to_send": "2019-07-23T00:34:23.399Z",
        "expires_in": "2019-07-10T12:50:57.522Z"
      },
      {
        "id": 9,
        "status": "sent",
        "bank": "Itaú",
        "amount": 4,
        "max_date_to_send": "2019-07-16T08:32:10.438Z",
        "expires_in": "2019-07-28T02:40:31.219Z"
      },
      {
        "id": 10,
        "status": "hard_bounce",
        "bank": "Banco do Brasil",
        "amount": 65,
        "max_date_to_send": "2019-07-30T10:25:25.567Z",
        "expires_in": "2019-07-26T07:14:37.858Z"
      },
      {
        "id": 11,
        "status": "partial_refunded",
        "bank": "Bradesco",
        "amount": 61,
        "max_date_to_send": "2019-07-13T22:33:11.447Z",
        "expires_in": "2019-07-19T22:52:12.369Z"
      },
      {
        "id": 12,
        "status": "soft_bounce",
        "bank": "Bradesco",
        "amount": 59,
        "max_date_to_send": "2019-07-21T13:02:58.909Z",
        "expires_in": "2019-07-10T04:42:27.600Z"
      },
      {
        "id": 13,
        "status": "sent",
        "bank": "Caixa Econômica",
        "amount": 36,
        "max_date_to_send": "2019-07-18T13:17:13.287Z",
        "expires_in": "2019-07-20T19:21:27.884Z"
      },
      {
        "id": 14,
        "status": "sent",
        "bank": "Banco do Brasil",
        "amount": 61,
        "max_date_to_send": "2019-07-05T03:26:55.459Z",
        "expires_in": "2019-07-21T14:44:50.488Z"
      },
      {
        "id": 15,
        "status": "refunded",
        "bank": "Banco do Brasil",
        "amount": 57,
        "max_date_to_send": "2019-07-23T01:12:06.875Z",
        "expires_in": "2019-07-26T05:54:18.029Z"
      },
      {
        "id": 16,
        "status": "pending",
        "bank": "Bradesco",
        "amount": 25,
        "max_date_to_send": "2019-07-09T02:00:27.451Z",
        "expires_in": "2019-07-15T14:21:55.411Z"
      },
      {
        "id": 17,
        "status": "soft_bounce",
        "bank": "Bradesco",
        "amount": 18,
        "max_date_to_send": "2019-07-27T12:37:55.431Z",
        "expires_in": "2019-07-12T13:16:24.568Z"
      },
      {
        "id": 18,
        "status": "paid",
        "bank": "Caixa Econômica",
        "amount": 7,
        "max_date_to_send": "2019-07-31T03:22:12.524Z",
        "expires_in": "2019-07-06T08:50:13.064Z"
      },
      {
        "id": 19,
        "status": "error",
        "bank": "Bradesco",
        "amount": 50,
        "max_date_to_send": "2019-07-25T23:02:12.688Z",
        "expires_in": "2019-07-22T15:05:34.016Z"
      },
      {
        "id": 20,
        "status": "refunded",
        "bank": "Itaú",
        "amount": 57,
        "max_date_to_send": "2019-07-14T06:12:46.396Z",
        "expires_in": "2019-07-11T02:28:01.471Z"
      },
      {
        "id": 21,
        "status": "error",
        "bank": "Caixa Econômica",
        "amount": 75,
        "max_date_to_send": "2019-07-15T02:49:35.791Z",
        "expires_in": "2019-07-23T06:10:41.307Z"
      },
      {
        "id": 22,
        "status": "error",
        "bank": "Santander",
        "amount": 68,
        "max_date_to_send": "2019-07-17T22:32:03.585Z",
        "expires_in": "2019-07-17T14:42:00.718Z"
      },
      {
        "id": 23,
        "status": "error",
        "bank": "Itaú",
        "amount": 13,
        "max_date_to_send": "2019-07-13T17:20:23.416Z",
        "expires_in": "2019-07-26T02:31:34.122Z"
      },
      {
        "id": 24,
        "status": "expired",
        "bank": "Itaú",
        "amount": 27,
        "max_date_to_send": "2019-07-08T07:56:28.178Z",
        "expires_in": "2019-07-22T10:24:59.966Z"
      },
      {
        "id": 25,
        "status": "hard_bounce",
        "bank": "Bradesco",
        "amount": 61,
        "max_date_to_send": "2019-07-28T01:52:25.165Z",
        "expires_in": "2019-07-14T17:27:07.318Z"
      },
      {
        "id": 26,
        "status": "pending",
        "bank": "Banco do Brasil",
        "amount": 86,
        "max_date_to_send": "2019-07-03T16:52:27.284Z",
        "expires_in": "2019-07-20T19:56:05.002Z"
      },
      {
        "id": 27,
        "status": "error",
        "bank": "Bradesco",
        "amount": 82,
        "max_date_to_send": "2019-07-27T03:52:29.927Z",
        "expires_in": "2019-07-13T18:46:29.381Z"
      },
      {
        "id": 28,
        "status": "processing",
        "bank": "Banco do Brasil",
        "amount": 68,
        "max_date_to_send": "2019-07-21T20:03:32.158Z",
        "expires_in": "2019-07-09T02:18:31.676Z"
      },
      {
        "id": 29,
        "status": "error",
        "bank": "Banco do Brasil",
        "amount": 7,
        "max_date_to_send": "2019-07-18T22:36:05.635Z",
        "expires_in": "2019-07-07T12:31:14.738Z"
      },
      {
        "id": 30,
        "status": "sent",
        "bank": "Santander",
        "amount": 4,
        "max_date_to_send": "2019-07-09T11:33:37.213Z",
        "expires_in": "2019-07-09T12:05:56.705Z"
      },
      {
        "id": 31,
        "status": "generated",
        "bank": "Bradesco",
        "amount": 36,
        "max_date_to_send": "2019-07-25T23:34:47.400Z",
        "expires_in": "2019-07-01T23:08:18.596Z"
      },
      {
        "id": 32,
        "status": "expired",
        "bank": "Bradesco",
        "amount": 51,
        "max_date_to_send": "2019-07-13T18:48:29.177Z",
        "expires_in": "2019-07-15T11:12:04.063Z"
      },
      {
        "id": 33,
        "status": "pending",
        "bank": "Caixa Econômica",
        "amount": 80,
        "max_date_to_send": "2019-07-23T05:00:19.217Z",
        "expires_in": "2019-07-17T18:01:33.444Z"
      },
      {
        "id": 34,
        "status": "sent",
        "bank": "Santander",
        "amount": 53,
        "max_date_to_send": "2019-07-12T18:02:10.124Z",
        "expires_in": "2019-07-01T05:46:18.889Z"
      },
      {
        "id": 35,
        "status": "sent",
        "bank": "Santander",
        "amount": 17,
        "max_date_to_send": "2019-07-11T01:52:37.365Z",
        "expires_in": "2019-07-31T22:00:47.201Z"
      },
      {
        "id": 36,
        "status": "soft_bounce",
        "bank": "Banco do Brasil",
        "amount": 63,
        "max_date_to_send": "2019-07-20T02:03:03.401Z",
        "expires_in": "2019-07-26T08:33:03.972Z"
      },
      {
        "id": 37,
        "status": "sent",
        "bank": "Itaú",
        "amount": 69,
        "max_date_to_send": "2019-07-09T19:35:02.909Z",
        "expires_in": "2019-07-26T15:15:32.120Z"
      },
      {
        "id": 38,
        "status": "generated",
        "bank": "Santander",
        "amount": 92,
        "max_date_to_send": "2019-07-29T07:15:13.774Z",
        "expires_in": "2019-07-30T04:42:18.922Z"
      },
      {
        "id": 39,
        "status": "paid",
        "bank": "Caixa Econômica",
        "amount": 37,
        "max_date_to_send": "2019-07-21T13:11:46.145Z",
        "expires_in": "2019-07-06T19:09:58.168Z"
      },
      {
        "id": 40,
        "status": "soft_bounce",
        "bank": "Caixa Econômica",
        "amount": 8,
        "max_date_to_send": "2019-07-27T13:57:44.817Z",
        "expires_in": "2019-07-24T05:44:02.762Z"
      },
      {
        "id": 41,
        "status": "sent",
        "bank": "Banco do Brasil",
        "amount": 88,
        "max_date_to_send": "2019-07-06T20:54:47.023Z",
        "expires_in": "2019-07-16T15:09:19.654Z"
      },
      {
        "id": 42,
        "status": "paid",
        "bank": "Caixa Econômica",
        "amount": 46,
        "max_date_to_send": "2019-07-08T05:22:14.071Z",
        "expires_in": "2019-07-14T07:05:33.452Z"
      },
      {
        "id": 43,
        "status": "error",
        "bank": "Itaú",
        "amount": 80,
        "max_date_to_send": "2019-07-17T11:31:29.275Z",
        "expires_in": "2019-07-15T03:48:53.811Z"
      },
      {
        "id": 44,
        "status": "sent",
        "bank": "Caixa Econômica",
        "amount": 21,
        "max_date_to_send": "2019-07-01T21:44:48.818Z",
        "expires_in": "2019-07-30T18:55:07.087Z"
      },
      {
        "id": 45,
        "status": "error",
        "bank": "Itaú",
        "amount": 51,
        "max_date_to_send": "2019-07-27T19:23:28.837Z",
        "expires_in": "2019-07-08T01:48:51.196Z"
      },
      {
        "id": 46,
        "status": "paid",
        "bank": "Santander",
        "amount": 22,
        "max_date_to_send": "2019-07-01T02:47:39.328Z",
        "expires_in": "2019-07-06T14:16:36.438Z"
      },
      {
        "id": 47,
        "status": "sent",
        "bank": "Caixa Econômica",
        "amount": 64,
        "max_date_to_send": "2019-07-03T17:49:24.075Z",
        "expires_in": "2019-07-25T00:57:00.708Z"
      },
      {
        "id": 48,
        "status": "hard_bounce",
        "bank": "Itaú",
        "amount": 29,
        "max_date_to_send": "2019-07-07T12:56:11.067Z",
        "expires_in": "2019-07-01T19:41:43.126Z"
      },
      {
        "id": 49,
        "status": "generated",
        "bank": "Caixa Econômica",
        "amount": 26,
        "max_date_to_send": "2019-07-03T20:55:11.297Z",
        "expires_in": "2019-07-24T22:04:12.116Z"
      },
      {
        "id": 50,
        "status": "generated",
        "bank": "Santander",
        "amount": 54,
        "max_date_to_send": "2019-07-30T10:09:20.827Z",
        "expires_in": "2019-07-08T16:32:01.631Z"
      }
    ]
  },
  "generate_bank_file": {
    "url": "http://berry.org"
  },
  "import_bank_file": {
    "status": "success"
  },
  "payments": [
    {
      "id": "d1c4099d-de59-4b31-8b26-c6557aad4415",
      "status": "pending",
      "date": "2019-07-22T21:25:40.492Z",
      "donor": {
        "name": "Kaylin Roob"
      },
      "method": {
        "type": "payment_slip",
        "card": {
          "brand": "elo"
        }
      },
      "value": "46054",
      "currency": "BRL"
    },
    {
      "id": "95910d80-48fc-4679-8305-90136860d536",
      "status": "hard_bounce",
      "date": "2019-07-23T16:36:39.823Z",
      "donor": {
        "name": "Miss Nat Leannon"
      },
      "method": {
        "type": "phone_bill",
        "card": {
          "brand": "visa"
        }
      },
      "value": "55759",
      "currency": "BRL"
    },
    {
      "id": "065384da-b011-4967-995b-fea35504b712",
      "status": "generated",
      "date": "2019-07-23T04:38:18.976Z",
      "donor": {
        "name": "Ted Mitchell"
      },
      "method": {
        "type": "phone_bill",
        "card": {
          "brand": "master"
        }
      },
      "value": "88556",
      "currency": "BRL"
    },
    {
      "id": "3a85ba3c-fe25-473a-a695-6e8f85d89497",
      "status": "processing",
      "date": "2019-07-23T11:35:38.768Z",
      "donor": {
        "name": "Ms. Raven Medhurst"
      },
      "method": {
        "type": "phone_bill",
        "card": {
          "brand": "elo"
        }
      },
      "value": "56218",
      "currency": "BRL"
    },
    {
      "id": "d198b851-6c56-450c-991f-c8515c68c537",
      "status": "partial_refunded",
      "date": "2019-07-23T16:34:20.384Z",
      "donor": {
        "name": "Mr. Nova Berge"
      },
      "method": {
        "type": "debit",
        "card": {
          "brand": "elo"
        }
      },
      "value": "29604",
      "currency": "BRL"
    },
    {
      "id": "0156d518-fb82-489a-a675-6d45d2102746",
      "status": "processing",
      "date": "2019-07-23T07:21:42.997Z",
      "donor": {
        "name": "Christine Fay"
      },
      "method": {
        "type": "credit",
        "card": {
          "brand": "master"
        }
      },
      "value": "96521",
      "currency": "BRL"
    },
    {
      "id": "bc788145-4fcd-472c-b5ca-80094be1a99f",
      "status": "partial_refunded",
      "date": "2019-07-23T16:15:13.465Z",
      "donor": {
        "name": "Samanta Armstrong"
      },
      "method": {
        "type": "payment_slip",
        "card": {
          "brand": "elo"
        }
      },
      "value": "71774",
      "currency": "BRL"
    },
    {
      "id": "7e583041-b7bc-4f45-b37a-86b47ecd8c04",
      "status": "generated",
      "date": "2019-07-23T03:54:26.376Z",
      "donor": {
        "name": "Eleazar Funk"
      },
      "method": {
        "type": "debit",
        "card": {
          "brand": "elo"
        }
      },
      "value": "15450",
      "currency": "BRL"
    },
    {
      "id": "c358d17f-ed81-49a3-8110-9be0ecceb605",
      "status": "hard_bounce",
      "date": "2019-07-23T05:33:02.463Z",
      "donor": {
        "name": "Tommie Ruecker"
      },
      "method": {
        "type": "phone_bill",
        "card": {
          "brand": "visa"
        }
      },
      "value": "35884",
      "currency": "BRL"
    },
    {
      "id": "114a9178-8947-4883-9bf1-c1703493a13b",
      "status": "paid",
      "date": "2019-07-22T22:11:08.887Z",
      "donor": {
        "name": "Mary Miller"
      },
      "method": {
        "type": "phone_bill",
        "card": {
          "brand": "visa"
        }
      },
      "value": "11505",
      "currency": "BRL"
    },
    {
      "id": "dcbe4f8c-38cc-425f-ad2d-740bec7059d8",
      "status": "pending",
      "date": "2019-07-23T19:05:30.924Z",
      "donor": {
        "name": "Nola Becker"
      },
      "method": {
        "type": "phone_bill",
        "card": {
          "brand": "master"
        }
      },
      "value": "44222",
      "currency": "BRL"
    },
    {
      "id": "78c85fb3-a29d-44bd-8fe8-55ca71ac585e",
      "status": "generated",
      "date": "2019-07-22T20:09:38.143Z",
      "donor": {
        "name": "Tyreek Cummings"
      },
      "method": {
        "type": "phone_bill",
        "card": {
          "brand": "master"
        }
      },
      "value": "45219",
      "currency": "BRL"
    },
    {
      "id": "a1caf9e8-6bdd-4cc1-ada7-330cc3d81166",
      "status": "generated",
      "date": "2019-07-23T12:32:44.726Z",
      "donor": {
        "name": "Nedra Yundt"
      },
      "method": {
        "type": "debit",
        "card": {
          "brand": "elo"
        }
      },
      "value": "58384",
      "currency": "BRL"
    },
    {
      "id": "efe9328a-32c3-4954-86b4-e19340359017",
      "status": "paid",
      "date": "2019-07-23T19:04:21.748Z",
      "donor": {
        "name": "Tremayne Wolf"
      },
      "method": {
        "type": "phone_bill",
        "card": {
          "brand": "visa"
        }
      },
      "value": "68514",
      "currency": "BRL"
    },
    {
      "id": "8d649753-3eb2-4b8c-85d5-0540a967cb5d",
      "status": "error",
      "date": "2019-07-22T22:19:35.268Z",
      "donor": {
        "name": "Mrs. Sherman Roberts"
      },
      "method": {
        "type": "credit",
        "card": {
          "brand": "visa"
        }
      },
      "value": "76475",
      "currency": "BRL"
    },
    {
      "id": "554b7732-0c20-4918-bf5a-6177da468eb3",
      "status": "expired",
      "date": "2019-07-23T11:51:18.588Z",
      "donor": {
        "name": "Ludie Cormier"
      },
      "method": {
        "type": "debit",
        "card": {
          "brand": "visa"
        }
      },
      "value": "54044",
      "currency": "BRL"
    },
    {
      "id": "657a604f-3407-43bf-a3d8-de78c5ea64c4",
      "status": "sent",
      "date": "2019-07-23T02:01:51.586Z",
      "donor": {
        "name": "Benton Bartoletti"
      },
      "method": {
        "type": "debit",
        "card": {
          "brand": "elo"
        }
      },
      "value": "96703",
      "currency": "BRL"
    },
    {
      "id": "6ade520f-2148-4273-b3a0-c8bed6a3f302",
      "status": "error",
      "date": "2019-07-23T07:23:43.534Z",
      "donor": {
        "name": "Martin Kuhn"
      },
      "method": {
        "type": "phone_bill",
        "card": {
          "brand": "visa"
        }
      },
      "value": "10716",
      "currency": "BRL"
    },
    {
      "id": "b054f16f-6fcd-421b-a981-25a1f80878b2",
      "status": "hard_bounce",
      "date": "2019-07-23T05:26:18.653Z",
      "donor": {
        "name": "Elena Pfeffer"
      },
      "method": {
        "type": "payment_slip",
        "card": {
          "brand": "elo"
        }
      },
      "value": "37707",
      "currency": "BRL"
    },
    {
      "id": "795b76ba-ca3f-4676-929c-2869a8d8cc70",
      "status": "refunded",
      "date": "2019-07-23T02:57:02.655Z",
      "donor": {
        "name": "Alberto Mayert I"
      },
      "method": {
        "type": "credit",
        "card": {
          "brand": "elo"
        }
      },
      "value": "93466",
      "currency": "BRL"
    }
  ]
}