{
  "user": {
    "id": 299,
    "name": "Gerda Cruickshank",
    "email": "Manley_Okuneva35@yahoo.com"
  },
  "token": {
    "access_token": "05372624d4b5f299dab41b46b4dc0fcc63b1526c124a5b99c3a71e833656245a",
    "token_type": "bearer",
    "expires_in": 7200,
    "refresh_token": "10f0c21adfaf89c81b29e852a8ff26ae9719a9357acb035d9a8b9bf09414910d",
    "created_at": 1560805200,
    "user": {
      "id": 299,
      "name": "Gerda Cruickshank",
      "email": "Manley_Okuneva35@yahoo.com"
    }
  },
  "file_status_by_month": [
    {
      "files_info": [
        {
          "id": 1,
          "month": 12,
          "total": 595,
          "new": 9,
          "without_return": 2,
          "expired": 3
        },
        {
          "id": 2,
          "month": 11,
          "total": 41,
          "new": 6,
          "without_return": 2,
          "expired": 6
        },
        {
          "id": 3,
          "month": 10,
          "total": 294,
          "new": 7,
          "without_return": 4,
          "expired": 6
        },
        {
          "id": 4,
          "month": 9,
          "total": 280,
          "new": 1,
          "without_return": 6,
          "expired": 5
        },
        {
          "id": 5,
          "month": 8,
          "total": 898,
          "new": 3,
          "without_return": 10,
          "expired": 1
        },
        {
          "id": 6,
          "month": 7,
          "total": 526,
          "new": 4,
          "without_return": 5,
          "expired": 9
        }
      ],
      "meta": {
        "current_page": 1,
        "next_page": 2,
        "page_records": 6,
        "total_records": 6
      }
    },
    {
      "files_info": [
        {
          "id": 1,
          "month": 12,
          "total": 499,
          "new": 10,
          "without_return": 8,
          "expired": 4
        },
        {
          "id": 2,
          "month": 11,
          "total": 776,
          "new": 10,
          "without_return": 2,
          "expired": 10
        },
        {
          "id": 3,
          "month": 10,
          "total": 329,
          "new": 10,
          "without_return": 4,
          "expired": 3
        },
        {
          "id": 4,
          "month": 9,
          "total": 419,
          "new": 2,
          "without_return": 8,
          "expired": 2
        },
        {
          "id": 5,
          "month": 8,
          "total": 176,
          "new": 0,
          "without_return": 6,
          "expired": 9
        },
        {
          "id": 6,
          "month": 7,
          "total": 275,
          "new": 3,
          "without_return": 7,
          "expired": 0
        }
      ],
      "meta": {
        "current_page": 2,
        "next_page": 3,
        "page_records": 6,
        "total_records": 6
      }
    },
    {
      "files_info": [
        {
          "id": 1,
          "month": 12,
          "total": 759,
          "new": 0,
          "without_return": 5,
          "expired": 7
        },
        {
          "id": 2,
          "month": 11,
          "total": 630,
          "new": 6,
          "without_return": 5,
          "expired": 8
        },
        {
          "id": 3,
          "month": 10,
          "total": 76,
          "new": 8,
          "without_return": 5,
          "expired": 7
        },
        {
          "id": 4,
          "month": 9,
          "total": 237,
          "new": 1,
          "without_return": 0,
          "expired": 1
        },
        {
          "id": 5,
          "month": 8,
          "total": 93,
          "new": 9,
          "without_return": 1,
          "expired": 2
        },
        {
          "id": 6,
          "month": 7,
          "total": 259,
          "new": 7,
          "without_return": 0,
          "expired": 7
        }
      ],
      "meta": {
        "current_page": 3,
        "next_page": 4,
        "page_records": 6,
        "total_records": 6
      }
    },
    {
      "files_info": [
        {
          "id": 1,
          "month": 12,
          "total": 232,
          "new": 4,
          "without_return": 2,
          "expired": 3
        },
        {
          "id": 2,
          "month": 11,
          "total": 87,
          "new": 7,
          "without_return": 9,
          "expired": 9
        },
        {
          "id": 3,
          "month": 10,
          "total": 337,
          "new": 6,
          "without_return": 4,
          "expired": 7
        },
        {
          "id": 4,
          "month": 9,
          "total": 85,
          "new": 2,
          "without_return": 9,
          "expired": 7
        },
        {
          "id": 5,
          "month": 8,
          "total": 132,
          "new": 4,
          "without_return": 8,
          "expired": 1
        },
        {
          "id": 6,
          "month": 7,
          "total": 759,
          "new": 0,
          "without_return": 8,
          "expired": 1
        }
      ],
      "meta": {
        "current_page": 4,
        "next_page": 5,
        "page_records": 6,
        "total_records": 6
      }
    },
    {
      "files_info": [
        {
          "id": 1,
          "month": 12,
          "total": 63,
          "new": 8,
          "without_return": 0,
          "expired": 4
        },
        {
          "id": 2,
          "month": 11,
          "total": 567,
          "new": 6,
          "without_return": 9,
          "expired": 10
        },
        {
          "id": 3,
          "month": 10,
          "total": 579,
          "new": 9,
          "without_return": 5,
          "expired": 2
        },
        {
          "id": 4,
          "month": 9,
          "total": 799,
          "new": 9,
          "without_return": 1,
          "expired": 6
        },
        {
          "id": 5,
          "month": 8,
          "total": 152,
          "new": 2,
          "without_return": 8,
          "expired": 1
        },
        {
          "id": 6,
          "month": 7,
          "total": 297,
          "new": 8,
          "without_return": 7,
          "expired": 5
        }
      ],
      "meta": {
        "current_page": 5,
        "next_page": 6,
        "page_records": 6,
        "total_records": 6
      }
    },
    {
      "files_info": [
        {
          "id": 1,
          "month": 12,
          "total": 712,
          "new": 6,
          "without_return": 10,
          "expired": 9
        },
        {
          "id": 2,
          "month": 11,
          "total": 606,
          "new": 5,
          "without_return": 3,
          "expired": 3
        },
        {
          "id": 3,
          "month": 10,
          "total": 264,
          "new": 0,
          "without_return": 6,
          "expired": 4
        },
        {
          "id": 4,
          "month": 9,
          "total": 477,
          "new": 0,
          "without_return": 1,
          "expired": 10
        },
        {
          "id": 5,
          "month": 8,
          "total": 761,
          "new": 4,
          "without_return": 2,
          "expired": 2
        },
        {
          "id": 6,
          "month": 7,
          "total": 433,
          "new": 9,
          "without_return": 9,
          "expired": 4
        }
      ],
      "meta": {
        "current_page": 6,
        "next_page": 6,
        "page_records": 6,
        "total_records": 6
      }
    }
  ],
  "files_list": {
    "type": "debit",
    "files": [
      {
        "id": 1,
        "status": "hard_bounce",
        "bank": "Caixa Econômica",
        "amount": 39,
        "max_date_to_send": "2019-07-10T04:08:54.382Z",
        "expires_in": "2019-07-23T21:53:11.902Z"
      },
      {
        "id": 2,
        "status": "error",
        "bank": "Bradesco",
        "amount": 50,
        "max_date_to_send": "2019-07-25T20:58:54.723Z",
        "expires_in": "2019-07-23T05:37:02.459Z"
      },
      {
        "id": 3,
        "status": "sent",
        "bank": "Itaú",
        "amount": 25,
        "max_date_to_send": "2019-07-04T08:57:42.087Z",
        "expires_in": "2019-07-09T05:39:31.545Z"
      },
      {
        "id": 4,
        "status": "paid",
        "bank": "Bradesco",
        "amount": 71,
        "max_date_to_send": "2019-07-18T18:38:11.744Z",
        "expires_in": "2019-07-29T10:52:48.877Z"
      },
      {
        "id": 5,
        "status": "sent",
        "bank": "Banco do Brasil",
        "amount": 17,
        "max_date_to_send": "2019-07-19T23:47:08.245Z",
        "expires_in": "2019-07-10T12:26:03.884Z"
      },
      {
        "id": 6,
        "status": "processing",
        "bank": "Santander",
        "amount": 81,
        "max_date_to_send": "2019-07-31T02:00:43.497Z",
        "expires_in": "2019-07-16T17:12:03.572Z"
      },
      {
        "id": 7,
        "status": "pending",
        "bank": "Caixa Econômica",
        "amount": 95,
        "max_date_to_send": "2019-07-09T18:32:15.734Z",
        "expires_in": "2019-07-14T03:13:17.819Z"
      },
      {
        "id": 8,
        "status": "error",
        "bank": "Banco do Brasil",
        "amount": 40,
        "max_date_to_send": "2019-07-10T22:05:44.556Z",
        "expires_in": "2019-07-15T17:08:33.961Z"
      },
      {
        "id": 9,
        "status": "hard_bounce",
        "bank": "Banco do Brasil",
        "amount": 71,
        "max_date_to_send": "2019-07-28T14:36:14.496Z",
        "expires_in": "2019-07-20T20:00:35.450Z"
      },
      {
        "id": 10,
        "status": "sent",
        "bank": "Bradesco",
        "amount": 10,
        "max_date_to_send": "2019-07-31T08:00:28.154Z",
        "expires_in": "2019-07-05T03:38:49.537Z"
      },
      {
        "id": 11,
        "status": "soft_bounce",
        "bank": "Santander",
        "amount": 42,
        "max_date_to_send": "2019-07-17T01:00:45.489Z",
        "expires_in": "2019-07-22T18:55:53.847Z"
      },
      {
        "id": 12,
        "status": "hard_bounce",
        "bank": "Santander",
        "amount": 66,
        "max_date_to_send": "2019-07-10T09:55:29.672Z",
        "expires_in": "2019-07-08T06:11:10.900Z"
      },
      {
        "id": 13,
        "status": "pending",
        "bank": "Itaú",
        "amount": 99,
        "max_date_to_send": "2019-07-29T02:56:17.198Z",
        "expires_in": "2019-07-26T14:29:54.694Z"
      },
      {
        "id": 14,
        "status": "processing",
        "bank": "Itaú",
        "amount": 22,
        "max_date_to_send": "2019-07-01T22:41:02.483Z",
        "expires_in": "2019-07-02T16:26:43.564Z"
      },
      {
        "id": 15,
        "status": "generated",
        "bank": "Itaú",
        "amount": 67,
        "max_date_to_send": "2019-07-07T11:43:58.946Z",
        "expires_in": "2019-07-21T15:14:09.562Z"
      },
      {
        "id": 16,
        "status": "hard_bounce",
        "bank": "Santander",
        "amount": 95,
        "max_date_to_send": "2019-07-16T06:36:04.478Z",
        "expires_in": "2019-07-29T09:27:25.745Z"
      },
      {
        "id": 17,
        "status": "expired",
        "bank": "Caixa Econômica",
        "amount": 83,
        "max_date_to_send": "2019-07-10T06:04:02.442Z",
        "expires_in": "2019-07-07T05:12:11.940Z"
      },
      {
        "id": 18,
        "status": "partial_refunded",
        "bank": "Santander",
        "amount": 23,
        "max_date_to_send": "2019-07-18T21:41:58.519Z",
        "expires_in": "2019-07-04T16:14:55.806Z"
      },
      {
        "id": 19,
        "status": "generated",
        "bank": "Banco do Brasil",
        "amount": 84,
        "max_date_to_send": "2019-07-10T01:32:07.314Z",
        "expires_in": "2019-07-31T22:42:46.853Z"
      },
      {
        "id": 20,
        "status": "partial_refunded",
        "bank": "Santander",
        "amount": 53,
        "max_date_to_send": "2019-07-31T09:49:18.267Z",
        "expires_in": "2019-07-05T08:37:39.876Z"
      },
      {
        "id": 21,
        "status": "hard_bounce",
        "bank": "Bradesco",
        "amount": 49,
        "max_date_to_send": "2019-07-20T09:09:49.138Z",
        "expires_in": "2019-07-08T14:11:50.787Z"
      },
      {
        "id": 22,
        "status": "processing",
        "bank": "Bradesco",
        "amount": 11,
        "max_date_to_send": "2019-07-12T21:55:39.647Z",
        "expires_in": "2019-07-23T02:58:31.440Z"
      },
      {
        "id": 23,
        "status": "expired",
        "bank": "Banco do Brasil",
        "amount": 54,
        "max_date_to_send": "2019-07-31T21:48:20.815Z",
        "expires_in": "2019-07-10T09:38:44.857Z"
      },
      {
        "id": 24,
        "status": "refunded",
        "bank": "Banco do Brasil",
        "amount": 34,
        "max_date_to_send": "2019-07-31T20:14:38.715Z",
        "expires_in": "2019-07-14T05:42:57.188Z"
      },
      {
        "id": 25,
        "status": "sent",
        "bank": "Santander",
        "amount": 18,
        "max_date_to_send": "2019-07-03T01:49:32.280Z",
        "expires_in": "2019-07-27T20:42:30.641Z"
      },
      {
        "id": 26,
        "status": "processing",
        "bank": "Santander",
        "amount": 14,
        "max_date_to_send": "2019-07-07T15:57:58.198Z",
        "expires_in": "2019-07-11T03:45:26.801Z"
      },
      {
        "id": 27,
        "status": "hard_bounce",
        "bank": "Santander",
        "amount": 54,
        "max_date_to_send": "2019-07-22T14:21:21.015Z",
        "expires_in": "2019-07-18T17:38:34.505Z"
      },
      {
        "id": 28,
        "status": "pending",
        "bank": "Santander",
        "amount": 41,
        "max_date_to_send": "2019-07-19T17:56:31.781Z",
        "expires_in": "2019-07-11T19:21:51.178Z"
      },
      {
        "id": 29,
        "status": "paid",
        "bank": "Bradesco",
        "amount": 19,
        "max_date_to_send": "2019-07-19T08:40:59.047Z",
        "expires_in": "2019-07-18T22:18:53.350Z"
      },
      {
        "id": 30,
        "status": "partial_refunded",
        "bank": "Santander",
        "amount": 14,
        "max_date_to_send": "2019-07-17T12:39:33.705Z",
        "expires_in": "2019-07-01T19:00:09.269Z"
      },
      {
        "id": 31,
        "status": "refunded",
        "bank": "Banco do Brasil",
        "amount": 99,
        "max_date_to_send": "2019-07-01T18:41:00.328Z",
        "expires_in": "2019-07-28T04:56:01.739Z"
      },
      {
        "id": 32,
        "status": "pending",
        "bank": "Caixa Econômica",
        "amount": 46,
        "max_date_to_send": "2019-07-23T22:23:08.163Z",
        "expires_in": "2019-07-09T15:44:09.021Z"
      },
      {
        "id": 33,
        "status": "pending",
        "bank": "Caixa Econômica",
        "amount": 49,
        "max_date_to_send": "2019-07-02T12:18:41.562Z",
        "expires_in": "2019-07-18T10:23:36.273Z"
      },
      {
        "id": 34,
        "status": "pending",
        "bank": "Banco do Brasil",
        "amount": 96,
        "max_date_to_send": "2019-07-30T17:57:42.861Z",
        "expires_in": "2019-07-07T01:46:28.797Z"
      },
      {
        "id": 35,
        "status": "soft_bounce",
        "bank": "Bradesco",
        "amount": 0,
        "max_date_to_send": "2019-07-27T18:45:45.366Z",
        "expires_in": "2019-07-09T00:44:11.818Z"
      },
      {
        "id": 36,
        "status": "processing",
        "bank": "Caixa Econômica",
        "amount": 62,
        "max_date_to_send": "2019-07-01T08:07:50.374Z",
        "expires_in": "2019-07-06T14:49:10.612Z"
      },
      {
        "id": 37,
        "status": "sent",
        "bank": "Itaú",
        "amount": 20,
        "max_date_to_send": "2019-07-06T03:23:14.053Z",
        "expires_in": "2019-07-24T11:08:34.261Z"
      },
      {
        "id": 38,
        "status": "pending",
        "bank": "Caixa Econômica",
        "amount": 41,
        "max_date_to_send": "2019-07-12T22:11:29.359Z",
        "expires_in": "2019-07-03T01:21:14.172Z"
      },
      {
        "id": 39,
        "status": "generated",
        "bank": "Caixa Econômica",
        "amount": 27,
        "max_date_to_send": "2019-07-21T08:44:40.167Z",
        "expires_in": "2019-07-14T12:43:48.189Z"
      },
      {
        "id": 40,
        "status": "generated",
        "bank": "Itaú",
        "amount": 42,
        "max_date_to_send": "2019-07-02T10:50:36.355Z",
        "expires_in": "2019-07-22T20:49:17.847Z"
      },
      {
        "id": 41,
        "status": "error",
        "bank": "Bradesco",
        "amount": 73,
        "max_date_to_send": "2019-07-14T16:41:21.722Z",
        "expires_in": "2019-07-29T02:07:02.712Z"
      },
      {
        "id": 42,
        "status": "hard_bounce",
        "bank": "Bradesco",
        "amount": 40,
        "max_date_to_send": "2019-07-16T06:59:16.065Z",
        "expires_in": "2019-07-16T10:52:20.135Z"
      },
      {
        "id": 43,
        "status": "expired",
        "bank": "Bradesco",
        "amount": 42,
        "max_date_to_send": "2019-07-14T03:10:21.279Z",
        "expires_in": "2019-07-12T14:33:36.551Z"
      },
      {
        "id": 44,
        "status": "paid",
        "bank": "Bradesco",
        "amount": 98,
        "max_date_to_send": "2019-07-27T14:15:56.949Z",
        "expires_in": "2019-07-24T15:07:26.800Z"
      },
      {
        "id": 45,
        "status": "error",
        "bank": "Banco do Brasil",
        "amount": 44,
        "max_date_to_send": "2019-07-04T14:44:51.131Z",
        "expires_in": "2019-07-14T05:53:58.987Z"
      },
      {
        "id": 46,
        "status": "generated",
        "bank": "Caixa Econômica",
        "amount": 24,
        "max_date_to_send": "2019-07-13T23:17:40.996Z",
        "expires_in": "2019-07-11T16:12:49.134Z"
      },
      {
        "id": 47,
        "status": "expired",
        "bank": "Banco do Brasil",
        "amount": 27,
        "max_date_to_send": "2019-07-01T18:08:34.311Z",
        "expires_in": "2019-07-12T07:54:56.975Z"
      },
      {
        "id": 48,
        "status": "refunded",
        "bank": "Itaú",
        "amount": 33,
        "max_date_to_send": "2019-07-15T08:18:14.490Z",
        "expires_in": "2019-07-17T02:36:41.592Z"
      },
      {
        "id": 49,
        "status": "expired",
        "bank": "Banco do Brasil",
        "amount": 43,
        "max_date_to_send": "2019-07-13T18:34:48.382Z",
        "expires_in": "2019-07-20T05:41:53.126Z"
      },
      {
        "id": 50,
        "status": "generated",
        "bank": "Santander",
        "amount": 66,
        "max_date_to_send": "2019-07-18T12:19:30.303Z",
        "expires_in": "2019-07-29T05:36:07.201Z"
      }
    ]
  },
  "generate_bank_file": {
    "url": "http://elenor.com"
  },
  "import_bank_file": {
    "status": "success"
  },
  "payments": [
    {
      "id": "8f358007-eab8-4314-9d6e-30525383d662",
      "status": "hard_bounce",
      "date": "2019-07-11T08:12:15.162Z",
      "donor": {
        "name": "Miss Javier Harvey"
      },
      "method": {
        "type": "credit",
        "card": {
          "brand": "master"
        }
      },
      "value": "56901",
      "currency": "BRL"
    },
    {
      "id": "3aa60c99-ef62-45ce-81ee-0a3ddb8e3e33",
      "status": "soft_bounce",
      "date": "2019-07-11T08:59:56.879Z",
      "donor": {
        "name": "Dr. Gust Hirthe"
      },
      "method": {
        "type": "phone_bill",
        "card": {
          "brand": "elo"
        }
      },
      "value": "67757",
      "currency": "BRL"
    },
    {
      "id": "c5e4d68c-162b-480e-ad28-995d9a44ca34",
      "status": "soft_bounce",
      "date": "2019-07-11T11:52:00.837Z",
      "donor": {
        "name": "Clare Schmidt"
      },
      "method": {
        "type": "payment_slip",
        "card": {
          "brand": "elo"
        }
      },
      "value": "46060",
      "currency": "BRL"
    },
    {
      "id": "fe093099-4c2c-48be-919a-aebfedd5dad3",
      "status": "soft_bounce",
      "date": "2019-07-11T00:09:45.083Z",
      "donor": {
        "name": "Ms. Anjali Reichel"
      },
      "method": {
        "type": "payment_slip",
        "card": {
          "brand": "visa"
        }
      },
      "value": "47061",
      "currency": "BRL"
    },
    {
      "id": "6e052c87-9c52-41eb-b6ea-61f26526b323",
      "status": "processing",
      "date": "2019-07-11T08:11:30.389Z",
      "donor": {
        "name": "Jakayla Davis"
      },
      "method": {
        "type": "credit",
        "card": {
          "brand": "elo"
        }
      },
      "value": "14868",
      "currency": "BRL"
    },
    {
      "id": "f87cac05-5a23-4e3f-90c4-f267207f679e",
      "status": "generated",
      "date": "2019-07-11T04:34:15.416Z",
      "donor": {
        "name": "Raven Hackett"
      },
      "method": {
        "type": "debit",
        "card": {
          "brand": "master"
        }
      },
      "value": "91415",
      "currency": "BRL"
    },
    {
      "id": "80e4f114-002e-4440-a2b5-e0a1034a5af4",
      "status": "partial_refunded",
      "date": "2019-07-10T22:56:46.311Z",
      "donor": {
        "name": "Brendan Hilll"
      },
      "method": {
        "type": "phone_bill",
        "card": {
          "brand": "elo"
        }
      },
      "value": "78066",
      "currency": "BRL"
    },
    {
      "id": "8a2b7bf5-b881-474a-9010-c0d40f729971",
      "status": "error",
      "date": "2019-07-10T19:51:00.667Z",
      "donor": {
        "name": "Blake Osinski"
      },
      "method": {
        "type": "payment_slip",
        "card": {
          "brand": "elo"
        }
      },
      "value": "77841",
      "currency": "BRL"
    },
    {
      "id": "1474d9f4-2ad6-4113-b076-56390d380280",
      "status": "processing",
      "date": "2019-07-10T14:55:01.115Z",
      "donor": {
        "name": "Madie Mertz"
      },
      "method": {
        "type": "payment_slip",
        "card": {
          "brand": "elo"
        }
      },
      "value": "41653",
      "currency": "BRL"
    },
    {
      "id": "e7d38f72-aa2a-433c-ad01-5c5eca9bec58",
      "status": "processing",
      "date": "2019-07-10T14:35:11.639Z",
      "donor": {
        "name": "Collin Franecki"
      },
      "method": {
        "type": "debit",
        "card": {
          "brand": "visa"
        }
      },
      "value": "9431",
      "currency": "BRL"
    },
    {
      "id": "2443f1f4-d488-42d6-b36c-a6470e7fadf8",
      "status": "paid",
      "date": "2019-07-11T07:35:04.360Z",
      "donor": {
        "name": "Hulda Hoeger DDS"
      },
      "method": {
        "type": "phone_bill",
        "card": {
          "brand": "visa"
        }
      },
      "value": "94978",
      "currency": "BRL"
    },
    {
      "id": "4d6d63c3-c8e9-4f14-9747-2952030bce3e",
      "status": "expired",
      "date": "2019-07-10T17:34:36.281Z",
      "donor": {
        "name": "Juliana Kling V"
      },
      "method": {
        "type": "debit",
        "card": {
          "brand": "master"
        }
      },
      "value": "6950",
      "currency": "BRL"
    },
    {
      "id": "6480a3f1-c3e2-450b-bd64-a503db543f2c",
      "status": "partial_refunded",
      "date": "2019-07-11T04:47:36.685Z",
      "donor": {
        "name": "Eladio Daugherty"
      },
      "method": {
        "type": "debit",
        "card": {
          "brand": "elo"
        }
      },
      "value": "90004",
      "currency": "BRL"
    },
    {
      "id": "338ee88b-85e1-461b-92d3-07eb659404cf",
      "status": "soft_bounce",
      "date": "2019-07-11T03:28:51.694Z",
      "donor": {
        "name": "Callie Donnelly"
      },
      "method": {
        "type": "debit",
        "card": {
          "brand": "master"
        }
      },
      "value": "93391",
      "currency": "BRL"
    },
    {
      "id": "c256bac5-e9b3-4e59-890d-1bff6582b0dd",
      "status": "generated",
      "date": "2019-07-11T04:24:13.539Z",
      "donor": {
        "name": "Estel Murray"
      },
      "method": {
        "type": "debit",
        "card": {
          "brand": "visa"
        }
      },
      "value": "4326",
      "currency": "BRL"
    },
    {
      "id": "7848aa60-15c6-4504-9dd1-a22088ef7d05",
      "status": "expired",
      "date": "2019-07-10T20:56:41.665Z",
      "donor": {
        "name": "Breana Lowe"
      },
      "method": {
        "type": "payment_slip",
        "card": {
          "brand": "visa"
        }
      },
      "value": "25473",
      "currency": "BRL"
    },
    {
      "id": "ebafa3d2-dbe2-4f1d-bd3f-93572241695c",
      "status": "pending",
      "date": "2019-07-10T17:49:54.505Z",
      "donor": {
        "name": "Jannie Denesik"
      },
      "method": {
        "type": "credit",
        "card": {
          "brand": "master"
        }
      },
      "value": "4803",
      "currency": "BRL"
    },
    {
      "id": "2861e605-c468-481f-8c1e-29afc05f33a0",
      "status": "partial_refunded",
      "date": "2019-07-10T18:02:33.851Z",
      "donor": {
        "name": "Eldora Leuschke"
      },
      "method": {
        "type": "payment_slip",
        "card": {
          "brand": "master"
        }
      },
      "value": "91659",
      "currency": "BRL"
    },
    {
      "id": "6791ae0e-1175-4fc3-95b5-854e9b74d69c",
      "status": "paid",
      "date": "2019-07-10T17:53:21.713Z",
      "donor": {
        "name": "Oren Torphy"
      },
      "method": {
        "type": "phone_bill",
        "card": {
          "brand": "master"
        }
      },
      "value": "65601",
      "currency": "BRL"
    },
    {
      "id": "f5301f20-bc99-41c5-b69b-22a82f1bbd71",
      "status": "hard_bounce",
      "date": "2019-07-10T23:06:15.219Z",
      "donor": {
        "name": "Bell McKenzie"
      },
      "method": {
        "type": "debit",
        "card": {
          "brand": "elo"
        }
      },
      "value": "97740",
      "currency": "BRL"
    }
  ]
}