{
  "user": {
    "id": 185,
    "name": "Lue Fahey",
    "email": "Marcelino.Carter37@yahoo.com"
  },
  "token": {
    "access_token": "05372624d4b5f299dab41b46b4dc0fcc63b1526c124a5b99c3a71e833656245a",
    "token_type": "bearer",
    "expires_in": 7200,
    "refresh_token": "10f0c21adfaf89c81b29e852a8ff26ae9719a9357acb035d9a8b9bf09414910d",
    "created_at": 1560805200,
    "user": {
      "id": 185,
      "name": "Lue Fahey",
      "email": "Marcelino.Carter37@yahoo.com"
    }
  },
  "file_status_by_month": [
    {
      "files_info": [
        {
          "id": 1,
          "month": 12,
          "total": 205,
          "new": 8,
          "without_return": 8,
          "expired": 6
        },
        {
          "id": 2,
          "month": 11,
          "total": 45,
          "new": 0,
          "without_return": 5,
          "expired": 0
        },
        {
          "id": 3,
          "month": 10,
          "total": 625,
          "new": 5,
          "without_return": 2,
          "expired": 9
        },
        {
          "id": 4,
          "month": 9,
          "total": 84,
          "new": 9,
          "without_return": 9,
          "expired": 5
        },
        {
          "id": 5,
          "month": 8,
          "total": 518,
          "new": 0,
          "without_return": 4,
          "expired": 2
        },
        {
          "id": 6,
          "month": 7,
          "total": 689,
          "new": 8,
          "without_return": 8,
          "expired": 8
        }
      ],
      "meta": {
        "current_page": 1,
        "next_page": 2,
        "page_records": 6,
        "total_records": 6
      }
    },
    {
      "files_info": [
        {
          "id": 1,
          "month": 12,
          "total": 501,
          "new": 10,
          "without_return": 6,
          "expired": 2
        },
        {
          "id": 2,
          "month": 11,
          "total": 199,
          "new": 2,
          "without_return": 10,
          "expired": 8
        },
        {
          "id": 3,
          "month": 10,
          "total": 239,
          "new": 0,
          "without_return": 4,
          "expired": 2
        },
        {
          "id": 4,
          "month": 9,
          "total": 497,
          "new": 6,
          "without_return": 6,
          "expired": 7
        },
        {
          "id": 5,
          "month": 8,
          "total": 205,
          "new": 5,
          "without_return": 0,
          "expired": 9
        },
        {
          "id": 6,
          "month": 7,
          "total": 430,
          "new": 3,
          "without_return": 0,
          "expired": 0
        }
      ],
      "meta": {
        "current_page": 2,
        "next_page": 3,
        "page_records": 6,
        "total_records": 6
      }
    },
    {
      "files_info": [
        {
          "id": 1,
          "month": 12,
          "total": 778,
          "new": 8,
          "without_return": 5,
          "expired": 1
        },
        {
          "id": 2,
          "month": 11,
          "total": 521,
          "new": 2,
          "without_return": 4,
          "expired": 10
        },
        {
          "id": 3,
          "month": 10,
          "total": 637,
          "new": 5,
          "without_return": 3,
          "expired": 4
        },
        {
          "id": 4,
          "month": 9,
          "total": 752,
          "new": 2,
          "without_return": 3,
          "expired": 7
        },
        {
          "id": 5,
          "month": 8,
          "total": 210,
          "new": 9,
          "without_return": 3,
          "expired": 9
        },
        {
          "id": 6,
          "month": 7,
          "total": 687,
          "new": 8,
          "without_return": 2,
          "expired": 2
        }
      ],
      "meta": {
        "current_page": 3,
        "next_page": 4,
        "page_records": 6,
        "total_records": 6
      }
    },
    {
      "files_info": [
        {
          "id": 1,
          "month": 12,
          "total": 597,
          "new": 3,
          "without_return": 6,
          "expired": 8
        },
        {
          "id": 2,
          "month": 11,
          "total": 160,
          "new": 0,
          "without_return": 5,
          "expired": 9
        },
        {
          "id": 3,
          "month": 10,
          "total": 396,
          "new": 8,
          "without_return": 9,
          "expired": 5
        },
        {
          "id": 4,
          "month": 9,
          "total": 450,
          "new": 0,
          "without_return": 7,
          "expired": 3
        },
        {
          "id": 5,
          "month": 8,
          "total": 140,
          "new": 9,
          "without_return": 0,
          "expired": 0
        },
        {
          "id": 6,
          "month": 7,
          "total": 172,
          "new": 8,
          "without_return": 4,
          "expired": 8
        }
      ],
      "meta": {
        "current_page": 4,
        "next_page": 5,
        "page_records": 6,
        "total_records": 6
      }
    },
    {
      "files_info": [
        {
          "id": 1,
          "month": 12,
          "total": 456,
          "new": 5,
          "without_return": 6,
          "expired": 5
        },
        {
          "id": 2,
          "month": 11,
          "total": 784,
          "new": 5,
          "without_return": 0,
          "expired": 5
        },
        {
          "id": 3,
          "month": 10,
          "total": 24,
          "new": 6,
          "without_return": 6,
          "expired": 8
        },
        {
          "id": 4,
          "month": 9,
          "total": 184,
          "new": 1,
          "without_return": 5,
          "expired": 9
        },
        {
          "id": 5,
          "month": 8,
          "total": 900,
          "new": 5,
          "without_return": 0,
          "expired": 9
        },
        {
          "id": 6,
          "month": 7,
          "total": 70,
          "new": 8,
          "without_return": 10,
          "expired": 7
        }
      ],
      "meta": {
        "current_page": 5,
        "next_page": 6,
        "page_records": 6,
        "total_records": 6
      }
    },
    {
      "files_info": [
        {
          "id": 1,
          "month": 12,
          "total": 739,
          "new": 7,
          "without_return": 1,
          "expired": 0
        },
        {
          "id": 2,
          "month": 11,
          "total": 570,
          "new": 3,
          "without_return": 8,
          "expired": 8
        },
        {
          "id": 3,
          "month": 10,
          "total": 303,
          "new": 8,
          "without_return": 7,
          "expired": 0
        },
        {
          "id": 4,
          "month": 9,
          "total": 539,
          "new": 8,
          "without_return": 10,
          "expired": 7
        },
        {
          "id": 5,
          "month": 8,
          "total": 19,
          "new": 2,
          "without_return": 1,
          "expired": 5
        },
        {
          "id": 6,
          "month": 7,
          "total": 478,
          "new": 8,
          "without_return": 9,
          "expired": 4
        }
      ],
      "meta": {
        "current_page": 6,
        "next_page": 6,
        "page_records": 6,
        "total_records": 6
      }
    }
  ],
  "files_list": {
    "type": "debit",
    "files": [
      {
        "id": 1,
        "status": "error",
        "bank": "Banco do Brasil",
        "amount": 73,
        "max_date_to_send": "2019-07-08T00:52:31.395Z",
        "expires_in": "2019-07-19T07:34:21.504Z"
      },
      {
        "id": 2,
        "status": "partial_refunded",
        "bank": "Itaú",
        "amount": 100,
        "max_date_to_send": "2019-07-22T12:07:06.812Z",
        "expires_in": "2019-07-13T15:40:48.669Z"
      },
      {
        "id": 3,
        "status": "processing",
        "bank": "Banco do Brasil",
        "amount": 60,
        "max_date_to_send": "2019-07-31T12:07:13.094Z",
        "expires_in": "2019-07-30T21:12:24.848Z"
      },
      {
        "id": 4,
        "status": "pending",
        "bank": "Caixa Econômica",
        "amount": 75,
        "max_date_to_send": "2019-07-23T05:16:29.706Z",
        "expires_in": "2019-07-02T00:18:24.595Z"
      },
      {
        "id": 5,
        "status": "refunded",
        "bank": "Caixa Econômica",
        "amount": 23,
        "max_date_to_send": "2019-07-05T20:54:13.094Z",
        "expires_in": "2019-07-24T16:06:05.168Z"
      },
      {
        "id": 6,
        "status": "hard_bounce",
        "bank": "Santander",
        "amount": 3,
        "max_date_to_send": "2019-07-30T12:15:33.255Z",
        "expires_in": "2019-07-11T20:10:25.322Z"
      },
      {
        "id": 7,
        "status": "soft_bounce",
        "bank": "Caixa Econômica",
        "amount": 6,
        "max_date_to_send": "2019-07-14T23:06:14.943Z",
        "expires_in": "2019-07-09T12:32:32.507Z"
      },
      {
        "id": 8,
        "status": "partial_refunded",
        "bank": "Santander",
        "amount": 33,
        "max_date_to_send": "2019-07-04T18:01:57.152Z",
        "expires_in": "2019-07-05T09:33:50.503Z"
      },
      {
        "id": 9,
        "status": "hard_bounce",
        "bank": "Itaú",
        "amount": 75,
        "max_date_to_send": "2019-07-19T15:34:51.182Z",
        "expires_in": "2019-07-11T09:47:25.723Z"
      },
      {
        "id": 10,
        "status": "generated",
        "bank": "Caixa Econômica",
        "amount": 63,
        "max_date_to_send": "2019-07-20T20:49:56.249Z",
        "expires_in": "2019-07-27T01:00:57.083Z"
      },
      {
        "id": 11,
        "status": "sent",
        "bank": "Itaú",
        "amount": 54,
        "max_date_to_send": "2019-07-06T03:10:22.032Z",
        "expires_in": "2019-07-05T12:17:10.375Z"
      },
      {
        "id": 12,
        "status": "pending",
        "bank": "Santander",
        "amount": 29,
        "max_date_to_send": "2019-07-11T07:38:37.188Z",
        "expires_in": "2019-07-20T01:31:57.328Z"
      },
      {
        "id": 13,
        "status": "pending",
        "bank": "Santander",
        "amount": 62,
        "max_date_to_send": "2019-07-28T20:24:10.372Z",
        "expires_in": "2019-07-07T14:23:02.817Z"
      },
      {
        "id": 14,
        "status": "partial_refunded",
        "bank": "Caixa Econômica",
        "amount": 89,
        "max_date_to_send": "2019-07-14T12:44:22.434Z",
        "expires_in": "2019-07-31T20:06:34.898Z"
      },
      {
        "id": 15,
        "status": "pending",
        "bank": "Caixa Econômica",
        "amount": 99,
        "max_date_to_send": "2019-07-08T13:29:56.011Z",
        "expires_in": "2019-07-02T04:20:48.232Z"
      },
      {
        "id": 16,
        "status": "error",
        "bank": "Banco do Brasil",
        "amount": 81,
        "max_date_to_send": "2019-07-05T03:28:19.943Z",
        "expires_in": "2019-07-11T06:26:48.065Z"
      },
      {
        "id": 17,
        "status": "partial_refunded",
        "bank": "Bradesco",
        "amount": 12,
        "max_date_to_send": "2019-07-26T11:40:18.696Z",
        "expires_in": "2019-07-27T01:00:25.842Z"
      },
      {
        "id": 18,
        "status": "generated",
        "bank": "Santander",
        "amount": 74,
        "max_date_to_send": "2019-07-26T12:57:33.127Z",
        "expires_in": "2019-07-30T11:13:59.252Z"
      },
      {
        "id": 19,
        "status": "refunded",
        "bank": "Bradesco",
        "amount": 65,
        "max_date_to_send": "2019-07-26T00:57:22.203Z",
        "expires_in": "2019-07-15T21:51:22.933Z"
      },
      {
        "id": 20,
        "status": "partial_refunded",
        "bank": "Santander",
        "amount": 82,
        "max_date_to_send": "2019-07-28T02:41:37.241Z",
        "expires_in": "2019-07-22T06:35:46.505Z"
      },
      {
        "id": 21,
        "status": "partial_refunded",
        "bank": "Banco do Brasil",
        "amount": 19,
        "max_date_to_send": "2019-07-09T10:54:22.211Z",
        "expires_in": "2019-07-29T22:35:32.357Z"
      },
      {
        "id": 22,
        "status": "partial_refunded",
        "bank": "Santander",
        "amount": 30,
        "max_date_to_send": "2019-07-05T17:45:58.309Z",
        "expires_in": "2019-07-25T11:48:00.899Z"
      },
      {
        "id": 23,
        "status": "paid",
        "bank": "Caixa Econômica",
        "amount": 59,
        "max_date_to_send": "2019-07-12T02:46:09.333Z",
        "expires_in": "2019-07-18T03:20:41.300Z"
      },
      {
        "id": 24,
        "status": "expired",
        "bank": "Banco do Brasil",
        "amount": 47,
        "max_date_to_send": "2019-07-03T13:21:48.193Z",
        "expires_in": "2019-07-20T03:35:11.391Z"
      },
      {
        "id": 25,
        "status": "hard_bounce",
        "bank": "Banco do Brasil",
        "amount": 39,
        "max_date_to_send": "2019-07-29T22:03:52.324Z",
        "expires_in": "2019-07-21T22:27:12.396Z"
      },
      {
        "id": 26,
        "status": "error",
        "bank": "Bradesco",
        "amount": 11,
        "max_date_to_send": "2019-07-04T21:09:38.433Z",
        "expires_in": "2019-07-18T15:00:21.006Z"
      },
      {
        "id": 27,
        "status": "soft_bounce",
        "bank": "Santander",
        "amount": 13,
        "max_date_to_send": "2019-07-14T17:52:19.309Z",
        "expires_in": "2019-07-17T09:11:43.349Z"
      },
      {
        "id": 28,
        "status": "expired",
        "bank": "Caixa Econômica",
        "amount": 37,
        "max_date_to_send": "2019-07-02T10:32:35.143Z",
        "expires_in": "2019-07-28T00:08:26.326Z"
      },
      {
        "id": 29,
        "status": "paid",
        "bank": "Banco do Brasil",
        "amount": 7,
        "max_date_to_send": "2019-07-14T12:15:12.692Z",
        "expires_in": "2019-07-16T19:48:52.986Z"
      },
      {
        "id": 30,
        "status": "error",
        "bank": "Caixa Econômica",
        "amount": 6,
        "max_date_to_send": "2019-07-10T09:43:04.776Z",
        "expires_in": "2019-07-11T07:45:08.937Z"
      },
      {
        "id": 31,
        "status": "paid",
        "bank": "Caixa Econômica",
        "amount": 28,
        "max_date_to_send": "2019-07-03T21:49:00.262Z",
        "expires_in": "2019-07-14T04:32:06.126Z"
      },
      {
        "id": 32,
        "status": "soft_bounce",
        "bank": "Banco do Brasil",
        "amount": 50,
        "max_date_to_send": "2019-07-28T01:38:26.752Z",
        "expires_in": "2019-07-26T19:09:36.654Z"
      },
      {
        "id": 33,
        "status": "generated",
        "bank": "Itaú",
        "amount": 27,
        "max_date_to_send": "2019-07-20T23:56:00.410Z",
        "expires_in": "2019-07-23T11:50:30.057Z"
      },
      {
        "id": 34,
        "status": "generated",
        "bank": "Bradesco",
        "amount": 66,
        "max_date_to_send": "2019-07-03T16:07:46.092Z",
        "expires_in": "2019-07-15T22:42:00.346Z"
      },
      {
        "id": 35,
        "status": "pending",
        "bank": "Banco do Brasil",
        "amount": 97,
        "max_date_to_send": "2019-07-24T08:26:44.710Z",
        "expires_in": "2019-07-15T20:12:58.918Z"
      },
      {
        "id": 36,
        "status": "error",
        "bank": "Santander",
        "amount": 48,
        "max_date_to_send": "2019-07-07T12:50:20.731Z",
        "expires_in": "2019-07-16T18:16:50.007Z"
      },
      {
        "id": 37,
        "status": "paid",
        "bank": "Itaú",
        "amount": 31,
        "max_date_to_send": "2019-07-28T10:26:42.979Z",
        "expires_in": "2019-07-02T19:37:20.910Z"
      },
      {
        "id": 38,
        "status": "generated",
        "bank": "Itaú",
        "amount": 96,
        "max_date_to_send": "2019-07-07T06:26:14.782Z",
        "expires_in": "2019-07-07T16:27:40.202Z"
      },
      {
        "id": 39,
        "status": "error",
        "bank": "Caixa Econômica",
        "amount": 80,
        "max_date_to_send": "2019-07-18T20:14:34.566Z",
        "expires_in": "2019-07-07T11:18:01.373Z"
      },
      {
        "id": 40,
        "status": "expired",
        "bank": "Bradesco",
        "amount": 11,
        "max_date_to_send": "2019-07-30T15:34:06.881Z",
        "expires_in": "2019-07-16T12:12:12.811Z"
      },
      {
        "id": 41,
        "status": "generated",
        "bank": "Bradesco",
        "amount": 13,
        "max_date_to_send": "2019-07-20T00:27:08.226Z",
        "expires_in": "2019-07-25T18:31:21.013Z"
      },
      {
        "id": 42,
        "status": "sent",
        "bank": "Caixa Econômica",
        "amount": 5,
        "max_date_to_send": "2019-07-17T01:07:12.021Z",
        "expires_in": "2019-07-25T08:30:56.021Z"
      },
      {
        "id": 43,
        "status": "processing",
        "bank": "Itaú",
        "amount": 30,
        "max_date_to_send": "2019-07-24T07:48:39.274Z",
        "expires_in": "2019-07-02T22:37:16.987Z"
      },
      {
        "id": 44,
        "status": "expired",
        "bank": "Itaú",
        "amount": 14,
        "max_date_to_send": "2019-07-09T22:22:12.576Z",
        "expires_in": "2019-07-04T21:36:49.446Z"
      },
      {
        "id": 45,
        "status": "sent",
        "bank": "Bradesco",
        "amount": 83,
        "max_date_to_send": "2019-07-01T19:06:08.631Z",
        "expires_in": "2019-07-03T07:29:30.777Z"
      },
      {
        "id": 46,
        "status": "partial_refunded",
        "bank": "Santander",
        "amount": 3,
        "max_date_to_send": "2019-07-15T10:40:41.302Z",
        "expires_in": "2019-07-16T10:08:20.493Z"
      },
      {
        "id": 47,
        "status": "partial_refunded",
        "bank": "Itaú",
        "amount": 70,
        "max_date_to_send": "2019-07-07T15:52:37.757Z",
        "expires_in": "2019-07-14T13:23:50.402Z"
      },
      {
        "id": 48,
        "status": "refunded",
        "bank": "Banco do Brasil",
        "amount": 63,
        "max_date_to_send": "2019-07-09T07:24:21.888Z",
        "expires_in": "2019-07-29T09:50:57.385Z"
      },
      {
        "id": 49,
        "status": "hard_bounce",
        "bank": "Caixa Econômica",
        "amount": 56,
        "max_date_to_send": "2019-07-15T09:03:59.533Z",
        "expires_in": "2019-07-17T20:58:10.146Z"
      },
      {
        "id": 50,
        "status": "generated",
        "bank": "Caixa Econômica",
        "amount": 75,
        "max_date_to_send": "2019-07-08T13:26:03.671Z",
        "expires_in": "2019-07-10T09:18:14.209Z"
      }
    ]
  },
  "generate_bank_file": {
    "url": "https://valentine.com"
  },
  "import_bank_file": {
    "status": "success"
  },
  "payments": [
    {
      "id": "372b830c-4e6b-43fd-aae4-38b3259f17e5",
      "status": "pending",
      "date": "2019-07-04T02:47:10.184Z",
      "donor": {
        "name": "Emory Herzog III"
      },
      "method": {
        "type": "debit",
        "card": {
          "brand": "master"
        }
      },
      "value": "70815",
      "currency": "BRL"
    },
    {
      "id": "324e1185-9614-445c-bd72-931adea649b7",
      "status": "processing",
      "date": "2019-07-03T18:07:48.687Z",
      "donor": {
        "name": "Andrew Christiansen"
      },
      "method": {
        "type": "payment_slip",
        "card": {
          "brand": "elo"
        }
      },
      "value": "75809",
      "currency": "BRL"
    },
    {
      "id": "f5c3abf9-38d3-4025-b21b-f8eb696ca70e",
      "status": "soft_bounce",
      "date": "2019-07-04T02:18:02.485Z",
      "donor": {
        "name": "Xzavier Wolf"
      },
      "method": {
        "type": "payment_slip",
        "card": {
          "brand": "elo"
        }
      },
      "value": "5527",
      "currency": "BRL"
    },
    {
      "id": "433bac2d-50f4-4e12-b906-95f187a01524",
      "status": "sent",
      "date": "2019-07-04T14:47:26.210Z",
      "donor": {
        "name": "Harry Donnelly"
      },
      "method": {
        "type": "credit",
        "card": {
          "brand": "elo"
        }
      },
      "value": "71957",
      "currency": "BRL"
    },
    {
      "id": "ac2544ce-17fe-4432-b7af-94c1948f449f",
      "status": "soft_bounce",
      "date": "2019-07-04T11:36:17.846Z",
      "donor": {
        "name": "Guy Williamson"
      },
      "method": {
        "type": "credit",
        "card": {
          "brand": "master"
        }
      },
      "value": "77655",
      "currency": "BRL"
    },
    {
      "id": "e116d316-231b-4bee-a48b-5e7986bead90",
      "status": "hard_bounce",
      "date": "2019-07-04T10:18:02.590Z",
      "donor": {
        "name": "Noble Heidenreich"
      },
      "method": {
        "type": "phone_bill",
        "card": {
          "brand": "master"
        }
      },
      "value": "80386",
      "currency": "BRL"
    },
    {
      "id": "e9597d65-8b34-4507-8378-634401beaed9",
      "status": "soft_bounce",
      "date": "2019-07-04T09:09:17.097Z",
      "donor": {
        "name": "Winona Altenwerth"
      },
      "method": {
        "type": "payment_slip",
        "card": {
          "brand": "elo"
        }
      },
      "value": "52705",
      "currency": "BRL"
    },
    {
      "id": "f7647092-d2fc-467e-ac9f-215d9680132c",
      "status": "paid",
      "date": "2019-07-04T07:59:37.545Z",
      "donor": {
        "name": "Carolyne Rowe"
      },
      "method": {
        "type": "phone_bill",
        "card": {
          "brand": "visa"
        }
      },
      "value": "45309",
      "currency": "BRL"
    },
    {
      "id": "813a8211-484c-4f91-8e7d-dc71f12057c9",
      "status": "generated",
      "date": "2019-07-04T10:30:39.669Z",
      "donor": {
        "name": "Cletus Skiles"
      },
      "method": {
        "type": "credit",
        "card": {
          "brand": "master"
        }
      },
      "value": "67769",
      "currency": "BRL"
    },
    {
      "id": "d8d8cc33-4ae7-4a71-bf6e-2f4513c4c44c",
      "status": "sent",
      "date": "2019-07-03T22:49:33.383Z",
      "donor": {
        "name": "Joesph Beer"
      },
      "method": {
        "type": "credit",
        "card": {
          "brand": "elo"
        }
      },
      "value": "39792",
      "currency": "BRL"
    },
    {
      "id": "3c6eb337-6587-4a20-a9ca-ebb07409b724",
      "status": "partial_refunded",
      "date": "2019-07-04T15:01:37.975Z",
      "donor": {
        "name": "Linwood Jacobson"
      },
      "method": {
        "type": "credit",
        "card": {
          "brand": "visa"
        }
      },
      "value": "19153",
      "currency": "BRL"
    },
    {
      "id": "65cace58-5298-4b20-86c4-e36efa7433d8",
      "status": "soft_bounce",
      "date": "2019-07-03T18:57:29.926Z",
      "donor": {
        "name": "Dexter Skiles"
      },
      "method": {
        "type": "payment_slip",
        "card": {
          "brand": "visa"
        }
      },
      "value": "81334",
      "currency": "BRL"
    },
    {
      "id": "0b92eb34-64f2-4391-b5a7-0cc00a0be372",
      "status": "pending",
      "date": "2019-07-03T22:42:37.123Z",
      "donor": {
        "name": "Mrs. Jarred Ruecker"
      },
      "method": {
        "type": "phone_bill",
        "card": {
          "brand": "elo"
        }
      },
      "value": "95819",
      "currency": "BRL"
    },
    {
      "id": "ebf7c6bb-51a6-4a5b-aa7b-730fdea95bf8",
      "status": "error",
      "date": "2019-07-04T07:06:24.360Z",
      "donor": {
        "name": "Kevin Leannon"
      },
      "method": {
        "type": "credit",
        "card": {
          "brand": "visa"
        }
      },
      "value": "6640",
      "currency": "BRL"
    },
    {
      "id": "307f2533-0a68-4f81-bda8-8d9569b64a41",
      "status": "hard_bounce",
      "date": "2019-07-04T01:56:25.076Z",
      "donor": {
        "name": "Verda Lind"
      },
      "method": {
        "type": "payment_slip",
        "card": {
          "brand": "visa"
        }
      },
      "value": "79597",
      "currency": "BRL"
    },
    {
      "id": "94e592f6-c7d3-461d-acf6-57475793bdd8",
      "status": "pending",
      "date": "2019-07-03T20:58:52.488Z",
      "donor": {
        "name": "Dewitt Hermiston"
      },
      "method": {
        "type": "debit",
        "card": {
          "brand": "visa"
        }
      },
      "value": "34443",
      "currency": "BRL"
    },
    {
      "id": "2523556f-2e4f-4a68-a72b-d6f4d3573989",
      "status": "refunded",
      "date": "2019-07-03T20:29:42.397Z",
      "donor": {
        "name": "Gay Mosciski"
      },
      "method": {
        "type": "credit",
        "card": {
          "brand": "elo"
        }
      },
      "value": "30621",
      "currency": "BRL"
    },
    {
      "id": "39d05f43-1dcc-437c-bcbf-3dde934817e9",
      "status": "processing",
      "date": "2019-07-04T13:40:59.922Z",
      "donor": {
        "name": "Miss Osbaldo Kilback"
      },
      "method": {
        "type": "payment_slip",
        "card": {
          "brand": "master"
        }
      },
      "value": "51015",
      "currency": "BRL"
    },
    {
      "id": "7eb900fd-bbe7-42f5-b7aa-af57b837cb6c",
      "status": "partial_refunded",
      "date": "2019-07-04T01:45:21.187Z",
      "donor": {
        "name": "Dr. Damien Harber"
      },
      "method": {
        "type": "debit",
        "card": {
          "brand": "elo"
        }
      },
      "value": "33029",
      "currency": "BRL"
    },
    {
      "id": "eefdee0f-e50a-45d9-83b9-c5a42f7befd1",
      "status": "expired",
      "date": "2019-07-03T23:42:08.096Z",
      "donor": {
        "name": "Giuseppe Robel Jr."
      },
      "method": {
        "type": "payment_slip",
        "card": {
          "brand": "elo"
        }
      },
      "value": "20899",
      "currency": "BRL"
    }
  ]
}